<?xml version="1.0" encoding="UTF-8" standalone="no"?>
<svg xmlns:xlink="http://www.w3.org/1999/xlink" height="20.6px" width="18.7px" xmlns="http://www.w3.org/2000/svg">
  <g transform="matrix(1.0, 0.0, 0.0, 1.0, 9.3, 9.45)">
    <path d="M2.3 0.35 L2.3 0.45 -2.05 0.45 -3.85 -7.6 2.9 -9.45 2.3 0.35" fill="#ffffff" fill-rule="evenodd" stroke="none"/>
    <path d="M1.65 7.35 L1.65 11.15 -6.05 9.9 1.65 7.35" fill="#cc6600" fill-rule="evenodd" stroke="none"/>
    <path d="M9.35 0.05 L2.3 0.35 2.9 -9.45 9.35 0.05 M-9.3 3.1 L-7.9 -2.7 -2.05 0.45 -9.3 3.1" fill="#ffa74f" fill-rule="evenodd" stroke="none"/>
    <path d="M9.35 0.05 L9.4 0.1 6.6 8.3 1.65 7.35 2.3 0.55 2.35 0.45 2.3 0.45 2.3 0.35 9.35 0.05 M-3.85 -7.6 L-2.05 0.45 -7.9 -2.7 -3.85 -7.6 M-6.05 9.9 L-9.3 3.1 -2.05 0.45 -6.05 9.9" fill="#ffd7ae" fill-rule="evenodd" stroke="none"/>
    <path d="M2.3 0.55 L1.65 7.35 6.6 8.3 1.65 11.15 1.65 7.35 -2.05 0.45 2.3 0.45 2.3 0.55" fill="#d96c00" fill-rule="evenodd" stroke="none"/>
    <path d="M-2.05 0.45 L1.65 7.35 -6.05 9.9 -2.05 0.45" fill="#ffc58a" fill-rule="evenodd" stroke="none"/>
    <path d="M9.4 0.1 L9.35 0.05" fill="none" stroke="#000404" stroke-linecap="round" stroke-linejoin="round" stroke-width="0.05"/>
  </g>
</svg>
