<?xml version="1.0" encoding="UTF-8" standalone="no"?>
<svg xmlns:xlink="http://www.w3.org/1999/xlink" height="30.2px" width="29.25px" xmlns="http://www.w3.org/2000/svg">
  <g transform="matrix(1.0, 0.0, 0.0, 1.0, 14.2, 28.9)">
    <path d="M0.85 -28.8 L10.95 -24.5 11.3 -24.25 11.5 -23.9 15.0 -14.1 15.0 -13.45 11.5 -3.65 11.3 -3.3 10.95 -3.05 0.85 1.25 0.05 1.25 -10.1 -3.05 -10.45 -3.3 -10.65 -3.65 -14.15 -13.45 -14.15 -14.1 -10.65 -23.9 -10.45 -24.25 -10.1 -24.5 0.05 -28.8 0.85 -28.8 M14.05 -13.75 L10.55 -23.55 10.35 -23.65 0.45 -27.85 -9.45 -23.65 -9.7 -23.55 -13.2 -13.75 -5.55 -13.75 -2.55 -10.75 -9.45 -3.85 0.45 0.35 10.35 -3.85 10.55 -3.95 14.05 -13.75 M0.45 -13.75 L6.4 -13.75 3.4 -10.75 0.45 -7.8 0.45 -13.75" fill="#4a006f" fill-rule="evenodd" stroke="none"/>
    <path d="M-2.55 -10.75 L-5.55 -13.75 0.45 -13.75 0.45 -7.8 -2.55 -10.75 M-9.45 -23.65 L0.45 -27.85 0.45 -19.75 -2.55 -16.75 -9.45 -23.65" fill="#ffffff" fill-rule="evenodd" stroke="none"/>
    <path d="M10.35 -23.65 L10.55 -23.55 14.05 -13.75 6.4 -13.75 3.4 -16.75 10.35 -23.65" fill="url(#gradient0)" fill-rule="evenodd" stroke="none"/>
    <path d="M3.4 -16.75 L6.4 -13.75 0.45 -13.75 0.45 -19.75 3.4 -16.75" fill="url(#gradient1)" fill-rule="evenodd" stroke="none"/>
    <path d="M10.35 -23.65 L3.4 -16.75 0.45 -19.75 0.45 -27.85 10.35 -23.65" fill="url(#gradient2)" fill-rule="evenodd" stroke="none"/>
    <path d="M6.4 -13.75 L14.05 -13.75 10.55 -3.95 10.35 -3.85 3.4 -10.75 6.4 -13.75" fill="url(#gradient3)" fill-rule="evenodd" stroke="none"/>
    <path d="M10.35 -3.85 L0.45 0.35 0.45 -7.8 3.4 -10.75 10.35 -3.85" fill="url(#gradient4)" fill-rule="evenodd" stroke="none"/>
    <path d="M-5.55 -13.75 L-13.2 -13.75 -9.7 -23.55 -9.45 -23.65 -2.55 -16.75 -5.55 -13.75" fill="url(#gradient5)" fill-rule="evenodd" stroke="none"/>
    <path d="M0.45 -19.75 L0.45 -13.75 -5.55 -13.75 -2.55 -16.75 0.45 -19.75" fill="url(#gradient6)" fill-rule="evenodd" stroke="none"/>
    <path d="M0.45 0.35 L-9.45 -3.85 -2.55 -10.75 0.45 -7.8 0.45 0.35" fill="url(#gradient7)" fill-rule="evenodd" stroke="none"/>
  </g>
  <defs>
    <linearGradient gradientTransform="matrix(0.0065, 0.0, 0.0, 0.006, 8.75, -18.7)" gradientUnits="userSpaceOnUse" id="gradient0" spreadMethod="pad" x1="-819.2" x2="819.2">
      <stop offset="0.0" stop-color="#ffffff"/>
      <stop offset="1.0" stop-color="#d89afe"/>
    </linearGradient>
    <linearGradient gradientTransform="matrix(0.0036, 0.0, 0.0, 0.0036, 3.4, -16.75)" gradientUnits="userSpaceOnUse" id="gradient1" spreadMethod="pad" x1="-819.2" x2="819.2">
      <stop offset="0.0" stop-color="#ffffff"/>
      <stop offset="1.0" stop-color="#9200ea"/>
    </linearGradient>
    <linearGradient gradientTransform="matrix(0.0061, 0.0, 0.0, 0.0068, 5.35, -22.35)" gradientUnits="userSpaceOnUse" id="gradient2" spreadMethod="pad" x1="-819.2" x2="819.2">
      <stop offset="0.0" stop-color="#550189"/>
      <stop offset="1.0" stop-color="#d39fff"/>
    </linearGradient>
    <linearGradient gradientTransform="matrix(0.0065, 0.0, 0.0, 0.0061, 8.75, -8.85)" gradientUnits="userSpaceOnUse" id="gradient3" spreadMethod="pad" x1="-819.2" x2="819.2">
      <stop offset="0.0" stop-color="#ffffff"/>
      <stop offset="1.0" stop-color="#9200ea"/>
    </linearGradient>
    <linearGradient gradientTransform="matrix(0.0061, 0.0, 0.0, 0.0068, 5.35, -5.25)" gradientUnits="userSpaceOnUse" id="gradient4" spreadMethod="pad" x1="-819.2" x2="819.2">
      <stop offset="0.0" stop-color="#550189"/>
      <stop offset="1.0" stop-color="#d39fff"/>
    </linearGradient>
    <linearGradient gradientTransform="matrix(0.0065, 0.0, 0.0, 0.006, -7.9, -18.7)" gradientUnits="userSpaceOnUse" id="gradient5" spreadMethod="pad" x1="-819.2" x2="819.2">
      <stop offset="0.0" stop-color="#ffffff"/>
      <stop offset="1.0" stop-color="#9200ea"/>
    </linearGradient>
    <linearGradient gradientTransform="matrix(0.0036, 0.0, 0.0, 0.0036, -2.55, -16.75)" gradientUnits="userSpaceOnUse" id="gradient6" spreadMethod="pad" x1="-819.2" x2="819.2">
      <stop offset="0.0" stop-color="#550189"/>
      <stop offset="1.0" stop-color="#d39fff"/>
    </linearGradient>
    <linearGradient gradientTransform="matrix(0.006, 0.0, 0.0, 0.0068, -4.55, -5.25)" gradientUnits="userSpaceOnUse" id="gradient7" spreadMethod="pad" x1="-819.2" x2="819.2">
      <stop offset="0.0" stop-color="#ffffff"/>
      <stop offset="1.0" stop-color="#9200ea"/>
    </linearGradient>
  </defs>
</svg>
