<?xml version="1.0" encoding="UTF-8" standalone="no"?>
<svg xmlns:xlink="http://www.w3.org/1999/xlink" height="21.05px" width="23.7px" xmlns="http://www.w3.org/2000/svg">
  <g transform="matrix(1.0, 0.0, 0.0, 1.0, 11.85, 21.05)">
    <path d="M0.65 -0.3 Q0.3 0.0 -0.1 0.0 L-0.9 -0.35 -7.75 -7.35 Q-13.95 -13.85 -10.75 -18.4 L-10.45 -18.7 Q-4.2 -23.0 -0.1 -19.45 4.0 -23.0 10.2 -18.7 L10.45 -18.45 Q13.85 -13.8 9.0 -8.5 4.8 -3.95 0.65 -0.3" fill="#660000" fill-rule="evenodd" stroke="none"/>
    <path d="M6.5 -19.6 L6.95 -19.4 7.7 -19.05 8.4 -18.6 9.15 -18.1 Q11.95 -14.15 7.8 -9.65 3.65 -5.2 -0.4 -1.6 L-0.4 -1.55 -0.5 -1.5 -0.5 -1.45 -1.05 -1.95 0.3 -4.3 Q1.85 -6.65 3.85 -8.05 8.65 -11.3 8.65 -15.5 8.65 -17.55 7.3 -18.85 L6.5 -19.6 M-3.05 -4.05 L-3.8 -4.8 -7.35 -8.5 Q-12.8 -14.15 -10.2 -18.1 L-9.45 -18.6 Q-10.2 -17.65 -10.2 -16.0 -10.15 -13.25 -7.4 -13.25 -4.25 -13.25 -3.15 -16.95 -3.1 -19.9 -6.05 -19.9 L-6.85 -19.85 -4.5 -20.2 Q-3.65 -19.5 -2.8 -18.2 L-0.75 -15.25 Q-0.15 -15.25 0.1 -17.9 L-0.05 -18.65 Q1.45 -20.05 3.35 -20.15 L3.7 -19.95 Q5.3 -18.95 5.3 -17.65 5.3 -13.55 0.9 -10.8 -1.6 -9.2 -2.35 -7.4 L-3.2 -5.7 Q-3.35 -5.15 -3.85 -4.85 L-3.05 -4.05" fill="#ff0000" fill-rule="evenodd" stroke="none"/>
    <path d="M-9.55 -15.8 Q-9.55 -16.85 -8.55 -17.85 -7.3 -19.25 -6.0 -18.85 -4.7 -18.5 -4.5 -18.0 -4.3 -17.55 -8.5 -14.65 -9.45 -14.7 -9.55 -15.8" fill="#ffffff" fill-rule="evenodd" stroke="none"/>
    <path d="M3.35 -20.15 L3.3 -20.2 6.1 -19.75 6.5 -19.6 7.3 -18.85 Q8.65 -17.55 8.65 -15.5 8.65 -11.3 3.85 -8.05 1.85 -6.65 0.3 -4.3 L-1.05 -1.95 -3.05 -4.05 -3.85 -4.85 Q-3.35 -5.15 -3.2 -5.7 L-2.35 -7.4 Q-1.6 -9.2 0.9 -10.8 5.3 -13.55 5.3 -17.65 5.3 -18.95 3.7 -19.95 L3.35 -20.15 M-4.5 -20.2 L-2.45 -19.65 Q-1.7 -19.3 -1.0 -18.65 L-0.5 -18.2 -0.05 -18.65 0.1 -17.9 Q-0.15 -15.25 -0.75 -15.25 L-2.8 -18.2 Q-3.65 -19.5 -4.5 -20.2" fill="#c10202" fill-rule="evenodd" stroke="none"/>
    <path d="M-9.45 -18.6 L-9.4 -18.65 -9.35 -18.65 Q-8.05 -19.45 -6.85 -19.85 L-6.05 -19.9 Q-3.1 -19.9 -3.15 -16.95 -4.25 -13.25 -7.4 -13.25 -10.15 -13.25 -10.2 -16.0 -10.2 -17.65 -9.45 -18.6 M-9.55 -15.8 Q-9.45 -14.7 -8.5 -14.65 -4.3 -17.55 -4.5 -18.0 -4.7 -18.5 -6.0 -18.85 -7.3 -19.25 -8.55 -17.85 -9.55 -16.85 -9.55 -15.8" fill="#fea3a3" fill-rule="evenodd" stroke="none"/>
  </g>
</svg>
