<?xml version="1.0" encoding="UTF-8" standalone="no"?>
<svg xmlns:xlink="http://www.w3.org/1999/xlink" height="23.4px" width="23.4px" xmlns="http://www.w3.org/2000/svg">
  <g transform="matrix(1.0, 0.0, 0.0, 1.0, 11.5, 23.45)">
    <path d="M8.95 -19.5 Q11.9 -16.25 11.9 -11.75 11.9 -6.9 8.45 -3.5 5.05 -0.05 0.2 -0.05 -4.3 -0.05 -7.55 -3.0 -10.5 -6.25 -10.5 -10.75 -10.5 -15.6 -7.1 -19.05 -3.65 -22.45 1.2 -22.45 5.7 -22.45 8.95 -19.5" fill="#ffcc00" fill-rule="evenodd" stroke="none"/>
    <path d="M-7.55 -3.0 L-8.1 -3.5 Q-11.5 -6.9 -11.5 -11.75 -11.5 -16.6 -8.1 -20.05 -4.65 -23.45 0.2 -23.45 5.05 -23.45 8.45 -20.05 L8.95 -19.5 Q5.7 -22.45 1.2 -22.45 -3.65 -22.45 -7.1 -19.05 -10.5 -15.6 -10.5 -10.75 -10.5 -6.25 -7.55 -3.0" fill="#ffffff" fill-rule="evenodd" stroke="none"/>
    <path d="M2.35 -20.3 L4.15 -19.65 4.2 -19.6 4.3 -19.55 5.55 -18.7 6.35 -18.0 7.8 -16.2 8.0 -15.85 Q8.95 -14.0 8.95 -11.75 8.95 -8.1 6.35 -5.5 3.8 -2.95 0.15 -2.95 -2.75 -2.95 -4.95 -4.55 L-5.35 -4.85 -6.1 -5.5 Q-7.15 -6.55 -7.75 -7.75 -8.6 -9.5 -8.65 -11.5 L-8.65 -11.75 Q-8.65 -15.4 -6.1 -18.0 -3.5 -20.55 0.15 -20.55 L2.35 -20.3" fill="#e6941a" fill-rule="evenodd" stroke="none"/>
    <path d="M-8.65 -13.2 Q-8.9 -15.6 -7.3 -17.5 -3.5 -22.1 2.4 -20.75 8.85 -19.05 9.2 -12.4 L8.45 -14.15 Q5.7 -20.15 -0.2 -20.15 -7.0 -19.05 -8.65 -13.2" fill="#ba5e01" fill-rule="evenodd" stroke="none"/>
    <path d="M9.15 -10.25 Q9.4 -7.85 7.8 -5.95 4.0 -1.35 -1.9 -2.7 -8.35 -4.4 -8.7 -11.05 L-7.95 -9.3 Q-5.2 -3.3 0.7 -3.3 7.5 -4.4 9.15 -10.25" fill="#ffffff" fill-rule="evenodd" stroke="none"/>
    <path d="M4.45 -15.85 L4.55 -15.8 4.6 -15.65 4.6 -13.55 4.55 -13.35 4.35 -13.3 4.05 -13.3 3.95 -13.3 2.8 -13.8 1.6 -13.95 1.6 -12.6 2.0 -12.55 Q3.7 -12.2 4.55 -11.5 L4.6 -11.5 Q5.4 -10.8 5.4 -9.5 5.4 -8.15 4.3 -7.15 L4.25 -7.15 Q3.25 -6.3 1.6 -6.1 L1.6 -3.7 1.55 -3.5 1.35 -3.45 0.1 -3.45 -0.05 -3.5 -0.15 -3.7 -0.15 -6.05 -1.8 -6.25 -1.85 -6.25 -3.6 -6.75 -3.7 -6.85 -3.75 -7.0 -3.75 -9.15 -3.65 -9.3 -3.5 -9.4 -3.15 -9.4 -3.0 -9.35 Q-2.4 -9.0 -1.55 -8.8 L-0.1 -8.5 -0.1 -10.05 -0.65 -10.2 -1.85 -10.55 Q-2.55 -10.8 -2.95 -11.15 L-3.65 -12.05 -3.9 -13.4 Q-3.9 -14.55 -2.8 -15.45 -1.85 -16.25 -0.15 -16.4 L-0.15 -17.9 -0.05 -18.05 0.1 -18.15 1.35 -18.15 1.55 -18.05 1.6 -17.9 1.6 -16.4 3.0 -16.25 4.45 -15.85 M-0.05 -13.95 L-0.5 -13.8 -0.5 -13.85 -0.8 -13.45 -0.65 -13.1 -0.05 -12.9 -0.05 -13.95 M2.05 -8.75 L2.25 -9.2 2.0 -9.6 1.6 -9.75 1.6 -8.6 2.05 -8.75" fill="#ba5e01" fill-rule="evenodd" stroke="none"/>
    <path d="M0.85 -16.95 L0.85 -16.8 2.45 -16.6 3.85 -16.25 3.85 -15.9 1.15 -16.2 Q-2.2 -16.2 -3.4 -14.7 L-4.1 -13.4 -4.15 -14.0 Q-4.15 -15.05 -3.15 -15.85 -2.2 -16.65 -0.4 -16.8 L-0.4 -17.0 0.0 -17.0 0.85 -16.95 M3.3 -12.3 L3.85 -11.95 3.9 -11.9 3.95 -11.85 4.4 -11.3 4.55 -10.95 4.5 -11.0 4.2 -11.4 2.2 -12.05 0.2 -12.65 Q-0.7 -12.9 -0.95 -13.3 L-0.4 -13.2 -0.3 -13.2 -0.3 -13.35 Q0.25 -13.1 0.65 -13.0 L2.6 -12.55 3.3 -12.3 M0.0 -4.3 L-0.3 -4.3 -0.4 -4.9 -0.4 -6.9 -0.3 -6.95 Q0.0 -6.95 0.0 -4.7 L0.0 -4.3 M-3.75 -7.45 L-4.0 -7.6 -4.0 -8.75 -3.95 -8.85 -4.0 -8.9 -4.0 -9.75 -3.65 -9.75 -2.1 -9.15 -0.35 -8.85 -0.35 -9.1 -0.15 -9.1 0.85 -9.25 0.85 -8.9 Q1.3 -8.95 1.65 -9.15 L2.0 -9.7 2.05 -9.6 Q2.05 -8.45 -0.75 -8.45 L-3.5 -8.7 -3.55 -8.15 -3.75 -7.45 M-0.4 -17.1 L-0.4 -18.5 0.85 -18.5 0.85 -18.3 Q0.15 -18.25 0.0 -17.9 -0.05 -17.1 -0.35 -17.1 L-0.4 -17.1" fill="#ffffff" fill-rule="evenodd" stroke="none"/>
    <path d="M0.85 -16.95 L0.0 -17.0 -0.4 -17.0 -0.4 -17.1 -0.35 -17.1 Q-0.05 -17.1 0.0 -17.9 0.15 -18.25 0.85 -18.3 L0.85 -16.95 M-4.1 -13.4 L-3.4 -14.7 Q-2.2 -16.2 1.15 -16.2 L3.85 -15.9 3.85 -14.15 3.55 -14.15 2.35 -14.65 0.85 -14.85 0.85 -13.0 1.45 -12.9 3.3 -12.3 2.6 -12.55 0.65 -13.0 Q0.25 -13.1 -0.3 -13.35 L-0.3 -14.85 -1.15 -14.65 -1.55 -14.05 -1.3 -13.5 -0.4 -13.2 -0.95 -13.3 Q-0.7 -12.9 0.2 -12.65 L2.2 -12.05 4.2 -11.4 4.5 -11.0 4.65 -10.1 Q4.65 -8.85 3.6 -7.95 2.6 -7.1 0.85 -6.95 L0.85 -4.3 0.0 -4.3 0.0 -4.7 Q0.0 -6.95 -0.3 -6.95 L-0.4 -6.9 -2.3 -7.1 -3.75 -7.45 -3.55 -8.15 -3.5 -8.7 -0.75 -8.45 Q2.05 -8.45 2.05 -9.6 L2.0 -9.7 2.0 -9.8 Q2.0 -10.25 1.6 -10.45 L0.85 -10.7 0.85 -9.25 -0.15 -9.1 -0.35 -9.1 -0.35 -10.85 -1.1 -11.05 -2.3 -11.4 Q-2.9 -11.6 -3.3 -11.95 L-3.95 -12.75 -4.1 -13.4 M-0.3 -4.3 L-0.4 -4.3 -0.4 -4.9 -0.3 -4.3 M-4.0 -8.75 L-4.0 -8.9 -3.95 -8.85 -4.0 -8.75" fill="#ffcc00" fill-rule="evenodd" stroke="none"/>
  </g>
</svg>
