<?xml version="1.0" encoding="UTF-8" standalone="no"?>
<svg xmlns:xlink="http://www.w3.org/1999/xlink" height="29.35px" width="30.65px" xmlns="http://www.w3.org/2000/svg">
  <g transform="matrix(1.0, 0.0, 0.0, 1.0, 16.05, 27.8)">
    <path d="M1.4 -23.85 L1.75 -24.05 Q3.4 -24.5 3.4 -24.8 3.4 -25.15 2.95 -25.15 L1.65 -24.9 -0.85 -24.8 -2.35 -24.7 -2.95 -24.85 -3.5 -24.65 -5.3 -25.25 -5.7 -25.25 -5.7 -25.1 -3.05 -23.75 -1.55 -23.35 -1.4 -23.35 1.4 -23.85 M6.0 -25.35 L5.9 -24.9 Q5.95 -24.4 6.15 -24.0 6.6 -23.1 7.5 -23.1 8.85 -23.1 8.85 -24.1 8.35 -25.8 6.75 -25.8 6.2 -25.8 6.0 -25.35 M-14.3 1.3 Q-15.95 0.35 -14.15 -2.85 L-14.1 -2.9 Q-13.25 -7.0 -12.95 -11.3 -12.7 -14.75 -13.0 -18.4 -13.45 -24.5 -8.55 -26.65 L-6.95 -26.45 Q-2.55 -25.35 -0.25 -25.5 2.0 -25.65 4.7 -26.55 7.4 -27.45 9.55 -24.45 11.65 -21.5 10.65 -16.5 L10.65 -12.9 10.85 -9.75 11.0 -7.0 Q11.35 -5.2 12.55 -3.8 L13.15 -2.9 Q13.55 -2.1 13.55 -1.25 13.55 0.75 11.4 1.05 L9.6 1.3 5.6 1.55 -13.7 1.55 -14.15 1.4 -14.3 1.3 M4.8 -23.15 Q4.55 -23.7 3.9 -23.7 2.4 -23.7 2.4 -22.4 2.4 -21.35 3.45 -21.35 4.55 -21.35 4.85 -21.95 L4.95 -21.95 Q5.4 -21.95 5.4 -22.55 5.35 -23.15 4.8 -23.15 M8.85 -21.0 L8.55 -21.0 8.5 -20.25 7.85 -10.75 7.85 -10.7 7.85 -10.65 Q8.15 -6.15 9.0 -4.95 L9.15 -4.8 9.5 -5.7 9.05 -10.65 9.45 -14.45 9.75 -19.2 9.8 -21.25 8.85 -21.0 M10.35 -20.3 L10.2 -20.3 10.05 -14.25 9.75 -8.9 9.85 -7.05 Q10.1 -5.25 10.65 -5.25 11.1 -5.25 11.1 -5.7 10.5 -7.8 10.5 -11.55 L10.35 -20.3 M2.85 -20.55 L1.55 -20.8 Q1.1 -17.4 0.6 -8.55 0.4 -3.2 3.75 -3.2 4.95 -3.2 4.95 -4.35 L4.35 -5.0 3.75 -5.65 Q2.55 -7.1 2.55 -9.5 2.55 -17.85 3.0 -20.45 L3.0 -20.5 3.0 -20.55 2.85 -20.55 M6.05 -1.65 L6.1 -1.65 6.15 -1.4 5.85 -1.4 5.85 -1.45 6.05 -1.65 M5.85 -19.75 Q5.25 -19.75 5.0 -14.75 L4.85 -9.65 Q4.85 -8.0 5.4 -5.25 L5.65 -3.9 Q5.3 -3.7 5.15 -3.1 L5.05 -2.1 4.05 -1.95 Q1.8 -1.95 0.7 -3.05 0.1 -3.05 0.1 -2.2 0.1 -1.7 0.35 -1.35 L0.25 -1.3 -0.25 -1.85 -0.45 -4.2 -0.65 -7.15 -0.4 -10.5 -0.4 -13.9 0.25 -20.7 Q0.15 -21.4 -0.35 -21.4 -0.55 -21.2 -0.8 -21.2 L-1.15 -21.35 Q-2.05 -21.35 -2.15 -17.15 L-2.05 -15.35 -2.6 -11.8 -2.8 -8.2 -3.3 -4.65 -3.6 -2.85 -4.55 -2.25 Q-4.9 -1.9 -4.9 -1.3 L-5.25 -1.2 -7.4 -1.05 -8.55 -0.95 Q-9.15 -0.95 -9.25 -1.2 -8.75 -1.55 -7.9 -4.8 L-7.05 -8.5 Q-7.05 -10.2 -7.4 -10.2 L-7.6 -10.15 -7.6 -9.9 -7.7 -9.95 -7.95 -10.1 Q-8.3 -10.1 -8.3 -9.6 L-8.2 -9.1 Q-8.2 -7.35 -9.45 -4.4 L-10.5 -1.9 -10.55 -1.85 Q-11.7 -1.2 -12.35 -1.3 -12.2 -1.35 -12.2 -1.7 -12.2 -2.3 -12.75 -2.3 L-13.4 -1.55 -13.75 -0.65 Q-13.75 0.2 -12.3 0.2 L-11.9 0.0 -10.6 0.45 -10.25 0.35 Q-9.0 0.35 -8.7 0.7 L-8.2 1.0 -6.85 1.05 Q-6.85 1.5 -3.8 0.4 L-1.95 0.55 0.05 0.2 4.3 0.6 6.15 0.4 7.4 0.5 10.75 -0.35 Q12.5 -0.4 12.5 -2.25 12.5 -2.9 11.95 -2.9 11.8 -2.9 10.6 -2.1 9.75 -2.15 9.35 -1.75 8.85 -1.25 8.3 -1.25 L7.7 -1.3 7.7 -1.6 Q7.7 -2.15 7.2 -2.9 L7.0 -4.15 6.4 -6.7 Q6.15 -8.3 6.15 -11.85 L6.35 -18.1 Q6.5 -19.75 5.85 -19.75 M-9.35 -22.5 Q-7.85 -22.5 -7.85 -24.0 L-8.05 -24.65 Q-8.4 -25.25 -9.05 -25.25 -10.5 -25.25 -10.5 -23.6 -10.55 -22.5 -9.35 -22.5 M-3.8 -22.55 Q-3.8 -23.4 -4.65 -23.4 -5.55 -23.4 -5.55 -22.55 -5.5 -21.65 -4.65 -21.65 L-3.8 -22.55 M-4.8 -20.05 L-4.8 -20.4 -5.1 -20.4 -5.95 -20.6 -6.05 -18.5 Q-6.05 -13.35 -6.3 -10.8 L-6.75 -6.9 Q-6.75 -5.1 -7.95 -2.9 -7.9 -1.8 -6.8 -1.8 -4.7 -1.8 -4.25 -6.6 -4.1 -8.45 -4.2 -10.95 -4.2 -14.2 -4.8 -20.05 M-7.1 -20.25 L-6.95 -21.8 -7.15 -22.25 Q-7.65 -20.9 -7.65 -19.3 L-7.55 -17.9 Q-7.55 -16.5 -7.25 -16.5 -6.95 -16.5 -6.95 -17.9 L-7.1 -20.25 M-11.4 -3.45 Q-10.65 -3.45 -9.95 -7.75 L-9.45 -12.05 Q-9.45 -17.0 -10.25 -20.45 L-10.2 -20.75 -10.65 -20.75 -11.35 -20.9 -11.4 -20.55 Q-10.95 -16.5 -10.95 -11.9 -10.95 -8.7 -12.15 -4.55 -12.35 -3.5 -11.5 -3.45 L-11.45 -3.35 -11.4 -3.45" fill="#662822" fill-rule="evenodd" stroke="none"/>
    <path d="M-3.05 -23.75 L-5.7 -25.1 -5.7 -25.25 -5.3 -25.25 -3.5 -24.65 -2.95 -24.85 -2.35 -24.7 -0.85 -24.8 1.65 -24.9 2.95 -25.15 Q3.4 -25.15 3.4 -24.8 3.4 -24.5 1.75 -24.05 L1.4 -23.85 -1.0 -24.15 Q-2.8 -24.15 -3.05 -23.75 M6.0 -25.35 Q6.2 -25.8 6.75 -25.8 8.35 -25.8 8.85 -24.1 8.85 -23.1 7.5 -23.1 6.6 -23.1 6.15 -24.0 5.95 -24.4 5.9 -24.9 L6.0 -25.35 M10.35 -20.3 L10.5 -11.55 Q10.5 -7.8 11.1 -5.7 11.1 -5.25 10.65 -5.25 10.1 -5.25 9.85 -7.05 L9.75 -8.9 10.05 -14.25 10.2 -20.3 10.35 -20.3 M8.85 -21.0 L9.8 -21.25 9.75 -19.2 9.45 -14.45 9.05 -10.65 9.5 -5.7 9.15 -4.8 9.0 -4.95 Q8.15 -6.15 7.85 -10.65 L7.85 -10.7 7.85 -10.75 8.5 -20.25 8.55 -21.0 8.85 -21.0 M4.8 -23.15 Q5.35 -23.15 5.4 -22.55 5.4 -21.95 4.95 -21.95 L4.85 -21.95 Q4.55 -21.35 3.45 -21.35 2.4 -21.35 2.4 -22.4 2.4 -23.7 3.9 -23.7 4.55 -23.7 4.8 -23.15 M2.85 -20.55 L3.0 -20.55 3.0 -20.5 3.0 -20.45 Q2.55 -17.85 2.55 -9.5 2.55 -7.1 3.75 -5.65 L4.35 -5.0 4.95 -4.35 Q4.95 -3.2 3.75 -3.2 0.4 -3.2 0.6 -8.55 1.1 -17.4 1.55 -20.8 L2.85 -20.55 M-4.8 -20.05 Q-4.2 -14.2 -4.2 -10.95 -4.1 -8.45 -4.25 -6.6 -4.7 -1.8 -6.8 -1.8 -7.9 -1.8 -7.95 -2.9 -6.75 -5.1 -6.75 -6.9 L-6.3 -10.8 Q-6.05 -13.35 -6.05 -18.5 L-5.95 -20.6 -5.1 -20.4 -4.8 -20.4 -4.8 -20.05 M-3.8 -22.55 L-4.65 -21.65 Q-5.5 -21.65 -5.55 -22.55 -5.55 -23.4 -4.65 -23.4 -3.8 -23.4 -3.8 -22.55 M-9.35 -22.5 Q-10.55 -22.5 -10.5 -23.6 -10.5 -25.25 -9.05 -25.25 -8.4 -25.25 -8.05 -24.65 L-7.85 -24.0 Q-7.85 -22.5 -9.35 -22.5 M-11.5 -3.45 Q-12.35 -3.5 -12.15 -4.55 -10.95 -8.7 -10.95 -11.9 -10.95 -16.5 -11.4 -20.55 L-11.35 -20.9 -10.65 -20.75 -10.2 -20.75 -10.25 -20.45 Q-9.45 -17.0 -9.45 -12.05 L-9.95 -7.75 Q-10.65 -3.45 -11.4 -3.45 L-11.5 -3.45" fill="#b44110" fill-rule="evenodd" stroke="none"/>
    <path d="M1.4 -23.85 L-1.4 -23.35 -1.55 -23.35 -3.05 -23.75 Q-2.8 -24.15 -1.0 -24.15 L1.4 -23.85 M-11.4 -3.45 L-11.45 -3.35 -11.5 -3.45 -11.4 -3.45" fill="#f58c23" fill-rule="evenodd" stroke="none"/>
    <path d="M5.85 -19.75 Q6.5 -19.75 6.35 -18.1 L6.15 -11.85 Q6.15 -8.3 6.4 -6.7 L7.0 -4.15 7.2 -2.9 Q7.7 -2.15 7.7 -1.6 L7.7 -1.3 8.3 -1.25 Q8.85 -1.25 9.35 -1.75 9.75 -2.15 10.6 -2.1 11.8 -2.9 11.95 -2.9 12.5 -2.9 12.5 -2.25 12.5 -0.4 10.75 -0.35 L7.4 0.5 6.15 0.4 4.3 0.6 0.05 0.2 -1.95 0.55 -3.8 0.4 Q-6.85 1.5 -6.85 1.05 L-8.2 1.0 -8.7 0.7 Q-9.0 0.35 -10.25 0.35 L-10.6 0.45 -11.9 0.0 -12.3 0.2 Q-13.75 0.2 -13.75 -0.65 L-13.4 -1.55 -12.75 -2.3 Q-12.2 -2.3 -12.2 -1.7 -12.2 -1.35 -12.35 -1.3 -11.7 -1.2 -10.55 -1.85 L-10.5 -1.9 -9.45 -4.4 Q-8.2 -7.35 -8.2 -9.1 L-8.3 -9.6 Q-8.3 -10.1 -7.95 -10.1 L-7.7 -9.95 -7.6 -9.9 -7.6 -10.15 -7.4 -10.2 Q-7.05 -10.2 -7.05 -8.5 L-7.9 -4.8 Q-8.75 -1.55 -9.25 -1.2 -9.15 -0.95 -8.55 -0.95 L-7.4 -1.05 -5.25 -1.2 -4.9 -1.3 Q-4.9 -1.9 -4.55 -2.25 L-3.6 -2.85 -3.3 -4.65 -2.8 -8.2 -2.6 -11.8 -2.05 -15.35 -2.15 -17.15 Q-2.05 -21.35 -1.15 -21.35 L-0.8 -21.2 Q-0.55 -21.2 -0.35 -21.4 0.15 -21.4 0.25 -20.7 L-0.4 -13.9 -0.4 -10.5 -0.65 -7.15 -0.45 -4.2 -0.25 -1.85 0.25 -1.3 0.35 -1.35 Q0.1 -1.7 0.1 -2.2 0.1 -3.05 0.7 -3.05 1.8 -1.95 4.05 -1.95 L5.05 -2.1 5.15 -3.1 Q5.3 -3.7 5.65 -3.9 L5.4 -5.25 Q4.85 -8.0 4.85 -9.65 L5.0 -14.75 Q5.25 -19.75 5.85 -19.75 M6.05 -1.65 L5.85 -1.45 5.85 -1.4 6.15 -1.4 6.1 -1.65 6.05 -1.65 M-7.1 -20.25 L-6.95 -17.9 Q-6.95 -16.5 -7.25 -16.5 -7.55 -16.5 -7.55 -17.9 L-7.65 -19.3 Q-7.65 -20.9 -7.15 -22.25 L-6.95 -21.8 -7.1 -20.25" fill="#2d110f" fill-rule="evenodd" stroke="none"/>
    <path d="M-14.3 1.3 L-15.7 1.3 Q-16.05 0.7 -16.05 -0.1 -16.1 -1.35 -15.0 -3.25 -14.2 -7.25 -13.9 -11.35 -13.65 -14.75 -13.95 -18.3 -14.45 -25.2 -8.9 -27.55 L-8.5 -27.65 -6.65 -27.4 Q-2.5 -26.4 -0.3 -26.5 1.85 -26.65 4.45 -27.5 7.8 -28.7 10.4 -25.05 12.75 -21.85 11.7 -16.4 L11.7 -12.9 11.9 -9.8 12.05 -7.25 12.05 -7.2 Q12.35 -5.65 13.4 -4.45 L14.1 -3.3 14.1 -3.35 Q14.6 -2.35 14.6 -1.25 14.6 0.45 13.55 1.3 L9.6 1.3 11.4 1.05 Q13.55 0.75 13.55 -1.25 13.55 -2.1 13.15 -2.9 L12.55 -3.8 Q11.35 -5.2 11.0 -7.0 L10.85 -9.75 10.65 -12.9 10.65 -16.5 Q11.65 -21.5 9.55 -24.45 7.4 -27.45 4.7 -26.55 2.0 -25.65 -0.25 -25.5 -2.55 -25.35 -6.95 -26.45 L-8.55 -26.65 Q-13.45 -24.5 -13.0 -18.4 -12.7 -14.75 -12.95 -11.3 -13.25 -7.0 -14.1 -2.9 L-14.15 -2.85 Q-15.95 0.35 -14.3 1.3" fill="#000000" fill-rule="evenodd" stroke="none"/>
  </g>
</svg>
