<?xml version="1.0" encoding="UTF-8" standalone="no"?>
<svg xmlns:xlink="http://www.w3.org/1999/xlink" height="36.1px" width="32.9px" xmlns="http://www.w3.org/2000/svg">
  <g transform="matrix(1.0, 0.0, 0.0, 1.0, 12.7, 33.65)">
    <path d="M3.15 -13.1 L4.0 -13.05 4.0 -13.1 5.6 -18.4 Q7.1 -23.2 7.1 -24.9 L7.1 -25.0 Q6.65 -30.3 3.05 -30.2 1.25 -30.2 0.6 -28.55 L0.55 -28.4 0.35 -27.05 Q0.35 -25.8 0.8 -23.95 L1.25 -21.5 0.6 -18.8 -0.25 -16.95 -0.55 -16.2 0.25 -16.95 Q1.25 -17.6 1.5 -18.65 L2.15 -21.55 1.7 -24.2 Q1.25 -25.9 1.25 -27.1 L1.45 -28.3 Q1.9 -29.45 3.2 -29.45 6.1 -29.45 6.5 -24.95 6.5 -23.3 5.05 -18.65 L3.4 -13.2 3.15 -13.1" fill="#000000" fill-rule="evenodd" stroke="none"/>
    <path d="M4.45 -26.75 L3.4 -27.0 3.5 -26.95 Q4.7 -26.0 4.7 -25.0 L4.5 -24.75 Q4.1 -25.05 3.95 -25.9 L2.85 -27.15 2.9 -27.4 3.4 -27.6 3.95 -27.55 Q3.65 -27.95 3.2 -27.95 2.6 -27.95 2.6 -27.1 L3.0 -23.85 3.0 -22.0 Q3.05 -20.75 3.5 -20.75 L3.6 -20.75 3.75 -21.7 3.8 -21.95 Q3.35 -23.15 3.2 -24.85 L3.2 -24.95 4.05 -25.0 4.3 -22.9 4.7 -23.5 4.75 -23.35 4.9 -24.6 4.45 -26.75" fill="#f3fbae" fill-rule="evenodd" stroke="none"/>
    <path d="M3.95 -27.55 L3.4 -27.6 2.9 -27.4 2.85 -27.15 3.95 -25.9 Q4.1 -25.05 4.5 -24.75 L4.7 -25.0 Q4.7 -26.0 3.5 -26.95 L3.4 -27.0 4.45 -26.75 5.0 -26.3 5.15 -26.3 5.3 -26.6 4.85 -27.35 3.95 -27.55 M4.75 -23.35 L4.7 -23.5 4.3 -22.9 3.8 -21.95 3.75 -21.7 3.6 -20.75 3.55 -20.0 3.6 -19.9 3.8 -19.75 Q4.3 -19.75 4.35 -20.35 L4.25 -21.35 Q4.25 -21.85 4.85 -22.9 L4.75 -23.35 M3.1 -18.6 Q2.55 -18.15 2.55 -17.1 L2.6 -16.75 2.7 -16.7 3.25 -18.45 3.1 -18.6" fill="#a0a001" fill-rule="evenodd" stroke="none"/>
    <path d="M-0.45 -15.65 L1.05 -13.65 Q1.3 -13.35 1.7 -13.2 L2.5 -13.05 2.85 -13.1 Q2.9 -16.95 4.45 -20.45 5.7 -23.35 5.15 -26.3 L5.0 -26.3 4.45 -26.75 4.9 -24.6 4.75 -23.35 4.85 -22.9 Q4.25 -21.85 4.25 -21.35 L4.35 -20.35 Q4.3 -19.75 3.8 -19.75 L3.6 -19.9 3.55 -20.0 3.6 -20.75 3.5 -20.75 Q3.05 -20.75 3.0 -22.0 L3.0 -23.85 2.6 -27.1 Q2.6 -27.95 3.2 -27.95 3.65 -27.95 3.95 -27.55 L4.85 -27.35 Q4.25 -28.4 2.85 -28.4 2.15 -27.95 2.3 -27.1 L2.9 -21.65 Q3.25 -18.55 0.2 -16.0 -0.1 -15.85 -0.45 -15.65 M3.1 -18.6 L3.25 -18.45 2.7 -16.7 2.6 -16.75 2.55 -17.1 Q2.55 -18.15 3.1 -18.6" fill="#ffffff" fill-opacity="0.5019608" fill-rule="evenodd" stroke="none"/>
    <path d="M-0.55 -16.2 L-0.65 -16.05 -0.45 -15.65 Q-0.1 -15.85 0.2 -16.0 3.25 -18.55 2.9 -21.65 L2.3 -27.1 Q2.15 -27.95 2.85 -28.4 4.25 -28.4 4.85 -27.35 L5.3 -26.6 5.15 -26.3 Q5.7 -23.35 4.45 -20.45 2.9 -16.95 2.85 -13.1 L3.05 -13.25 3.05 -13.2 3.1 -13.1 3.15 -13.1 3.4 -13.2 5.05 -18.65 Q6.5 -23.3 6.5 -24.95 6.1 -29.45 3.2 -29.45 1.9 -29.45 1.45 -28.3 L1.25 -27.1 Q1.25 -25.9 1.7 -24.2 L2.15 -21.55 1.5 -18.65 Q1.25 -17.6 0.25 -16.95 L-0.55 -16.2" fill="#ffffff" fill-rule="evenodd" stroke="none"/>
    <path d="M4.3 -22.9 L4.05 -25.0 3.2 -24.95 3.2 -24.85 Q3.35 -23.15 3.8 -21.95 L4.3 -22.9" fill="#f3fbae" fill-opacity="0.5019608" fill-rule="evenodd" stroke="none"/>
    <path d="M12.8 -12.45 Q12.65 -12.9 12.15 -12.9 L11.7 -12.9 12.75 -12.2 12.8 -12.45 M8.35 -12.75 Q9.1 -13.65 10.3 -13.65 13.45 -13.65 13.45 -10.75 L13.45 -10.55 13.35 -10.55 Q11.2 -10.55 10.65 -8.6 L13.2 -9.75 12.1 -8.7 12.05 -8.65 12.45 -8.5 12.45 -8.25 13.35 -8.1 13.4 -8.1 13.75 -7.8 14.2 -8.55 Q14.8 -9.35 15.7 -9.55 L15.75 -9.5 15.75 -9.55 16.25 -9.6 Q17.7 -9.6 17.75 -7.2 17.75 -5.2 16.8 -4.8 L17.1 -5.6 16.05 -6.9 16.55 -7.7 16.4 -8.15 16.05 -7.95 16.35 -7.7 Q15.8 -7.4 15.8 -6.75 16.7 -6.4 16.7 -6.1 16.35 -5.15 16.35 -4.7 L16.25 -4.7 15.6 -4.8 15.85 -4.0 16.35 -4.5 16.5 -4.5 16.65 -4.6 16.85 -4.65 Q17.35 -4.65 17.65 -4.3 L17.65 -4.25 17.7 -4.25 18.0 -3.1 Q18.0 -1.3 16.5 -1.3 L15.75 -1.5 16.25 -3.2 Q16.25 -3.75 16.05 -3.75 L15.15 -2.9 15.15 -3.0 14.9 -5.1 14.2 -5.9 Q13.7 -6.65 13.65 -7.2 L12.65 -7.8 11.1 -8.15 10.65 -8.0 10.35 -8.0 10.05 -8.0 Q8.85 -8.1 8.2 -8.75 L7.75 -8.85 Q8.35 -10.2 8.4 -12.6 L8.35 -12.75 M14.0 -0.25 L12.35 0.35 12.65 -0.3 13.65 -0.6 14.0 -0.25 M11.3 0.5 L1.65 0.1 1.7 0.05 2.45 -0.8 6.65 -0.1 6.95 0.0 7.15 -0.05 8.75 0.0 9.0 0.25 9.8 0.0 11.0 -0.1 10.55 0.3 11.3 0.5 M-1.15 -0.6 L-2.55 -1.05 -5.3 -1.9 -5.25 -2.25 -6.5 -3.05 -6.95 -3.0 -7.05 -2.75 -6.95 -2.4 -5.85 -2.15 -5.9 -2.05 -6.5 -2.2 -7.8 -2.25 -7.95 -3.0 -7.45 -3.95 -5.9 -3.35 -1.35 -2.1 -0.95 -1.9 -1.2 -0.9 -1.15 -0.6 M-8.6 -3.3 L-8.95 -4.45 -9.45 -4.35 Q-11.05 -4.35 -10.85 -6.55 -10.85 -9.45 -8.85 -9.45 -8.35 -9.45 -8.05 -8.85 L-8.1 -8.7 -8.95 -9.0 Q-9.8 -9.0 -9.8 -8.4 -9.8 -7.75 -8.7 -7.65 L-9.15 -6.8 Q-9.15 -6.45 -8.85 -6.45 L-7.7 -7.3 -7.7 -7.2 -7.7 -6.75 -8.0 -5.7 -8.2 -5.2 -8.4 -4.85 -7.95 -4.3 -8.6 -3.3 M-7.65 -11.55 L-8.55 -12.35 Q-8.55 -13.2 -6.65 -14.9 -4.5 -16.8 -2.65 -16.8 -1.65 -16.8 -1.2 -15.0 -3.0 -15.0 -3.0 -14.1 L-2.7 -13.85 -1.25 -14.3 -1.1 -14.25 -1.1 -13.85 Q-1.95 -13.45 -1.95 -12.8 L-1.75 -11.7 -2.45 -10.85 0.45 -10.5 0.55 -10.45 0.2 -10.9 -0.1 -11.4 0.0 -11.5 0.45 -12.05 0.35 -12.35 0.05 -12.45 -0.4 -12.3 -0.45 -12.85 -0.3 -13.55 Q0.0 -13.75 0.0 -14.1 L0.05 -14.35 0.45 -15.1 Q1.6 -16.95 3.25 -16.95 4.15 -16.95 4.75 -16.55 6.1 -16.55 6.7 -15.45 5.7 -15.35 5.3 -15.75 L4.7 -16.2 3.65 -15.9 3.75 -15.6 Q4.55 -16.25 4.85 -15.7 5.25 -14.9 5.95 -14.9 L6.75 -15.0 6.75 -15.35 7.15 -14.05 5.95 -14.3 5.05 -14.2 4.8 -14.4 Q4.2 -14.45 3.75 -14.75 L3.4 -14.8 Q2.75 -14.7 2.25 -13.9 L1.65 -12.65 1.95 -11.9 2.0 -11.8 2.1 -11.7 2.15 -11.65 2.6 -10.7 2.65 -10.75 3.35 -11.45 3.5 -10.75 Q3.8 -10.05 4.4 -10.05 L4.6 -10.05 4.3 -9.9 7.3 -9.75 6.9 -8.9 0.25 -9.5 Q-1.55 -10.3 -3.0 -10.3 L-3.5 -10.25 -5.15 -9.9 Q-6.25 -9.5 -7.05 -8.55 L-7.05 -8.85 -7.1 -9.35 -6.05 -10.05 -6.55 -10.5 -6.9 -10.85 -7.05 -10.95 Q-6.8 -11.85 -5.85 -11.85 L-5.55 -11.75 -6.0 -11.4 -5.6 -11.3 -5.25 -11.4 -5.1 -11.85 -4.65 -11.45 -4.6 -11.4 -4.55 -11.35 -4.3 -11.05 -4.3 -11.2 -4.2 -11.45 -4.15 -11.6 -3.6 -12.25 Q-3.05 -12.9 -3.0 -14.1 L-3.0 -14.2 -3.0 -14.55 -5.05 -13.4 -5.2 -13.25 -5.95 -12.5 -5.8 -12.4 -6.35 -12.45 Q-7.25 -12.45 -7.65 -11.55 M6.3 -11.55 Q6.25 -12.3 5.55 -12.3 4.95 -12.3 4.95 -11.55 5.2 -11.3 5.6 -11.3 L5.6 -11.25 5.0 -10.85 Q4.25 -10.85 4.25 -11.6 L4.25 -11.95 4.65 -12.4 4.95 -13.15 5.85 -13.35 7.0 -13.05 Q6.55 -12.45 6.4 -11.7 L6.45 -11.7 6.3 -11.55 M-1.3 -12.65 L-1.35 -12.8 -1.2 -13.1 -1.3 -12.65 M-0.2 -1.65 L0.4 -1.45 0.35 -1.3 Q0.35 -0.65 1.1 -0.65 L1.75 -0.85 Q1.0 -0.3 0.3 -0.3 -0.35 -0.3 -0.35 -1.25 L-0.2 -1.65 M-5.55 -15.0 L-6.6 -14.4 -7.4 -13.55 -7.05 -13.2 Q-6.15 -13.55 -5.15 -14.7 L-5.55 -15.0" fill="#f3fbae" fill-rule="evenodd" stroke="none"/>
    <path d="M12.8 -12.45 L12.75 -12.2 11.7 -12.9 12.15 -12.9 Q12.65 -12.9 12.8 -12.45 M9.1 -14.65 L9.35 -14.1 8.85 -13.4 8.25 -14.25 7.8 -14.8 7.7 -14.9 7.75 -14.95 8.1 -15.45 Q8.65 -15.45 9.1 -14.65 M7.85 -13.6 L8.35 -12.75 8.4 -12.6 Q8.35 -10.2 7.75 -8.85 7.1 -7.4 5.8 -7.2 L5.45 -7.2 4.85 -7.25 4.8 -7.7 5.45 -7.8 Q6.35 -8.1 6.9 -8.9 L7.3 -9.75 7.55 -11.75 7.5 -12.25 7.0 -13.05 5.85 -13.35 4.95 -13.15 Q4.3 -12.85 4.25 -11.95 L4.25 -11.6 Q4.25 -10.85 5.0 -10.85 L5.6 -11.25 5.6 -11.3 Q5.2 -11.3 4.95 -11.55 4.95 -12.3 5.55 -12.3 6.25 -12.3 6.3 -11.55 L6.3 -11.45 Q6.3 -10.1 4.6 -10.05 L4.4 -10.05 Q3.8 -10.05 3.5 -10.75 L3.35 -11.45 3.35 -11.5 Q3.35 -13.75 5.05 -14.2 L5.95 -14.3 7.15 -14.05 7.65 -13.75 7.85 -13.6 M13.45 -10.55 L14.0 -10.2 14.1 -10.1 14.4 -9.45 Q14.35 -8.1 13.4 -8.1 L13.35 -8.1 12.45 -8.25 12.45 -8.5 12.45 -8.7 Q13.7 -8.4 13.7 -9.2 L13.7 -9.25 13.5 -9.75 13.25 -9.8 13.2 -9.75 10.65 -8.6 Q11.2 -10.55 13.35 -10.55 L13.45 -10.55 M15.7 -9.55 Q15.45 -9.75 15.45 -10.05 L15.45 -10.2 15.65 -10.2 15.9 -9.8 15.75 -9.55 15.75 -9.5 15.7 -9.55 M16.8 -4.8 L16.65 -4.6 16.5 -4.5 16.35 -4.5 16.35 -4.7 Q16.35 -5.15 16.7 -6.1 16.7 -6.4 15.8 -6.75 15.8 -7.4 16.35 -7.7 L16.05 -7.95 16.4 -8.15 16.55 -7.7 16.05 -6.9 17.1 -5.6 16.8 -4.8 M15.75 -1.5 Q15.15 -0.05 14.25 -0.05 L14.0 -0.25 13.65 -0.6 13.65 -0.65 Q13.65 -1.05 14.75 -2.4 L15.15 -2.9 16.05 -3.75 Q16.25 -3.75 16.25 -3.2 L15.75 -1.5 M12.35 0.35 L11.5 0.55 11.3 0.5 10.55 0.3 11.0 -0.1 12.3 -0.95 Q12.65 -0.95 12.65 -0.55 L12.65 -0.3 12.35 0.35 M1.65 0.1 L0.7 0.55 0.3 0.6 Q-0.4 0.6 -0.8 0.25 L-1.15 -0.6 -1.2 -0.9 -0.95 -1.9 Q-0.4 -2.9 1.35 -3.2 3.35 -3.55 3.8 -3.9 L3.9 -4.1 3.35 -4.65 3.75 -4.8 4.05 -3.6 4.05 -3.5 3.7 -3.2 2.85 -2.9 1.85 -2.65 Q0.2 -2.25 -0.2 -1.65 L-0.35 -1.25 Q-0.35 -0.3 0.3 -0.3 1.0 -0.3 1.75 -0.85 L1.1 -0.65 Q0.35 -0.65 0.35 -1.3 L0.4 -1.45 Q0.45 -1.8 0.95 -1.8 2.45 -1.8 2.45 -0.95 L2.45 -0.8 1.7 0.05 1.65 0.1 M6.5 1.0 L7.3 0.9 7.85 0.95 Q8.2 1.0 8.55 1.2 L8.55 1.25 7.85 1.4 6.15 1.15 Q6.2 1.05 6.5 1.0 M-5.3 -1.9 Q-5.5 -1.1 -6.8 -1.1 -8.7 -1.1 -8.7 -3.0 L-8.6 -3.3 -7.95 -4.3 -7.3 -5.0 -7.1 -5.15 Q-6.7 -5.45 -6.3 -5.45 L-5.3 -5.2 -4.3 -4.7 -4.1 -4.6 -2.45 -3.45 -2.7 -3.2 Q-3.45 -3.2 -5.85 -4.7 -6.85 -4.7 -7.45 -3.95 L-7.95 -3.0 -7.8 -2.25 Q-7.5 -1.8 -6.8 -1.8 -6.15 -1.8 -5.9 -2.05 L-5.85 -2.15 -6.95 -2.4 -7.05 -2.75 -6.95 -3.0 -6.5 -3.05 -5.25 -2.25 -5.3 -1.9 M-8.05 -8.85 L-8.0 -9.5 -7.95 -10.2 -7.95 -10.4 -7.65 -11.55 Q-7.25 -12.45 -6.35 -12.45 L-5.8 -12.4 -5.1 -11.85 -5.25 -11.4 -5.6 -11.3 -6.0 -11.4 -5.55 -11.75 -5.85 -11.85 Q-6.8 -11.85 -7.05 -10.95 L-6.9 -10.85 -6.55 -10.5 -6.45 -10.35 Q-6.45 -9.7 -7.2 -9.75 L-7.1 -9.35 -7.05 -8.85 -7.05 -8.55 Q-7.15 -7.9 -7.7 -7.3 L-8.85 -6.45 Q-9.15 -6.45 -9.15 -6.8 L-8.7 -7.65 Q-9.8 -7.75 -9.8 -8.4 -9.8 -9.0 -8.95 -9.0 L-8.1 -8.7 -8.05 -8.85 M-1.2 -15.0 Q0.0 -15.0 0.05 -14.35 L0.0 -14.1 Q0.0 -13.75 -0.3 -13.55 L-0.65 -13.4 -1.2 -13.1 -1.35 -12.8 -1.3 -12.65 -1.05 -11.9 -0.6 -11.85 -0.6 -12.2 -0.4 -12.3 0.05 -12.45 0.35 -12.35 0.45 -12.05 0.0 -11.5 -0.1 -11.4 Q-0.55 -11.1 -0.8 -11.1 -1.45 -11.1 -1.75 -11.7 L-1.95 -12.8 Q-1.95 -13.45 -1.1 -13.85 L-0.6 -14.1 -1.1 -14.25 -1.25 -14.3 -2.7 -13.85 -3.0 -14.1 Q-3.0 -15.0 -1.2 -15.0 M6.7 -15.45 L6.75 -15.45 6.75 -15.35 6.75 -15.0 5.95 -14.9 Q5.25 -14.9 4.85 -15.7 4.55 -16.25 3.75 -15.6 L3.65 -15.9 4.7 -16.2 5.3 -15.75 Q5.7 -15.35 6.7 -15.45 M-0.4 -16.2 L-1.05 -16.5 Q-1.05 -17.15 0.3 -17.15 L0.55 -17.15 Q1.2 -17.1 1.2 -16.7 1.2 -16.1 0.3 -16.1 L-0.4 -16.2 M8.3 -6.5 L9.7 -6.9 10.25 -6.95 11.2 -6.85 Q13.25 -6.5 13.8 -4.25 13.8 -3.7 13.15 -3.0 12.45 -2.25 11.6 -2.25 10.3 -2.25 9.9 -2.9 L9.8 -3.55 9.85 -3.95 Q9.95 -4.55 10.35 -4.85 10.8 -5.25 11.7 -5.25 L12.45 -4.4 Q12.45 -3.75 11.75 -3.6 11.25 -4.05 11.55 -4.35 L10.7 -3.6 10.8 -3.3 11.4 -3.2 Q12.45 -3.2 12.75 -4.25 12.75 -6.0 10.25 -6.0 8.55 -6.0 7.85 -5.15 L7.8 -5.1 7.1 -3.95 Q6.65 -4.3 6.65 -4.65 L6.7 -4.8 6.9 -5.25 7.5 -5.95 8.3 -6.5 M0.15 -8.3 L0.75 -8.55 Q1.65 -8.55 1.7 -7.7 L1.65 -6.95 Q1.35 -5.0 -0.8 -5.0 L-1.6 -5.05 Q-2.9 -5.2 -3.55 -5.8 L-3.9 -6.3 Q-4.25 -6.9 -4.25 -7.75 L-4.15 -8.3 Q-3.9 -8.6 -3.9 -9.15 L-3.8 -9.3 -3.95 -9.2 Q-5.1 -8.85 -5.25 -8.6 L-5.25 -8.2 -5.25 -7.95 -5.3 -7.7 -5.55 -7.65 Q-6.15 -7.65 -6.05 -8.7 L-5.3 -9.5 Q-4.45 -10.1 -3.5 -10.1 -2.85 -10.1 -2.85 -9.5 L-2.95 -9.2 -3.3 -7.85 -3.25 -7.45 Q-3.0 -6.25 -0.95 -6.2 L-0.8 -6.2 Q0.45 -6.2 0.5 -7.25 L0.0 -7.85 Q0.0 -8.15 0.15 -8.3 M6.65 -0.1 L6.35 -0.65 Q6.15 -1.6 5.75 -1.95 L5.7 -2.1 6.45 -2.3 Q7.85 -2.3 7.5 -1.15 7.5 -0.25 7.15 -0.05 L6.95 0.0 6.65 -0.1 M8.75 0.0 L8.7 -0.05 Q8.7 -0.4 10.5 -1.35 L10.8 -1.05 9.8 0.0 9.0 0.25 8.75 0.0 M-5.55 -15.0 L-5.15 -14.7 Q-6.15 -13.55 -7.05 -13.2 L-7.4 -13.55 -6.6 -14.4 -5.55 -15.0" fill="url(#gradient0)" fill-rule="evenodd" stroke="none"/>
    <path d="M9.1 -14.65 L10.45 -14.85 10.35 -14.9 7.15 -16.4 7.75 -14.95 7.7 -14.9 7.8 -14.8 7.85 -14.15 7.85 -14.1 7.85 -13.95 7.65 -13.75 7.15 -14.05 6.75 -15.35 6.75 -15.45 6.7 -15.45 Q6.1 -16.55 4.75 -16.55 4.15 -16.95 3.25 -16.95 1.6 -16.95 0.45 -15.1 L0.05 -14.35 Q0.0 -15.0 -1.2 -15.0 -1.65 -16.8 -2.65 -16.8 -4.5 -16.8 -6.65 -14.9 -8.55 -13.2 -8.55 -12.35 L-7.65 -11.55 -7.95 -10.4 -9.4 -11.7 -9.55 -11.9 -9.7 -11.65 -9.75 -11.55 -10.15 -10.5 Q-9.45 -10.75 -8.5 -10.5 L-8.55 -10.5 -8.35 -10.45 -8.3 -10.45 -7.95 -10.2 -8.0 -9.5 -8.05 -8.85 Q-8.35 -9.45 -8.85 -9.45 -10.85 -9.45 -10.85 -6.55 -11.05 -4.35 -9.45 -4.35 L-8.95 -4.45 -8.6 -3.3 -8.7 -3.0 Q-8.7 -1.1 -6.8 -1.1 -5.5 -1.1 -5.3 -1.9 L-2.55 -1.05 -1.15 -0.6 -0.8 0.25 -2.65 -0.1 -3.05 -0.2 -2.7 -0.1 -2.65 -0.1 -1.25 0.3 -1.1 0.35 Q2.55 1.3 6.3 1.5 L10.15 1.4 10.2 1.4 10.25 1.4 13.1 0.7 12.8 0.65 12.65 0.5 11.1 0.85 10.2 0.9 10.15 0.9 7.85 0.95 7.3 0.9 6.5 1.0 6.2 1.0 4.05 0.95 0.7 0.55 1.65 0.1 11.3 0.5 11.5 0.55 12.35 0.35 14.0 -0.25 14.25 -0.05 Q15.15 -0.05 15.75 -1.5 L16.5 -1.3 Q18.0 -1.3 18.0 -3.1 L17.7 -4.25 18.65 -4.25 18.3 -5.1 18.15 -5.25 18.15 -5.35 18.1 -5.3 18.15 -5.25 17.85 -4.8 17.8 -5.1 17.75 -5.1 17.75 -4.95 17.65 -4.3 Q17.35 -4.65 16.85 -4.65 L16.65 -4.6 16.8 -4.8 Q17.75 -5.2 17.75 -7.2 17.7 -9.6 16.25 -9.6 L15.75 -9.55 15.9 -9.8 15.65 -10.2 15.45 -10.2 15.45 -10.05 Q15.45 -9.75 15.7 -9.55 14.8 -9.35 14.2 -8.55 L13.75 -7.8 13.4 -8.1 Q14.35 -8.1 14.4 -9.45 L14.1 -10.1 14.15 -10.25 Q14.9 -10.75 15.95 -10.7 L15.15 -11.5 13.95 -12.5 14.2 -10.9 14.15 -10.25 14.0 -10.2 13.45 -10.55 13.45 -10.75 Q13.45 -13.65 10.3 -13.65 9.1 -13.65 8.35 -12.75 L7.85 -13.6 7.85 -13.95 8.25 -14.25 8.85 -13.4 9.35 -14.1 9.1 -14.65 M-0.4 -16.2 L0.3 -16.1 Q1.2 -16.1 1.2 -16.7 1.2 -17.1 0.55 -17.15 L1.35 -17.65 -0.3 -17.85 -1.55 -17.75 -2.05 -17.6 -1.35 -16.85 -0.75 -15.65 -0.4 -16.2 M-0.1 -11.4 L0.2 -10.9 0.55 -10.45 0.45 -10.5 -2.45 -10.85 -1.75 -11.7 Q-1.45 -11.1 -0.8 -11.1 -0.55 -11.1 -0.1 -11.4 M-1.1 -13.85 L-1.1 -14.25 -0.6 -14.1 -1.1 -13.85 M-7.05 -10.95 L-6.9 -10.85 -7.05 -10.95 M-6.55 -10.5 L-6.05 -10.05 -7.1 -9.35 -7.2 -9.75 Q-6.45 -9.7 -6.45 -10.35 L-6.55 -10.5 M7.3 -9.75 L4.3 -9.9 4.6 -10.05 Q6.3 -10.1 6.3 -11.45 L6.3 -11.55 6.45 -11.7 6.55 -11.6 6.6 -11.6 6.75 -11.25 6.7 -11.05 6.85 -11.2 7.5 -12.25 7.55 -11.75 7.3 -9.75 M-0.3 -13.55 L-0.45 -12.85 -0.4 -12.3 -0.6 -12.2 -0.6 -11.85 -1.05 -11.9 -1.3 -12.65 -1.2 -13.1 -0.65 -13.4 -0.3 -13.55 M7.65 -17.15 Q11.55 -15.75 13.6 -14.15 19.1 -9.75 19.1 -7.2 19.1 -3.25 17.9 -1.45 15.45 2.25 7.9 2.25 0.3 2.25 -5.75 0.1 -11.8 -2.05 -11.8 -4.85 L-11.7 -7.3 Q-11.7 -10.3 -9.6 -13.6 -6.35 -18.65 0.05 -18.65 3.4 -18.65 7.65 -17.15 M6.7 -11.05 L6.6 -10.95 6.65 -10.95 6.7 -11.05 M6.35 -10.95 L6.55 -10.95 6.35 -11.35 6.35 -10.95 M17.75 -5.55 L17.8 -5.5 17.8 -5.55 17.75 -5.55 M13.2 -9.75 L13.25 -9.8 13.5 -9.75 13.3 -9.5 13.15 -9.35 13.55 -9.15 13.05 -9.0 13.1 -8.65 13.15 -8.65 13.25 -8.75 13.5 -9.0 13.7 -9.25 13.7 -9.2 Q13.7 -8.4 12.45 -8.7 L12.45 -8.5 12.05 -8.65 12.1 -8.7 13.2 -9.75 M16.35 -4.5 L15.85 -4.0 15.6 -4.8 16.25 -4.7 16.35 -4.7 16.35 -4.5 M-5.9 -2.05 Q-6.15 -1.8 -6.8 -1.8 -7.5 -1.8 -7.8 -2.25 L-6.5 -2.2 -5.9 -2.05 M-9.6 -3.1 L-9.85 -3.7 -10.35 -3.75 -9.6 -3.1" fill="#ffffff" fill-rule="evenodd" stroke="none"/>
    <path d="M7.75 -14.95 L7.15 -16.4 10.35 -14.9 10.45 -14.85 9.1 -14.65 Q8.65 -15.45 8.1 -15.45 L7.75 -14.95 M8.25 -14.25 L7.85 -13.95 7.85 -13.6 7.65 -13.75 7.85 -13.95 7.85 -14.1 7.85 -14.15 7.8 -14.8 8.25 -14.25 M14.0 -10.2 L14.15 -10.25 14.2 -10.9 13.95 -12.5 15.15 -11.5 15.95 -10.7 Q14.9 -10.75 14.15 -10.25 L14.1 -10.1 14.0 -10.2 M17.65 -4.3 L17.75 -4.95 17.75 -5.1 17.8 -5.1 17.85 -4.8 18.15 -5.25 18.1 -5.3 18.15 -5.35 18.15 -5.25 18.3 -5.1 18.65 -4.25 17.7 -4.25 17.65 -4.25 17.65 -4.3 M0.7 0.55 L4.05 0.95 6.2 1.0 6.5 1.0 Q6.2 1.05 6.15 1.15 L7.85 1.4 8.55 1.25 8.55 1.2 Q8.2 1.0 7.85 0.95 L10.15 0.9 10.2 0.9 11.1 0.85 12.65 0.5 12.8 0.65 13.1 0.7 10.25 1.4 10.2 1.4 10.15 1.4 6.3 1.5 Q2.55 1.3 -1.1 0.35 L-1.25 0.3 -2.65 -0.1 -2.7 -0.1 -3.05 -0.2 -2.65 -0.1 -0.8 0.25 Q-0.4 0.6 0.3 0.6 L0.7 0.55 M-7.95 -10.2 L-8.3 -10.45 -8.35 -10.45 -8.55 -10.5 -8.5 -10.5 Q-9.45 -10.75 -10.15 -10.5 L-9.75 -11.55 -9.7 -11.65 -9.55 -11.9 -9.4 -11.7 -7.95 -10.4 -7.95 -10.2 M0.55 -17.15 L0.3 -17.15 Q-1.05 -17.15 -1.05 -16.5 L-0.4 -16.2 -0.75 -15.65 -1.35 -16.85 -2.05 -17.6 -1.55 -17.75 -0.3 -17.85 1.35 -17.65 0.55 -17.15 M7.0 -13.05 L7.5 -12.25 6.85 -11.2 6.7 -11.05 6.75 -11.25 6.6 -11.6 6.55 -11.6 6.45 -11.7 6.4 -11.7 Q6.55 -12.45 7.0 -13.05 M6.35 -10.95 L6.35 -11.35 6.55 -10.95 6.35 -10.95 M6.7 -11.05 L6.65 -10.95 6.6 -10.95 6.7 -11.05 M17.75 -5.55 L17.8 -5.55 17.8 -5.5 17.75 -5.55 M13.5 -9.75 L13.7 -9.25 13.5 -9.0 13.25 -8.75 13.15 -8.65 13.1 -8.65 13.05 -9.0 13.55 -9.15 13.15 -9.35 13.3 -9.5 13.5 -9.75 M-9.6 -3.1 L-10.35 -3.75 -9.85 -3.7 -9.6 -3.1" fill="#ffffff" fill-opacity="0.5019608" fill-rule="evenodd" stroke="none"/>
    <path d="M14.35 -14.85 Q20.35 -10.05 20.2 -7.15 20.2 -4.9 19.85 -3.3 19.5 -2.0 18.85 -1.15 16.2 2.45 8.0 2.45 0.2 2.45 -5.95 0.55 -11.3 -1.15 -12.4 -3.3 -12.75 -4.0 -12.7 -4.8 L-12.6 -7.3 Q-12.6 -10.55 -10.35 -14.05 L-10.35 -14.1 Q-6.8 -19.6 0.15 -19.6 3.65 -19.6 8.1 -18.05 12.2 -16.6 14.35 -14.9 L14.35 -14.85 M7.65 -17.15 Q3.4 -18.65 0.05 -18.65 -6.35 -18.65 -9.6 -13.6 -11.7 -10.3 -11.7 -7.3 L-11.8 -4.85 Q-11.8 -2.05 -5.75 0.1 0.3 2.25 7.9 2.25 15.45 2.25 17.9 -1.45 19.1 -3.25 19.1 -7.2 19.1 -9.75 13.6 -14.15 11.55 -15.75 7.65 -17.15" fill="#000000" fill-rule="evenodd" stroke="none"/>
    <path d="M3.35 -11.45 L2.65 -10.75 2.6 -10.7 2.15 -11.65 2.1 -11.7 2.0 -11.8 1.95 -11.9 1.65 -12.65 2.25 -13.9 Q2.75 -14.7 3.4 -14.8 L3.75 -14.75 Q4.2 -14.45 4.8 -14.4 L5.05 -14.2 Q3.35 -13.75 3.35 -11.5 L3.35 -11.45 M-3.0 -14.1 Q-3.05 -12.9 -3.6 -12.25 L-4.15 -11.6 -4.2 -11.45 -4.3 -11.2 -4.3 -11.05 -4.55 -11.35 -4.6 -11.4 -4.65 -11.45 -5.1 -11.85 -5.8 -12.4 -5.95 -12.5 -5.2 -13.25 -5.05 -13.4 -3.0 -14.55 -3.0 -14.2 -3.0 -14.1 M4.25 -11.95 Q4.3 -12.85 4.95 -13.15 L4.65 -12.4 4.25 -11.95" fill="#f3fbae" fill-opacity="0.5019608" fill-rule="evenodd" stroke="none"/>
    <path d="M-7.05 -8.55 Q-6.25 -9.5 -5.15 -9.9 L-3.5 -10.25 -3.0 -10.3 Q-1.55 -10.3 0.25 -9.5 L6.9 -8.9 Q6.35 -8.1 5.45 -7.8 L5.0 -7.95 4.75 -7.75 Q3.95 -7.7 3.95 -6.6 3.9 -6.4 4.0 -6.2 4.15 -5.8 4.7 -5.8 5.25 -5.8 5.4 -6.3 L5.55 -6.35 5.45 -5.75 Q5.45 -5.2 6.45 -5.2 L6.9 -5.25 6.7 -4.8 6.65 -4.75 6.55 -3.95 6.55 -3.4 Q6.65 -2.85 7.25 -2.85 7.7 -2.85 7.95 -3.15 L8.1 -2.95 Q7.4 -2.85 7.4 -2.25 L8.0 -1.7 Q9.2 -1.7 9.2 -2.4 L9.0 -2.9 9.25 -3.7 9.2 -4.15 9.4 -3.9 9.85 -3.95 9.8 -3.55 9.9 -2.9 Q10.3 -2.25 11.6 -2.25 12.45 -2.25 13.15 -3.0 13.8 -3.7 13.8 -4.25 13.25 -6.5 11.2 -6.85 L11.25 -7.3 Q11.25 -7.95 10.65 -8.0 L11.1 -8.15 12.65 -7.8 13.65 -7.2 Q13.7 -6.65 14.2 -5.9 L14.9 -5.1 15.15 -3.0 15.15 -2.9 14.75 -2.4 Q13.65 -1.05 13.65 -0.65 L13.65 -0.6 12.65 -0.3 12.65 -0.55 Q12.65 -0.95 12.3 -0.95 L11.0 -0.1 9.8 0.0 10.8 -1.05 10.5 -1.35 Q8.7 -0.4 8.7 -0.05 L8.75 0.0 7.15 -0.05 Q7.5 -0.25 7.5 -1.15 7.85 -2.3 6.45 -2.3 L5.7 -2.1 5.75 -1.95 Q6.15 -1.6 6.35 -0.65 L6.65 -0.1 2.45 -0.8 2.45 -0.95 Q2.45 -1.8 0.95 -1.8 0.45 -1.8 0.4 -1.45 L-0.2 -1.65 Q0.2 -2.25 1.85 -2.65 L2.85 -2.9 Q2.7 -2.7 2.7 -2.3 2.6 -1.6 3.4 -1.6 4.1 -1.6 4.1 -2.35 4.05 -3.05 3.7 -3.2 L4.05 -3.5 4.05 -3.6 4.8 -2.95 Q5.65 -2.95 5.65 -3.8 5.3 -4.85 4.6 -4.85 L4.15 -4.75 4.15 -4.85 Q4.1 -5.95 3.45 -5.95 L2.9 -5.7 2.85 -5.65 2.9 -6.25 2.9 -6.45 Q3.35 -6.65 3.35 -7.5 3.4 -8.35 2.7 -8.35 1.9 -8.35 1.9 -7.3 L1.9 -7.0 1.65 -6.95 1.7 -7.7 Q1.65 -8.55 0.75 -8.55 L0.15 -8.3 -0.2 -8.4 Q-1.2 -8.4 -1.2 -6.8 L-0.95 -6.2 Q-3.0 -6.25 -3.25 -7.45 L-2.85 -7.4 Q-2.1 -7.4 -2.1 -8.15 -2.05 -9.2 -2.95 -9.2 L-2.85 -9.5 Q-2.85 -10.1 -3.5 -10.1 -4.45 -10.1 -5.3 -9.5 L-6.05 -8.7 Q-6.15 -7.65 -5.55 -7.65 L-5.3 -7.7 -5.25 -7.95 -5.25 -8.2 -4.9 -8.1 -4.15 -8.3 -4.25 -7.75 Q-4.25 -6.9 -3.9 -6.3 L-4.05 -6.45 -4.45 -6.35 Q-5.35 -6.35 -5.35 -5.55 L-5.3 -5.2 -6.3 -5.45 Q-6.7 -5.45 -7.1 -5.15 L-6.9 -5.9 -7.45 -6.8 -7.7 -6.75 -7.7 -7.2 -7.7 -7.3 Q-7.15 -7.9 -7.05 -8.55 M7.75 -8.85 L8.2 -8.75 Q8.85 -8.1 10.05 -8.0 9.45 -7.85 9.45 -7.2 L9.7 -6.9 8.3 -6.5 8.3 -6.65 Q8.4 -7.65 7.55 -7.65 6.9 -7.65 6.8 -6.85 L6.4 -7.0 Q6.05 -7.0 5.85 -6.8 L5.85 -6.95 5.8 -7.2 Q7.1 -7.4 7.75 -8.85 M7.85 -5.15 Q8.55 -6.0 10.25 -6.0 12.75 -6.0 12.75 -4.25 12.45 -3.2 11.4 -3.2 L10.8 -3.3 10.7 -3.6 11.55 -4.35 Q11.25 -4.05 11.75 -3.6 12.45 -3.75 12.45 -4.4 L11.7 -5.25 Q10.8 -5.25 10.35 -4.85 10.3 -5.5 9.6 -5.5 8.75 -5.5 8.75 -4.75 L8.9 -4.5 8.55 -4.6 8.1 -4.45 7.85 -5.15 M-3.95 -9.2 L-3.8 -9.3 -3.9 -9.15 -3.95 -9.2 M-3.55 -5.8 Q-2.9 -5.2 -1.6 -5.05 L-2.05 -4.05 Q-2.05 -3.3 -0.95 -3.3 -0.3 -3.3 0.0 -3.7 L0.55 -3.3 Q1.75 -3.3 1.75 -4.85 L1.75 -4.95 1.8 -4.95 2.55 -5.15 2.5 -4.95 Q2.45 -4.4 2.8 -4.2 L3.4 -3.95 3.7 -4.0 3.8 -3.9 Q3.35 -3.55 1.35 -3.2 -0.4 -2.9 -0.95 -1.9 L-1.35 -2.1 -5.9 -3.35 -7.45 -3.95 Q-6.85 -4.7 -5.85 -4.7 -3.45 -3.2 -2.7 -3.2 L-2.45 -3.45 -4.1 -4.6 -4.3 -4.7 Q-3.9 -4.8 -3.8 -5.25 -3.55 -5.35 -3.55 -5.8 M-8.2 -5.2 L-7.65 -4.95 -7.3 -5.0 -7.95 -4.3 -8.4 -4.85 -8.2 -5.2" fill="#ebeb72" fill-rule="evenodd" stroke="none"/>
    <path d="M10.05 -8.0 L10.35 -8.0 10.65 -8.0 Q11.25 -7.95 11.25 -7.3 L11.2 -6.85 10.25 -6.95 9.7 -6.9 9.45 -7.2 Q9.45 -7.85 10.05 -8.0 M5.8 -7.2 L5.85 -6.95 5.85 -6.8 Q6.05 -7.0 6.4 -7.0 L6.8 -6.85 Q6.9 -7.65 7.55 -7.65 8.4 -7.65 8.3 -6.65 L8.3 -6.5 7.5 -5.95 6.9 -5.25 6.45 -5.2 Q5.45 -5.2 5.45 -5.75 L5.55 -6.35 5.4 -6.3 Q5.25 -5.8 4.7 -5.8 4.15 -5.8 4.0 -6.2 3.9 -6.4 3.95 -6.6 3.95 -7.7 4.75 -7.75 L5.0 -7.95 5.45 -7.8 4.8 -7.7 4.85 -7.25 5.45 -7.2 5.8 -7.2 M6.7 -4.8 L6.65 -4.65 Q6.65 -4.3 7.1 -3.95 L7.8 -5.1 7.85 -5.15 8.1 -4.45 8.55 -4.6 8.9 -4.5 8.75 -4.75 Q8.75 -5.5 9.6 -5.5 10.3 -5.5 10.35 -4.85 9.95 -4.55 9.85 -3.95 L9.4 -3.9 9.2 -4.15 9.25 -3.7 9.0 -2.9 9.2 -2.4 Q9.2 -1.7 8.0 -1.7 L7.4 -2.25 Q7.4 -2.85 8.1 -2.95 L7.95 -3.15 Q7.7 -2.85 7.25 -2.85 6.65 -2.85 6.55 -3.4 L6.55 -3.95 6.65 -4.75 6.7 -4.8 M0.15 -8.3 Q0.0 -8.15 0.0 -7.85 L0.5 -7.25 Q0.45 -6.2 -0.8 -6.2 L-0.95 -6.2 -1.2 -6.8 Q-1.2 -8.4 -0.2 -8.4 L0.15 -8.3 M-3.25 -7.45 L-3.3 -7.85 -2.95 -9.2 Q-2.05 -9.2 -2.1 -8.15 -2.1 -7.4 -2.85 -7.4 L-3.25 -7.45 M-5.25 -8.2 L-5.25 -8.6 Q-5.1 -8.85 -3.95 -9.2 L-3.9 -9.15 Q-3.9 -8.6 -4.15 -8.3 L-4.9 -8.1 -5.25 -8.2 M-3.9 -6.3 L-3.55 -5.8 Q-3.55 -5.35 -3.8 -5.25 -3.9 -4.8 -4.3 -4.7 L-5.3 -5.2 -5.35 -5.55 Q-5.35 -6.35 -4.45 -6.35 L-4.05 -6.45 -3.9 -6.3 M-1.6 -5.05 L-0.8 -5.0 Q1.35 -5.0 1.65 -6.95 L1.9 -7.0 1.9 -7.3 Q1.9 -8.35 2.7 -8.35 3.4 -8.35 3.35 -7.5 3.35 -6.65 2.9 -6.45 L2.9 -6.25 2.85 -5.65 2.9 -5.7 3.45 -5.95 Q4.1 -5.95 4.15 -4.85 L4.15 -4.75 4.6 -4.85 Q5.3 -4.85 5.65 -3.8 5.65 -2.95 4.8 -2.95 L4.05 -3.6 3.75 -4.8 3.35 -4.65 3.9 -4.1 3.8 -3.9 3.7 -4.0 3.4 -3.95 2.8 -4.2 Q2.45 -4.4 2.5 -4.95 L2.55 -5.15 1.8 -4.95 1.75 -4.95 1.75 -4.85 Q1.75 -3.3 0.55 -3.3 L0.0 -3.7 Q-0.3 -3.3 -0.95 -3.3 -2.05 -3.3 -2.05 -4.05 L-1.6 -5.05 M3.7 -3.2 Q4.05 -3.05 4.1 -2.35 4.1 -1.6 3.4 -1.6 2.6 -1.6 2.7 -2.3 2.7 -2.7 2.85 -2.9 L3.7 -3.2 M-8.2 -5.2 L-8.0 -5.7 -7.7 -6.75 -7.45 -6.8 -6.9 -5.9 -7.1 -5.15 -7.3 -5.0 -7.65 -4.95 -8.2 -5.2" fill="#d0d01e" fill-rule="evenodd" stroke="none"/>
    <path d="M13.6 -6.7 L14.45 -6.65 14.45 -6.7 16.05 -12.0 Q17.55 -16.8 17.55 -18.5 L17.55 -18.6 Q17.1 -23.9 13.5 -23.8 11.7 -23.8 11.05 -22.15 L11.0 -22.0 10.8 -20.65 Q10.8 -19.4 11.25 -17.55 L11.7 -15.1 11.05 -12.4 10.2 -10.55 9.9 -9.8 10.7 -10.55 Q11.7 -11.2 11.95 -12.25 L12.6 -15.15 12.15 -17.8 Q11.7 -19.5 11.7 -20.7 L11.9 -21.9 Q12.35 -23.05 13.65 -23.05 16.55 -23.05 16.95 -18.55 16.95 -16.9 15.5 -12.25 L13.85 -6.8 13.6 -6.7" fill="#000000" fill-rule="evenodd" stroke="none"/>
    <path d="M14.9 -20.35 L13.85 -20.6 13.95 -20.55 Q15.15 -19.6 15.15 -18.6 L14.95 -18.35 Q14.55 -18.65 14.4 -19.5 L13.3 -20.75 13.35 -21.0 Q13.45 -21.2 13.85 -21.2 L14.4 -21.15 Q14.1 -21.55 13.65 -21.55 13.05 -21.55 13.05 -20.7 L13.45 -17.45 13.45 -15.6 Q13.5 -14.35 13.95 -14.35 L14.05 -14.35 14.2 -15.3 14.25 -15.55 Q13.8 -16.75 13.65 -18.45 L13.65 -18.55 14.5 -18.6 14.75 -16.5 15.15 -17.1 15.2 -16.95 15.35 -18.2 14.9 -20.35" fill="#f3fbae" fill-rule="evenodd" stroke="none"/>
    <path d="M14.4 -21.15 L13.85 -21.2 Q13.45 -21.2 13.35 -21.0 L13.3 -20.75 14.4 -19.5 Q14.55 -18.65 14.95 -18.35 L15.15 -18.6 Q15.15 -19.6 13.95 -20.55 L13.85 -20.6 14.9 -20.35 15.45 -19.9 15.6 -19.9 15.75 -20.2 15.3 -20.95 14.4 -21.15 M15.2 -16.95 L15.15 -17.1 14.75 -16.5 14.25 -15.55 14.2 -15.3 14.05 -14.35 14.0 -13.6 14.05 -13.5 Q14.15 -13.35 14.25 -13.35 14.75 -13.35 14.8 -13.95 L14.7 -14.95 15.3 -16.5 15.2 -16.95 M13.55 -12.2 Q13.0 -11.75 13.0 -10.7 L13.05 -10.35 13.15 -10.3 13.7 -12.05 13.55 -12.2" fill="#a0a001" fill-rule="evenodd" stroke="none"/>
    <path d="M10.0 -9.25 L11.5 -7.25 Q11.75 -6.95 12.15 -6.8 L12.95 -6.65 13.3 -6.7 Q13.35 -10.55 14.9 -14.05 16.15 -16.95 15.6 -19.9 L15.45 -19.9 14.9 -20.35 15.35 -18.2 15.2 -16.95 15.3 -16.5 14.7 -14.95 14.8 -13.95 Q14.75 -13.35 14.25 -13.35 14.15 -13.35 14.05 -13.5 L14.0 -13.6 14.05 -14.35 13.95 -14.35 Q13.5 -14.35 13.45 -15.6 L13.45 -17.45 13.05 -20.7 Q13.05 -21.55 13.65 -21.55 14.1 -21.55 14.4 -21.15 L15.3 -20.95 Q14.7 -22.0 13.3 -22.0 12.6 -21.55 12.75 -20.7 L13.35 -15.25 Q13.7 -12.15 10.65 -9.6 L10.0 -9.25 M13.55 -12.2 L13.7 -12.05 13.15 -10.3 13.05 -10.35 13.0 -10.7 Q13.0 -11.75 13.55 -12.2" fill="#ffffff" fill-opacity="0.5019608" fill-rule="evenodd" stroke="none"/>
    <path d="M9.9 -9.8 L9.8 -9.65 10.0 -9.25 10.65 -9.6 Q13.7 -12.15 13.35 -15.25 L12.75 -20.7 Q12.6 -21.55 13.3 -22.0 14.7 -22.0 15.3 -20.95 L15.75 -20.2 15.6 -19.9 Q16.15 -16.95 14.9 -14.05 13.35 -10.55 13.3 -6.7 L13.5 -6.85 13.5 -6.8 13.55 -6.7 13.6 -6.7 13.85 -6.8 15.5 -12.25 Q16.95 -16.9 16.95 -18.55 16.55 -23.05 13.65 -23.05 12.35 -23.05 11.9 -21.9 L11.7 -20.7 Q11.7 -19.5 12.15 -17.8 L12.6 -15.15 11.95 -12.25 Q11.7 -11.2 10.7 -10.55 L9.9 -9.8" fill="#ffffff" fill-rule="evenodd" stroke="none"/>
    <path d="M14.75 -16.5 L14.5 -18.6 13.65 -18.55 13.65 -18.45 Q13.8 -16.75 14.25 -15.55 L14.75 -16.5" fill="#f3fbae" fill-opacity="0.5019608" fill-rule="evenodd" stroke="none"/>
    <path d="M-6.85 -9.0 L-8.0 -8.9 -8.0 -9.0 -10.15 -16.05 Q-12.15 -22.45 -12.15 -24.75 L-12.15 -24.85 Q-11.5 -31.95 -6.7 -31.8 -4.3 -31.8 -3.45 -29.6 L-3.4 -29.4 -3.15 -27.6 Q-3.15 -25.95 -3.75 -23.5 -4.35 -21.4 -4.35 -20.2 L-3.45 -16.6 Q-3.2 -15.55 -2.35 -14.1 L-1.9 -13.15 -3.0 -14.1 Q-4.3 -15.0 -4.65 -16.4 L-5.55 -20.25 Q-5.55 -21.55 -4.95 -23.8 -4.35 -26.1 -4.35 -27.65 L-4.6 -29.3 Q-5.2 -30.85 -6.9 -30.85 -10.8 -30.85 -11.35 -24.8 -11.35 -22.6 -9.4 -16.4 L-7.2 -9.1 -6.85 -9.0" fill="#000000" fill-rule="evenodd" stroke="none"/>
    <path d="M-8.6 -27.2 Q-7.85 -27.7 -7.2 -27.55 L-7.3 -27.5 Q-8.95 -26.2 -8.95 -24.85 L-8.65 -24.55 Q-8.1 -24.95 -7.95 -26.1 L-6.45 -27.75 -6.5 -28.05 Q-6.65 -28.35 -7.2 -28.35 L-7.95 -28.3 Q-7.5 -28.8 -6.9 -28.8 -6.1 -28.8 -6.1 -27.65 L-6.65 -23.35 -6.65 -20.85 Q-6.7 -19.2 -7.35 -19.2 L-7.45 -19.2 -7.65 -20.5 -7.7 -20.8 Q-7.1 -22.4 -6.95 -24.7 L-6.95 -24.8 -8.05 -24.85 -8.4 -22.1 -8.9 -22.85 -9.0 -22.7 -9.2 -24.35 Q-9.0 -26.15 -8.6 -27.2" fill="#f3fbae" fill-rule="evenodd" stroke="none"/>
    <path d="M-7.95 -28.3 L-7.2 -28.35 Q-6.65 -28.35 -6.5 -28.05 L-6.45 -27.75 -7.95 -26.1 Q-8.1 -24.95 -8.65 -24.55 L-8.95 -24.85 Q-8.95 -26.2 -7.3 -27.5 L-7.2 -27.55 Q-7.85 -27.7 -8.6 -27.2 L-9.35 -26.6 -9.55 -26.6 -9.75 -27.0 Q-9.75 -27.7 -9.1 -28.0 -8.65 -28.25 -7.95 -28.3 M-9.0 -22.7 L-8.9 -22.85 -8.4 -22.1 -7.7 -20.8 -7.65 -20.5 -7.45 -19.2 -7.4 -18.2 -7.45 -18.05 -7.7 -17.9 Q-8.4 -17.9 -8.45 -18.65 L-8.35 -20.0 Q-8.35 -20.65 -9.15 -22.05 L-9.0 -22.7 M-6.8 -16.3 Q-6.05 -15.7 -6.05 -14.3 L-6.15 -13.85 -6.25 -13.8 -7.0 -16.1 -6.8 -16.3" fill="#a0a001" fill-rule="evenodd" stroke="none"/>
    <path d="M-2.05 -12.4 L-4.05 -9.75 -4.9 -9.1 -6.0 -8.95 -6.45 -9.0 Q-6.55 -14.1 -8.6 -18.8 -10.25 -22.7 -9.55 -26.6 L-9.35 -26.6 -8.6 -27.2 Q-9.0 -26.15 -9.2 -24.35 L-9.0 -22.7 -9.15 -22.05 Q-8.35 -20.65 -8.35 -20.0 L-8.45 -18.65 Q-8.4 -17.9 -7.7 -17.9 L-7.45 -18.05 -7.4 -18.2 -7.45 -19.2 -7.35 -19.2 Q-6.7 -19.2 -6.65 -20.85 L-6.65 -23.35 -6.1 -27.65 Q-6.1 -28.8 -6.9 -28.8 -7.5 -28.8 -7.95 -28.3 -8.65 -28.25 -9.1 -28.0 -8.3 -29.4 -6.45 -29.45 -5.55 -28.8 -5.7 -27.7 L-6.55 -20.4 Q-7.0 -16.25 -2.9 -12.85 L-2.05 -12.4 M-6.8 -16.3 L-7.0 -16.1 -6.25 -13.8 -6.15 -13.85 -6.05 -14.3 Q-6.05 -15.7 -6.8 -16.3" fill="#ffffff" fill-opacity="0.5019608" fill-rule="evenodd" stroke="none"/>
    <path d="M-1.9 -13.15 L-1.8 -12.95 -1.8 -12.9 Q-1.8 -12.55 -2.05 -12.4 L-2.9 -12.85 Q-7.0 -16.25 -6.55 -20.4 L-5.7 -27.7 Q-5.55 -28.8 -6.45 -29.45 -8.3 -29.4 -9.1 -28.0 -9.75 -27.7 -9.75 -27.0 L-9.55 -26.6 Q-10.25 -22.7 -8.6 -18.8 -6.55 -14.1 -6.45 -9.0 L-6.7 -9.2 -6.75 -9.1 -6.8 -9.0 -6.85 -9.0 -7.2 -9.1 -9.4 -16.4 Q-11.35 -22.6 -11.35 -24.8 -10.8 -30.85 -6.9 -30.85 -5.2 -30.85 -4.6 -29.3 L-4.35 -27.65 Q-4.35 -26.1 -4.95 -23.8 -5.55 -21.55 -5.55 -20.25 L-4.65 -16.4 Q-4.3 -15.0 -3.0 -14.1 L-1.9 -13.15" fill="#ffffff" fill-rule="evenodd" stroke="none"/>
    <path d="M-8.4 -22.1 L-8.05 -24.85 -6.95 -24.8 -6.95 -24.7 Q-7.1 -22.4 -7.7 -20.8 L-8.4 -22.1" fill="#f3fbae" fill-opacity="0.5019608" fill-rule="evenodd" stroke="none"/>
    <path d="M9.15 -29.35 Q9.15 -30.55 10.15 -31.75 L10.2 -31.8 10.25 -31.85 Q11.55 -33.45 13.9 -33.5 L13.95 -33.5 15.35 -33.65 15.5 -33.65 Q16.75 -33.7 17.45 -32.95 L17.45 -32.9 Q18.1 -32.15 18.1 -30.5 18.15 -28.1 17.1 -26.9 L17.05 -26.85 Q15.95 -25.65 13.85 -25.65 11.45 -25.65 10.25 -26.55 9.1 -27.5 9.15 -29.3 L9.15 -29.35 M13.9 -32.65 Q11.8 -32.65 10.65 -31.25 9.8 -30.25 9.8 -29.25 9.8 -26.3 13.75 -26.3 17.35 -26.3 17.25 -30.4 17.25 -32.8 15.35 -32.8 L13.9 -32.65" fill="#000000" fill-rule="evenodd" stroke="none"/>
    <path d="M13.9 -32.65 L15.35 -32.8 Q17.25 -32.8 17.25 -30.4 17.35 -26.3 13.75 -26.3 9.8 -26.3 9.8 -29.25 9.8 -30.25 10.65 -31.25 11.8 -32.65 13.9 -32.65 M15.45 -28.55 Q15.85 -29.2 15.8 -30.4 15.8 -31.55 13.8 -31.55 12.55 -31.55 11.75 -30.5 11.2 -29.75 11.2 -29.3 11.2 -28.1 12.9 -27.85 13.25 -27.45 14.05 -27.45 15.5 -27.45 15.5 -28.45 L15.45 -28.55" fill="#ffffff" fill-rule="evenodd" stroke="none"/>
    <path d="M14.45 -30.25 Q14.35 -30.9 13.4 -31.0 L13.5 -31.0 Q12.9 -31.25 12.25 -30.55 L11.75 -29.7 Q11.75 -28.9 12.55 -28.85 12.55 -28.2 12.9 -27.85 11.2 -28.1 11.2 -29.3 11.2 -29.75 11.75 -30.5 12.55 -31.55 13.8 -31.55 15.8 -31.55 15.8 -30.4 15.85 -29.2 15.45 -28.55 15.25 -29.15 14.85 -29.15 14.4 -29.15 14.4 -28.8 14.4 -28.5 14.7 -28.4 14.45 -28.15 14.0 -28.15 13.2 -28.15 13.15 -28.85 14.25 -29.0 14.45 -29.75 L15.1 -29.9 14.45 -30.25" fill="#ffffff" fill-opacity="0.5019608" fill-rule="evenodd" stroke="none"/>
    <path d="M12.55 -28.85 Q11.75 -28.9 11.75 -29.7 L12.25 -30.55 Q12.9 -31.25 13.5 -31.0 L13.4 -31.0 Q14.35 -30.9 14.45 -30.25 L14.15 -30.25 Q12.55 -30.25 12.55 -28.95 L12.55 -28.85 M14.45 -29.75 Q14.25 -29.0 13.15 -28.85 L13.15 -28.95 Q13.15 -29.45 14.45 -29.75" fill="#f3fbae" fill-rule="evenodd" stroke="none"/>
    <path d="M12.55 -28.85 L12.55 -28.95 Q12.55 -30.25 14.15 -30.25 L14.45 -30.25 15.1 -29.9 14.45 -29.75 Q13.15 -29.45 13.15 -28.95 L13.15 -28.85 Q13.2 -28.15 14.0 -28.15 14.45 -28.15 14.7 -28.4 14.4 -28.5 14.4 -28.8 14.4 -29.15 14.85 -29.15 15.25 -29.15 15.45 -28.55 L15.5 -28.45 Q15.5 -27.45 14.05 -27.45 13.25 -27.45 12.9 -27.85 12.55 -28.2 12.55 -28.85" fill="#a0a001" fill-rule="evenodd" stroke="none"/>
  </g>
  <defs>
    <radialGradient cx="0" cy="0" gradientTransform="matrix(0.0196, 0.0, 0.0, 0.0196, 1.35, -7.55)" gradientUnits="userSpaceOnUse" id="gradient0" r="819.2" spreadMethod="pad">
      <stop offset="0.00784313725490196" stop-color="#d2d202"/>
      <stop offset="1.0" stop-color="#666600"/>
    </radialGradient>
  </defs>
</svg>
