<?xml version="1.0" encoding="UTF-8" standalone="no"?>
<svg xmlns:xlink="http://www.w3.org/1999/xlink" height="33.25px" width="37.65px" xmlns="http://www.w3.org/2000/svg">
  <g transform="matrix(1.0, 0.0, 0.0, 1.0, 16.1, 31.6)">
    <path d="M20.55 -18.0 L20.65 -18.0 20.65 -17.95 Q20.55 -18.0 20.55 -18.0" fill="#cc3300" fill-rule="evenodd" stroke="none"/>
    <path d="M3.05 -31.05 L3.6 -29.85 4.0 -28.0 Q10.8 -27.8 16.45 -23.75 L18.65 -21.95 Q20.2 -20.45 21.4 -18.5 L21.55 -17.95 21.55 -17.9 21.3 -17.3 Q21.1 -17.05 20.75 -16.95 L20.15 -17.0 20.0 -17.05 20.05 -17.05 18.55 -17.35 17.8 -17.45 17.8 -17.5 15.45 -17.75 15.4 -17.75 12.4 -17.35 Q10.8 -16.85 9.6 -15.75 L9.2 -15.35 Q8.95 -15.15 8.65 -15.05 L8.05 -15.2 6.6 -15.95 6.7 -15.9 4.3 -16.75 4.4 -3.25 4.4 -3.1 4.1 -0.9 3.8 -0.25 2.65 0.75 2.3 0.95 0.65 1.5 0.45 1.55 -0.4 1.65 -0.65 1.65 -1.3 1.55 -1.8 1.3 -3.65 -0.3 -4.0 -0.9 -4.3 -3.2 -4.3 -3.3 -4.3 -4.6 -4.25 -4.9 -3.95 -5.9 -3.75 -6.3 Q-3.05 -7.15 -2.25 -6.95 -1.55 -6.95 -0.9 -6.05 -0.3 -5.3 0.35 -3.25 L0.5 -3.7 0.25 -16.95 Q-1.55 -16.75 -3.3 -16.0 L-4.0 -15.95 -6.45 -16.6 -6.5 -16.6 -11.15 -17.05 -14.8 -16.4 -15.4 -16.4 -15.9 -16.75 -16.1 -17.3 -15.95 -17.9 Q-13.8 -21.3 -8.55 -24.9 -6.25 -26.5 -3.1 -27.3 L-3.05 -27.3 0.75 -27.9 1.2 -30.85 1.5 -31.35 2.05 -31.6 2.65 -31.5 3.05 -31.05" fill="#000000" fill-rule="evenodd" stroke="none"/>
    <path d="M-0.05 -1.55 L-0.05 -1.45 0.9 -1.35 0.95 -1.35 1.2 -1.45 Q1.9 -2.1 2.2 -3.2 2.9 -5.8 2.75 -8.55 L2.55 -13.85 2.35 -19.25 2.35 -19.95 2.35 -20.4 3.35 -20.4 3.5 -3.3 3.2 -1.1 2.1 -0.05 0.45 0.5 -0.45 0.6 -1.1 0.5 -1.5 0.1 -1.25 -0.15 -1.25 -0.3 Q-1.85 -1.35 -2.0 -2.6 L-2.15 -3.45 Q-2.25 -4.7 -1.6 -5.5 -0.85 -4.55 -0.1 -1.55 L-0.05 -1.55" fill="#890101" fill-rule="evenodd" stroke="none"/>
    <path d="M2.35 -20.4 L2.35 -19.95 2.35 -19.25 2.55 -13.85 2.75 -8.55 Q2.9 -5.8 2.2 -3.2 1.9 -2.1 1.2 -1.45 L0.95 -1.35 0.9 -1.35 -0.05 -1.45 -0.05 -1.55 1.2 -2.15 1.6 -3.65 1.3 -20.25 1.75 -20.35 2.35 -20.4 M-1.6 -5.5 Q-2.25 -4.7 -2.15 -3.45 L-2.0 -2.6 Q-1.85 -1.35 -1.25 -0.3 L-1.25 -0.15 -1.5 0.1 -2.9 -1.1 -3.2 -3.4 -3.25 -4.7 -2.9 -5.7 Q-2.3 -6.4 -1.6 -5.5" fill="#ffea95" fill-rule="evenodd" stroke="none"/>
    <path d="M2.95 -24.95 L2.8 -24.75 2.7 -24.7 2.65 -24.65 Q2.35 -24.55 2.15 -24.75 L2.1 -24.7 1.95 -24.7 1.85 -24.75 1.75 -26.0 Q1.7 -28.35 2.3 -30.65 L2.7 -27.25 2.95 -24.95" fill="#999999" fill-rule="evenodd" stroke="none"/>
    <path d="M2.95 -24.95 L2.7 -27.25 2.3 -30.65 2.75 -29.6 Q3.45 -27.25 2.95 -24.95" fill="#333333" fill-rule="evenodd" stroke="none"/>
    <path d="M3.5 -27.0 Q9.25 -23.45 9.25 -16.75 L9.0 -16.5 8.6 -16.1 7.2 -16.9 Q3.8 -18.4 0.45 -18.05 L0.5 -18.6 0.5 -19.45 0.95 -21.75 2.25 -25.0 2.4 -25.25 Q3.0 -25.8 3.2 -26.55 L3.45 -26.85 3.5 -27.0" fill="#ffffff" fill-rule="evenodd" stroke="none"/>
    <path d="M4.75 -26.9 L3.6 -27.05 Q10.4 -27.0 15.95 -23.0 L18.05 -21.25 Q19.55 -19.85 20.65 -18.0 L20.55 -18.0 20.35 -18.05 19.95 -18.6 18.05 -20.75 17.5 -21.3 14.8 -23.25 11.75 -24.85 8.35 -26.1 4.75 -26.9 M3.45 -27.05 L3.5 -27.0 3.45 -26.85 3.2 -26.55 Q3.0 -25.8 2.4 -25.25 L2.25 -25.0 0.95 -21.75 0.5 -19.45 0.5 -18.6 0.45 -18.05 Q-1.6 -17.85 -3.6 -16.95 L-3.45 -18.35 Q-2.85 -23.95 1.9 -27.0 L3.45 -27.05" fill="#cccccc" fill-rule="evenodd" stroke="none"/>
    <path d="M12.15 -18.35 Q11.7 -20.3 10.65 -21.85 L8.1 -24.6 Q6.8 -25.8 5.3 -26.5 L4.75 -26.9 8.35 -26.1 11.75 -24.85 14.8 -23.25 17.5 -21.3 18.05 -20.75 19.95 -18.6 20.35 -18.05 18.85 -18.35 18.05 -18.5 15.6 -18.8 12.15 -18.35 M-2.75 -26.35 L-3.6 -26.0 -4.15 -25.75 Q-7.1 -24.1 -9.2 -21.4 -10.4 -19.9 -11.1 -18.15 L-11.1 -18.1 -15.0 -17.4 Q-12.9 -20.65 -7.85 -24.1 -5.7 -25.65 -2.75 -26.35" fill="#748f01" fill-rule="evenodd" stroke="none"/>
    <path d="M3.6 -27.05 L4.75 -26.9 5.3 -26.5 Q6.8 -25.8 8.1 -24.6 L10.65 -21.85 Q11.7 -20.3 12.15 -18.35 10.35 -17.8 9.0 -16.5 L9.25 -16.75 Q9.25 -23.45 3.5 -27.0 L3.45 -27.05 3.6 -27.05 M1.9 -27.0 Q-2.85 -23.95 -3.45 -18.35 L-3.6 -16.95 -6.15 -17.6 -11.1 -18.1 -11.1 -18.15 Q-10.4 -19.9 -9.2 -21.4 -7.1 -24.1 -4.15 -25.75 L-3.6 -26.0 -2.75 -26.35 1.9 -27.0" fill="#9ee05a" fill-rule="evenodd" stroke="none"/>
  </g>
</svg>
