<?xml version="1.0" encoding="UTF-8" standalone="no"?>
<svg xmlns:xlink="http://www.w3.org/1999/xlink" height="22.4px" width="29.15px" xmlns="http://www.w3.org/2000/svg">
  <g transform="matrix(1.0, 0.0, 0.0, 1.0, 14.45, 17.25)">
    <path d="M14.6 -5.9 Q14.5 -1.9 12.7 -1.25 L8.85 0.25 8.85 0.2 1.05 3.15 Q-4.5 5.2 -5.35 5.15 -6.35 5.2 -8.9 3.9 L-12.6 1.7 Q-14.45 0.4 -14.45 -2.5 L-14.15 -5.9 -14.1 -6.4 -13.95 -7.3 -13.75 -7.75 -12.0 -10.0 -11.6 -10.25 -9.85 -10.85 -3.75 -12.6 Q-1.9 -13.05 1.35 -14.25 5.1 -15.6 7.45 -15.3 9.7 -15.15 13.5 -12.55 L13.75 -12.35 14.05 -12.0 Q14.6 -11.05 14.65 -9.9 L14.65 -9.85 14.6 -5.9" fill="#000000" fill-rule="evenodd" stroke="none"/>
    <path d="M-12.9 -5.9 L-12.85 -6.5 -12.8 -7.2 -11.0 -9.35 -9.5 -9.8 -3.4 -11.65 1.85 -13.3 Q5.25 -14.5 7.4 -14.3 9.45 -14.1 12.9 -11.75 L13.2 -11.5 13.65 -10.05 13.65 -10.0 13.45 -8.1 Q12.3 -8.2 1.85 -4.25 -2.2 -2.65 -3.85 -2.65 -5.05 -2.65 -5.7 -3.5 L-6.75 -5.2 Q-7.15 -5.7 -9.3 -6.25 L-11.85 -6.7 -12.9 -5.9 M8.75 -8.8 Q6.1 -8.2 1.35 -6.35 L-1.2 -5.7 -1.3 -5.65 -1.7 -5.65 -4.8 -5.9 Q-4.3 -5.0 -4.35 -3.9 L-2.9 -4.2 0.0 -4.8 8.85 -7.95 Q11.3 -8.9 12.95 -8.9 L13.15 -9.8 13.15 -10.6 Q11.4 -9.5 8.75 -8.8 M0.05 -8.45 Q2.6 -8.45 4.3 -9.5 5.75 -10.4 5.75 -11.45 5.75 -12.95 3.85 -12.95 2.85 -12.95 1.05 -12.15 -0.75 -11.35 -0.75 -10.85 L-0.55 -10.4 -0.8 -10.35 -2.95 -10.95 Q-4.3 -10.95 -4.3 -9.75 -4.55 -7.8 0.05 -8.45" fill="#fff7d5" fill-rule="evenodd" stroke="none"/>
    <path d="M8.75 -8.8 Q11.4 -9.5 13.15 -10.6 L13.15 -9.8 12.95 -8.9 Q11.3 -8.9 8.85 -7.95 L0.0 -4.8 -2.9 -4.2 -4.35 -3.9 Q-4.3 -5.0 -4.8 -5.9 L-1.7 -5.65 -1.3 -5.65 -1.2 -5.7 1.35 -6.35 Q6.1 -8.2 8.75 -8.8" fill="#ffffff" fill-rule="evenodd" stroke="none"/>
    <path d="M13.65 -10.0 L13.6 -6.1 Q13.45 -2.95 12.35 -2.4 L8.55 -0.95 0.75 1.95 Q-4.5 3.9 -5.25 3.9 -6.05 3.9 -8.25 2.75 L-11.85 0.65 Q-13.2 -0.35 -13.2 -2.65 L-12.9 -5.9 -11.85 -6.7 -9.3 -6.25 Q-7.15 -5.7 -6.75 -5.2 L-5.7 -3.5 Q-5.05 -2.65 -3.85 -2.65 -2.2 -2.65 1.85 -4.25 12.3 -8.2 13.45 -8.1 L13.65 -10.0 M0.05 -8.45 Q-4.55 -7.8 -4.3 -9.75 -4.3 -10.95 -2.95 -10.95 L-0.8 -10.35 -0.55 -10.4 -0.75 -10.85 Q-0.75 -11.35 1.05 -12.15 2.85 -12.95 3.85 -12.95 5.75 -12.95 5.75 -11.45 5.75 -10.4 4.3 -9.5 2.6 -8.45 0.05 -8.45" fill="#ffea95" fill-rule="evenodd" stroke="none"/>
    <path d="M-0.15 -14.05 L-0.1 -14.1 -0.15 -14.2 -0.15 -14.05 M3.0 -10.1 Q-0.25 -8.45 -4.4 -9.3 -6.7 -9.7 -6.0 -11.65 L-5.9 -11.8 -5.2 -12.65 Q-1.55 -18.45 3.85 -16.9 5.5 -16.45 6.0 -15.3 6.55 -14.35 6.0 -12.9 L5.95 -12.65 Q5.3 -11.25 3.0 -10.1 M-2.7 -12.6 L-2.6 -12.55 -2.65 -12.6 -2.7 -12.6" fill="#000000" fill-rule="evenodd" stroke="none"/>
    <path d="M-4.9 -10.8 Q-1.5 -16.95 3.55 -15.6 5.7 -15.0 4.8 -12.95 4.4 -11.35 2.3 -10.0 -0.5 -8.15 -4.15 -9.1 -5.3 -9.4 -4.9 -10.8 M0.8 -14.1 L0.5 -14.65 Q-1.45 -14.45 -1.75 -13.25 L-1.7 -12.9 -0.25 -13.25 0.8 -14.1 M3.7 -13.65 Q3.85 -14.2 3.25 -14.35 -2.35 -11.7 -2.45 -11.25 -2.65 -10.5 -1.75 -10.3 -0.45 -9.95 3.7 -13.65" fill="#4f2f11" fill-rule="evenodd" stroke="none"/>
    <path d="M3.7 -13.65 Q-0.45 -9.95 -1.75 -10.3 -2.65 -10.5 -2.45 -11.25 -2.35 -11.7 3.25 -14.35 3.85 -14.2 3.7 -13.65 M0.8 -14.1 L-0.25 -13.25 -1.7 -12.9 -1.75 -13.25 Q-1.45 -14.45 0.5 -14.65 L0.8 -14.1" fill="#916942" fill-rule="evenodd" stroke="none"/>
  </g>
</svg>
