<?xml version="1.0" encoding="UTF-8" standalone="no"?>
<svg xmlns:xlink="http://www.w3.org/1999/xlink" height="22.5px" width="24.75px" xmlns="http://www.w3.org/2000/svg">
  <g transform="matrix(1.0, 0.0, 0.0, 1.0, 12.3, 19.65)">
    <path d="M12.45 -11.8 Q12.45 -10.95 11.85 -10.15 L11.85 -4.65 Q12.4 -3.9 12.4 -3.1 L12.4 -2.95 12.35 -2.55 12.4 -2.1 12.4 -2.0 Q12.55 0.25 8.4 1.65 4.95 2.85 0.05 2.85 -4.85 2.85 -8.3 1.65 -12.5 0.2 -12.3 -2.05 L-12.25 -2.55 -12.3 -3.0 Q-12.3 -3.75 -11.9 -4.45 L-11.85 -5.05 -11.85 -5.1 -11.85 -5.45 -11.85 -6.35 -11.85 -7.2 -11.85 -7.75 -11.85 -7.8 -11.8 -10.45 -12.25 -11.85 -12.2 -12.35 -12.25 -12.8 Q-12.45 -15.1 -8.25 -16.55 -4.8 -17.75 0.1 -17.75 5.0 -17.75 8.45 -16.55 12.6 -15.15 12.45 -12.9 L12.45 -12.75 12.4 -12.35 12.45 -11.9 12.45 -11.8" fill="#000000" fill-rule="evenodd" stroke="none"/>
    <path d="M-11.25 -2.5 Q-10.85 -1.2 -8.05 -0.2 -4.7 0.95 0.0 0.95 4.7 0.95 8.0 -0.2 10.85 -1.2 11.3 -2.5 L11.35 -2.05 11.35 -2.0 Q11.3 -0.4 8.0 0.75 4.7 1.9 0.0 1.9 -4.7 1.9 -8.05 0.75 -11.35 -0.4 -11.35 -2.05 L-11.25 -2.5" fill="#80a4bb" fill-rule="evenodd" stroke="none"/>
    <path d="M11.3 -2.5 Q10.85 -1.2 8.0 -0.2 4.7 0.95 0.0 0.95 -4.7 0.95 -8.05 -0.2 -10.85 -1.2 -11.25 -2.5 L-11.35 -3.0 Q-11.35 -4.6 -8.05 -5.75 -4.7 -6.9 0.0 -6.9 4.7 -6.9 8.0 -5.75 11.3 -4.6 11.35 -3.05 L11.35 -2.95 11.3 -2.5" fill="#bccfdc" fill-rule="evenodd" stroke="none"/>
    <path d="M10.8 -8.0 L10.8 -7.15 Q10.75 -6.0 9.0 -5.1 L7.6 -4.5 Q4.45 -3.45 0.0 -3.4 -4.5 -3.45 -7.65 -4.5 L-8.75 -4.9 -9.4 -5.2 Q-10.7 -5.8 -10.9 -6.3 L-10.9 -7.15 Q-10.7 -6.65 -9.4 -6.05 L-8.75 -5.75 -7.65 -5.35 Q-4.5 -4.3 0.0 -4.25 4.45 -4.3 7.6 -5.35 10.0 -6.2 10.6 -7.25 L10.8 -8.0" fill="#a53216" fill-rule="evenodd" stroke="none"/>
    <path d="M10.75 -19.3 L10.8 -19.65 10.8 -18.85 10.75 -19.1 10.75 -19.2 10.75 -19.3 M10.75 -18.5 L10.8 -18.75 10.8 -18.8 10.8 -17.95 10.8 -18.15 10.75 -18.25 10.75 -18.35 10.75 -18.45 10.75 -18.5 M10.8 -17.8 L10.8 -17.35 10.75 -17.6 10.8 -17.7 10.8 -17.8 M10.8 -17.3 L10.8 -17.05 10.8 -17.25 10.8 -17.3 M-10.85 -11.0 L-10.85 -10.15 -10.85 -9.7 -10.85 -9.65 -10.85 -7.75 -10.85 -7.7 -10.9 -7.7 -10.85 -12.1 -10.85 -11.0 M-10.8 -18.35 L-10.8 -18.1 -10.8 -17.9 -10.8 -17.75 -10.8 -17.4 -10.85 -17.45 -10.85 -18.65 -10.75 -18.55 -10.75 -18.5 -10.75 -18.4 -10.8 -18.35 M-10.85 -16.55 L-10.85 -15.9 -10.85 -15.95 -10.85 -16.6 -10.85 -16.55 M-10.85 -15.1 L-10.85 -14.45 -10.85 -15.1 M-10.85 -13.6 L-10.85 -12.95 -10.85 -13.6" fill="url(#gradient0)" fill-rule="evenodd" stroke="none"/>
    <path d="M-10.85 -11.0 L-10.8 -10.95 -10.8 -11.3 -10.8 -11.45 -10.8 -11.65 -10.8 -11.9 -10.75 -12.05 -10.75 -12.1 -10.8 -12.3 -10.8 -12.35 -10.8 -12.45 -10.8 -12.55 -10.8 -12.75 -10.75 -12.95 Q-10.35 -14.25 -7.65 -15.15 -4.5 -16.25 0.0 -16.25 4.45 -16.25 7.6 -15.15 10.3 -14.25 10.75 -12.95 L10.75 -12.85 10.75 -12.75 10.75 -12.65 10.8 -12.4 10.8 -12.35 10.8 -12.3 10.75 -12.05 10.75 -12.0 10.75 -11.9 10.75 -11.8 10.8 -11.7 10.8 -11.5 10.8 -11.45 10.8 -11.35 10.8 -11.25 10.75 -11.0 10.75 -10.9 10.8 -10.85 10.8 -10.6 10.8 -8.7 10.6 -7.95 Q10.0 -6.9 7.6 -6.05 4.45 -5.0 0.0 -4.95 -4.5 -5.0 -7.65 -6.05 L-8.75 -6.45 -9.4 -6.75 -10.85 -7.7 -10.85 -7.75 -10.85 -9.65 -10.85 -10.15 -10.85 -11.0 M10.8 -6.25 L10.8 -4.45 10.75 -4.0 10.8 -3.6 10.8 -3.55 Q10.75 -2.0 7.6 -0.9 5.7 -0.25 3.35 0.0 L0.0 0.2 -3.35 0.0 Q-5.75 -0.25 -7.65 -0.9 L-8.75 -1.3 -9.4 -1.6 Q-10.8 -2.25 -10.95 -2.75 L-10.95 -2.8 -10.9 -5.0 -10.9 -5.05 -10.9 -5.4 Q-10.7 -4.9 -9.4 -4.3 L-8.75 -4.0 -7.65 -3.6 Q-4.5 -2.55 0.0 -2.5 4.45 -2.55 7.6 -3.6 10.75 -4.7 10.8 -6.25" fill="#1f7a27" fill-rule="evenodd" stroke="none"/>
    <path d="M-10.85 -7.7 L-9.4 -6.75 -8.75 -6.45 -7.65 -6.05 Q-4.5 -5.0 0.0 -4.95 4.45 -5.0 7.6 -6.05 10.0 -6.9 10.6 -7.95 L10.8 -8.7 10.8 -8.0 10.6 -7.25 Q10.0 -6.2 7.6 -5.35 4.45 -4.3 0.0 -4.25 -4.5 -4.3 -7.65 -5.35 L-8.75 -5.75 -9.4 -6.05 Q-10.7 -6.65 -10.9 -7.15 L-10.9 -7.7 -10.85 -7.7 M10.8 -7.15 L10.8 -6.25 Q10.75 -4.7 7.6 -3.6 4.45 -2.55 0.0 -2.5 -4.5 -2.55 -7.65 -3.6 L-8.75 -4.0 -9.4 -4.3 Q-10.7 -4.9 -10.9 -5.4 L-10.9 -6.3 Q-10.7 -5.8 -9.4 -5.2 L-8.75 -4.9 -7.65 -4.5 Q-4.5 -3.45 0.0 -3.4 4.45 -3.45 7.6 -4.5 L9.0 -5.1 Q10.75 -6.0 10.8 -7.15" fill="#ffe600" fill-rule="evenodd" stroke="none"/>
    <path d="M11.35 -12.3 L11.4 -11.85 11.4 -11.8 Q11.35 -10.2 8.05 -9.05 4.75 -7.9 0.05 -7.9 -4.65 -7.9 -8.0 -9.05 -11.3 -10.2 -11.3 -11.8 L-11.2 -12.3 Q-10.8 -10.95 -8.0 -10.0 L-6.55 -9.55 -3.55 -9.05 -1.8 -8.9 0.05 -8.85 3.6 -9.0 6.6 -9.55 8.05 -10.0 Q10.9 -10.95 11.35 -12.3 M10.05 -12.8 L10.0 -12.55 10.0 -12.6 Q9.7 -13.85 7.1 -14.7 4.2 -15.75 0.05 -15.7 -4.1 -15.75 -7.0 -14.7 -9.6 -13.8 -9.9 -12.55 L-9.9 -12.5 -9.9 -12.8 Q-9.95 -14.25 -7.0 -15.25 -4.1 -16.3 0.05 -16.25 4.2 -16.3 7.1 -15.25 10.0 -14.3 10.05 -12.85 L10.05 -12.8" fill="#80a4bb" fill-rule="evenodd" stroke="none"/>
    <path d="M-11.2 -12.3 L-11.3 -12.75 Q-11.3 -14.4 -8.0 -15.55 -4.65 -16.7 0.05 -16.7 4.75 -16.7 8.05 -15.55 11.35 -14.45 11.4 -12.8 L11.4 -12.75 11.35 -12.3 Q10.9 -10.95 8.05 -10.0 L6.6 -9.55 3.6 -9.0 0.05 -8.85 -1.8 -8.9 -3.55 -9.05 -6.55 -9.55 -8.0 -10.0 Q-10.8 -10.95 -11.2 -12.3 M6.9 -11.05 L5.6 -10.7 Q3.45 -10.0 1.25 -10.1 L-4.95 -10.95 Q-3.3 -10.15 -1.35 -9.95 0.85 -9.7 3.25 -9.9 5.6 -10.05 7.45 -11.1 L7.9 -11.5 7.9 -12.35 Q7.15 -12.95 6.3 -13.0 L1.05 -13.4 -1.25 -13.45 Q-4.3 -13.5 -6.95 -12.1 -4.95 -12.85 -2.6 -12.8 L2.55 -13.05 Q5.3 -13.45 7.6 -12.05 L7.35 -11.65 6.9 -11.05 M10.05 -12.8 L10.05 -12.85 Q10.0 -14.3 7.1 -15.25 4.2 -16.3 0.05 -16.25 -4.1 -16.3 -7.0 -15.25 -9.95 -14.25 -9.9 -12.8 L-9.9 -12.5 -9.9 -12.55 Q-9.6 -13.8 -7.0 -14.7 -4.1 -15.75 0.05 -15.7 4.2 -15.75 7.1 -14.7 9.7 -13.85 10.0 -12.6 L10.0 -12.55 10.05 -12.8 M9.9 -12.2 Q8.45 -14.0 6.1 -14.25 L1.3 -14.8 0.0 -15.0 1.35 -15.0 -4.6 -14.5 -6.25 -14.05 Q-8.35 -13.65 -9.6 -11.85 L-9.4 -11.65 Q-7.75 -13.5 -5.25 -13.7 L-0.6 -14.4 Q1.5 -14.7 3.7 -14.35 6.25 -14.25 8.4 -13.1 L9.4 -12.35 9.5 -11.7 9.8 -12.1 9.9 -12.2 M4.45 -11.55 L5.05 -12.05 1.85 -12.4 -4.6 -11.8 1.1 -12.15 4.5 -11.95 0.95 -11.65 3.05 -11.45 4.45 -11.55" fill="#bccfdc" fill-rule="evenodd" stroke="none"/>
    <path d="M6.9 -11.05 L7.35 -11.65 7.6 -12.05 Q5.3 -13.45 2.55 -13.05 L-2.6 -12.8 Q-4.95 -12.85 -6.95 -12.1 -4.3 -13.5 -1.25 -13.45 L1.05 -13.4 6.3 -13.0 Q7.15 -12.95 7.9 -12.35 L7.9 -11.5 7.45 -11.1 Q5.6 -10.05 3.25 -9.9 0.85 -9.7 -1.35 -9.95 -3.3 -10.15 -4.95 -10.95 L1.25 -10.1 Q3.45 -10.0 5.6 -10.7 L6.9 -11.05 M9.9 -12.2 L9.8 -12.1 9.5 -11.7 9.4 -12.35 8.4 -13.1 Q6.25 -14.25 3.7 -14.35 1.5 -14.7 -0.6 -14.4 L-5.25 -13.7 Q-7.75 -13.5 -9.4 -11.65 L-9.6 -11.85 Q-8.35 -13.65 -6.25 -14.05 L-4.6 -14.5 1.35 -15.0 0.0 -15.0 1.3 -14.8 6.1 -14.25 Q8.45 -14.0 9.9 -12.2 M4.45 -11.55 L3.05 -11.45 0.95 -11.65 4.5 -11.95 1.1 -12.15 -4.6 -11.8 1.85 -12.4 5.05 -12.05 4.45 -11.55" fill="#e3ecf0" fill-rule="evenodd" stroke="none"/>
  </g>
  <defs>
    <linearGradient gradientTransform="matrix(0.0132, 0.0, 0.0, 0.0102, -0.05, -10.9)" gradientUnits="userSpaceOnUse" id="gradient0" spreadMethod="pad" x1="-819.2" x2="819.2">
      <stop offset="0.0" stop-color="#fa8585"/>
      <stop offset="0.3607843137254902" stop-color="#ffc4c4"/>
      <stop offset="0.6470588235294118" stop-color="#ffc6bd"/>
      <stop offset="0.9490196078431372" stop-color="#fa8585"/>
    </linearGradient>
  </defs>
</svg>
