<?xml version="1.0" encoding="UTF-8" standalone="no"?>
<svg xmlns:xlink="http://www.w3.org/1999/xlink" height="32.9px" width="44.25px" xmlns="http://www.w3.org/2000/svg">
  <g transform="matrix(1.0, 0.0, 0.0, 1.0, 20.5, 27.5)">
    <path d="M20.55 -27.5 Q22.75 -27.45 23.7 -24.0 L23.65 -23.3 22.9 -21.8 21.85 -20.1 Q22.15 -17.05 20.1 -14.05 L20.05 -14.0 Q15.85 -7.95 0.65 -0.5 L-8.45 3.8 Q-12.55 5.75 -15.25 5.35 -18.25 4.95 -19.75 2.0 -22.6 -3.55 -14.6 -7.45 -8.35 -10.5 -6.3 -11.1 L-6.2 -11.15 Q-4.5 -11.65 -1.45 -13.15 5.4 -16.55 8.0 -19.65 L8.05 -19.75 9.75 -21.9 9.8 -21.95 9.8 -22.0 Q10.9 -23.25 12.8 -24.2 15.35 -25.45 17.5 -25.15 L18.5 -26.15 19.5 -27.15 19.85 -27.35 20.15 -27.45 20.45 -27.5 20.55 -27.5 M21.95 -22.2 L22.7 -23.7 Q22.0 -26.3 20.45 -26.45 L20.4 -26.45 20.1 -26.35 19.15 -25.4 18.35 -24.6 Q20.1 -24.1 20.6 -23.0 L21.3 -21.05 21.95 -22.2 M20.15 -22.8 Q19.65 -23.8 18.1 -24.2 16.0 -24.8 13.35 -23.5 11.65 -22.65 10.65 -21.5 L8.95 -19.3 Q6.3 -16.0 -0.9 -12.45 -4.05 -10.95 -5.8 -10.4 -7.65 -9.9 -14.05 -6.75 -21.05 -3.35 -18.75 1.35 -16.3 6.35 -8.8 2.7 L0.3 -1.6 Q15.2 -8.9 19.35 -14.8 22.15 -18.75 20.15 -22.8" fill="#000000" fill-rule="evenodd" stroke="none"/>
    <path d="M19.15 -25.4 L20.1 -26.35 20.4 -26.45 20.45 -26.45 Q22.0 -26.3 22.7 -23.7 L21.95 -22.2 21.75 -23.7 Q21.3 -25.0 19.9 -25.25 L19.15 -25.4 M16.9 -16.5 L17.3 -16.4 17.65 -16.95 17.8 -17.45 Q17.6 -17.75 17.4 -17.65 L16.9 -16.5 M17.35 -16.15 L16.95 -16.2 15.9 -15.2 15.5 -14.25 15.9 -14.1 17.35 -16.15 M14.4 -13.4 L14.8 -13.25 Q15.1 -13.4 15.2 -14.15 L14.8 -14.05 14.4 -13.4 M14.3 -12.9 Q14.25 -13.2 14.0 -13.05 L12.55 -11.7 13.0 -11.65 Q14.55 -12.4 14.3 -12.9 M11.15 -13.35 Q11.5 -13.55 11.35 -13.9 11.0 -14.5 9.8 -13.9 7.95 -13.0 8.25 -12.45 L8.4 -12.25 9.0 -12.3 9.7 -12.85 11.15 -13.35 M13.7 -16.8 L13.45 -16.75 12.4 -16.1 Q12.35 -15.55 11.8 -15.25 11.0 -14.9 11.3 -14.35 L11.9 -14.15 13.25 -15.3 Q14.2 -16.25 14.05 -16.5 L13.85 -16.75 14.0 -16.75 14.7 -17.05 Q16.05 -17.75 15.7 -18.5 L15.3 -18.65 14.6 -18.0 Q13.4 -17.4 13.65 -16.85 L13.7 -16.8 M18.7 -20.9 L18.65 -20.95 18.7 -21.0 18.7 -20.9 M16.55 -22.55 L16.8 -22.55 17.05 -22.4 16.4 -20.75 Q15.7 -19.45 15.85 -19.05 L16.1 -19.0 17.9 -21.05 18.55 -20.9 17.35 -18.05 17.8 -18.0 Q18.2 -18.2 18.65 -19.6 L18.55 -18.8 Q18.2 -16.25 17.6 -15.45 14.3 -11.45 10.7 -9.15 8.45 -7.75 -0.55 -3.3 -9.15 0.9 -11.95 1.75 L-13.6 2.1 -13.15 2.05 Q-13.0 1.9 -13.2 1.5 L-13.65 1.25 Q-14.25 1.55 -14.2 2.0 L-14.95 1.4 Q-15.1 1.1 -14.65 -1.85 L-14.9 -2.05 -15.65 -2.0 -16.2 -1.7 -15.9 -1.9 -15.4 -2.85 -15.7 -2.95 -16.3 -2.1 -16.65 -1.25 -17.1 -0.35 Q-17.35 -3.05 -13.2 -5.05 -6.85 -8.15 -5.05 -8.7 L-4.25 -8.95 -4.55 -8.6 Q-4.35 -8.15 -2.05 -9.25 L-1.3 -9.95 -2.85 -9.5 0.1 -10.85 1.3 -11.5 1.3 -11.25 2.05 -11.3 Q2.95 -11.75 2.85 -12.05 L2.65 -12.15 4.85 -13.4 Q4.45 -13.05 4.65 -12.8 L4.9 -12.8 Q5.45 -13.05 6.3 -13.85 L7.1 -14.75 7.0 -14.8 7.4 -15.1 9.3 -16.7 9.3 -16.55 Q9.4 -16.35 9.65 -16.45 L10.9 -17.7 11.6 -18.8 Q11.5 -19.05 11.25 -18.9 L10.85 -18.6 11.3 -19.25 Q11.4 -19.0 11.7 -19.15 L12.3 -19.65 Q12.9 -20.2 12.75 -20.45 12.7 -20.75 12.45 -20.6 12.15 -20.5 11.9 -20.2 12.7 -21.1 14.1 -21.8 13.1 -21.15 13.3 -20.75 L13.35 -20.7 15.2 -21.55 16.55 -22.55 M10.05 -9.65 L10.65 -9.7 10.9 -9.9 11.35 -10.15 11.5 -10.15 Q12.95 -10.9 12.65 -11.55 L12.2 -11.65 10.85 -10.7 10.65 -10.5 9.95 -9.8 9.75 -9.85 8.65 -9.1 7.65 -8.5 Q7.5 -8.75 7.1 -8.5 6.4 -8.2 6.6 -7.8 L7.0 -7.7 7.3 -7.9 7.6 -7.95 7.75 -8.2 8.3 -8.4 9.25 -8.95 Q10.15 -9.4 10.0 -9.7 L10.05 -9.65 M-6.1 -1.55 L-5.4 -1.5 -3.6 -2.5 Q-3.35 -2.35 -2.55 -2.7 -2.3 -2.85 -2.45 -3.1 L-2.45 -3.15 Q-1.85 -3.6 -1.95 -3.75 L-2.6 -3.75 -3.5 -3.1 -3.55 -3.1 -5.55 -2.1 -6.1 -1.55 M-6.5 -1.4 L-6.9 -1.55 -7.3 -1.35 Q-8.1 -1.0 -7.85 -0.5 -7.7 -0.15 -7.35 -0.35 L-7.1 -0.6 -6.8 -0.65 Q-6.3 -0.95 -6.5 -1.4 M-8.9 -0.05 L-10.05 0.0 -11.35 0.3 Q-12.35 0.75 -12.1 1.25 -11.9 1.65 -9.3 0.4 L-8.9 -0.05 M-5.7 -7.9 L-7.25 -7.7 -7.55 -7.3 -6.0 -7.55 -5.65 -7.9 -5.7 -7.9 M-8.55 -6.9 L-8.65 -6.95 -10.1 -6.45 -10.45 -6.1 Q-10.3 -5.75 -9.15 -6.3 -8.7 -6.55 -8.55 -6.9 M-2.7 -7.0 L-3.7 -6.95 Q-4.5 -6.6 -4.25 -6.15 -3.15 -5.55 -2.7 -5.8 -1.8 -6.25 -2.05 -6.8 -2.3 -7.2 -2.7 -7.0 M-14.2 -4.05 L-14.55 -4.15 Q-15.55 -3.7 -15.35 -3.2 L-14.95 -3.1 -14.2 -4.05 M-10.4 -3.45 L-12.2 -3.45 -12.6 -3.0 -13.45 -2.7 -14.3 -1.75 -14.75 -0.75 Q-14.6 -0.4 -14.2 -0.6 L-13.7 -1.4 -13.1 -1.45 -12.45 -2.1 -12.15 -2.3 -12.25 -2.2 Q-12.0 -2.0 -11.6 -2.2 L-10.4 -3.45 M-10.3 -4.15 Q-10.65 -4.0 -10.5 -3.6 -9.9 -3.05 -9.05 -3.45 -8.7 -3.65 -8.55 -3.9 L-8.05 -3.95 -7.75 -4.3 Q-6.85 -4.5 -6.25 -4.8 -5.25 -5.3 -5.4 -5.6 -5.6 -5.95 -7.3 -5.3 L-8.65 -5.2 Q-9.25 -4.9 -9.0 -4.35 L-10.3 -4.15 M-11.05 -5.25 Q-10.8 -5.4 -10.9 -5.6 L-12.2 -5.45 Q-13.4 -4.9 -13.3 -4.35 L-13.1 -4.35 -11.05 -5.25 M1.25 -5.15 L0.25 -5.3 Q-1.0 -4.65 -0.8 -4.2 -0.65 -3.9 -0.3 -4.0 L0.35 -4.4 0.85 -4.45 Q1.45 -4.75 1.25 -5.15 M3.65 -6.65 L3.5 -6.65 3.15 -6.5 2.65 -6.45 2.25 -6.3 Q1.9 -6.15 2.1 -5.75 2.25 -5.45 2.65 -5.65 L3.25 -6.25 3.35 -6.25 3.65 -6.65 M0.6 -7.55 Q1.35 -7.95 1.2 -8.35 0.15 -8.95 -0.5 -8.6 -1.65 -8.05 -1.35 -7.45 -1.15 -6.95 -0.4 -7.3 L-0.1 -7.6 0.6 -7.55 M3.4 -9.45 L2.75 -9.75 1.7 -9.7 Q1.3 -9.5 1.5 -9.1 1.9 -8.25 3.15 -8.85 3.6 -9.1 3.4 -9.45 M5.9 -7.7 L5.35 -7.35 4.9 -7.2 Q4.3 -6.95 4.45 -6.7 L5.9 -6.95 Q6.4 -7.25 6.25 -7.55 L5.9 -7.7 M6.0 -10.4 L6.55 -10.9 6.9 -11.0 Q7.5 -11.3 7.25 -11.9 6.9 -12.6 6.3 -12.25 5.7 -12.0 5.9 -11.45 L5.1 -11.2 3.9 -10.85 Q3.25 -10.55 3.45 -10.1 L3.9 -9.9 4.85 -9.85 6.0 -10.4" fill="#0c9e28" fill-rule="evenodd" stroke="none"/>
    <path d="M21.95 -22.2 L21.3 -21.05 20.6 -23.0 Q20.1 -24.1 18.35 -24.6 L19.15 -25.4 19.9 -25.25 Q21.3 -25.0 21.75 -23.7 L21.95 -22.2 M20.15 -22.8 Q22.15 -18.75 19.35 -14.8 15.2 -8.9 0.3 -1.6 L-8.8 2.7 Q-16.3 6.35 -18.75 1.35 -21.05 -3.35 -14.05 -6.75 -7.65 -9.9 -5.8 -10.4 -4.05 -10.95 -0.9 -12.45 6.3 -16.0 8.95 -19.3 L10.65 -21.5 Q11.65 -22.65 13.35 -23.5 16.0 -24.8 18.1 -24.2 19.65 -23.8 20.15 -22.8 M16.55 -22.55 L15.2 -21.55 13.35 -20.7 13.3 -20.75 Q13.1 -21.15 14.1 -21.8 12.7 -21.1 11.9 -20.2 12.15 -20.5 12.45 -20.6 12.7 -20.75 12.75 -20.45 12.9 -20.2 12.3 -19.65 L11.7 -19.15 Q11.4 -19.0 11.3 -19.25 L10.85 -18.6 11.25 -18.9 Q11.5 -19.05 11.6 -18.8 L10.9 -17.7 9.65 -16.45 Q9.4 -16.35 9.3 -16.55 L9.3 -16.7 7.4 -15.1 7.0 -14.8 7.1 -14.75 6.3 -13.85 Q5.45 -13.05 4.9 -12.8 L4.65 -12.8 Q4.45 -13.05 4.85 -13.4 L2.65 -12.15 2.85 -12.05 Q2.95 -11.75 2.05 -11.3 L1.3 -11.25 1.3 -11.5 0.1 -10.85 -2.85 -9.5 -1.3 -9.95 -2.05 -9.25 Q-4.35 -8.15 -4.55 -8.6 L-4.25 -8.95 -5.05 -8.7 Q-6.85 -8.15 -13.2 -5.05 -17.35 -3.05 -17.1 -0.35 L-16.65 -1.25 -16.3 -2.1 -15.7 -2.95 -15.4 -2.85 -15.9 -1.9 -16.2 -1.7 -15.65 -2.0 -14.9 -2.05 -14.65 -1.85 Q-15.1 1.1 -14.95 1.4 L-14.2 2.0 Q-14.25 1.55 -13.65 1.25 L-13.2 1.5 Q-13.0 1.9 -13.15 2.05 L-13.6 2.1 -11.95 1.75 Q-9.15 0.9 -0.55 -3.3 8.45 -7.75 10.7 -9.15 14.3 -11.45 17.6 -15.45 18.2 -16.25 18.55 -18.8 L18.65 -19.6 Q18.2 -18.2 17.8 -18.0 L17.35 -18.05 18.55 -20.9 17.9 -21.05 16.1 -19.0 15.85 -19.05 Q15.7 -19.45 16.4 -20.75 L17.05 -22.4 16.8 -22.55 16.55 -22.55 M18.7 -20.9 L18.7 -21.0 18.65 -20.95 18.7 -20.9 M13.7 -16.8 L13.65 -16.85 Q13.4 -17.4 14.6 -18.0 L15.3 -18.65 15.7 -18.5 Q16.05 -17.75 14.7 -17.05 L14.0 -16.75 13.85 -16.75 14.05 -16.5 Q14.2 -16.25 13.25 -15.3 L11.9 -14.15 11.3 -14.35 Q11.0 -14.9 11.8 -15.25 12.35 -15.55 12.4 -16.1 L13.45 -16.75 13.7 -16.8 M11.15 -13.35 L9.7 -12.85 9.0 -12.3 8.4 -12.25 8.25 -12.45 Q7.95 -13.0 9.8 -13.9 11.0 -14.5 11.35 -13.9 11.5 -13.55 11.15 -13.35 M14.3 -12.9 Q14.55 -12.4 13.0 -11.65 L12.55 -11.7 14.0 -13.05 Q14.25 -13.2 14.3 -12.9 M14.4 -13.4 L14.8 -14.05 15.2 -14.15 Q15.1 -13.4 14.8 -13.25 L14.4 -13.4 M17.35 -16.15 L15.9 -14.1 15.5 -14.25 15.9 -15.2 16.95 -16.2 17.35 -16.15 M16.9 -16.5 L17.4 -17.65 Q17.6 -17.75 17.8 -17.45 L17.65 -16.95 17.3 -16.4 16.9 -16.5 M10.05 -9.65 L10.0 -9.7 Q10.15 -9.4 9.25 -8.95 L8.3 -8.4 7.75 -8.2 7.6 -7.95 7.3 -7.9 7.0 -7.7 6.6 -7.8 Q6.4 -8.2 7.1 -8.5 7.5 -8.75 7.65 -8.5 L8.65 -9.1 9.75 -9.85 9.95 -9.8 10.65 -10.5 10.85 -10.7 12.2 -11.65 12.65 -11.55 Q12.95 -10.9 11.5 -10.15 L11.35 -10.15 10.9 -9.9 10.65 -9.7 10.05 -9.65 M6.0 -10.4 L4.85 -9.85 3.9 -9.9 3.45 -10.1 Q3.25 -10.55 3.9 -10.85 L5.1 -11.2 5.9 -11.45 Q5.7 -12.0 6.3 -12.25 6.9 -12.6 7.25 -11.9 7.5 -11.3 6.9 -11.0 L6.55 -10.9 6.0 -10.4 M5.9 -7.7 L6.25 -7.55 Q6.4 -7.25 5.9 -6.95 L4.45 -6.7 Q4.3 -6.95 4.9 -7.2 L5.35 -7.35 5.9 -7.7 M3.4 -9.45 Q3.6 -9.1 3.15 -8.85 1.9 -8.25 1.5 -9.1 1.3 -9.5 1.7 -9.7 L2.75 -9.75 3.4 -9.45 M0.6 -7.55 L-0.1 -7.6 -0.4 -7.3 Q-1.15 -6.95 -1.35 -7.45 -1.65 -8.05 -0.5 -8.6 0.15 -8.95 1.2 -8.35 1.35 -7.95 0.6 -7.55 M3.65 -6.65 L3.35 -6.25 3.25 -6.25 2.65 -5.65 Q2.25 -5.45 2.1 -5.75 1.9 -6.15 2.25 -6.3 L2.65 -6.45 3.15 -6.5 3.5 -6.65 3.65 -6.65 M1.25 -5.15 Q1.45 -4.75 0.85 -4.45 L0.35 -4.4 -0.3 -4.0 Q-0.65 -3.9 -0.8 -4.2 -1.0 -4.65 0.25 -5.3 L1.25 -5.15 M-11.05 -5.25 L-13.1 -4.35 -13.3 -4.35 Q-13.4 -4.9 -12.2 -5.45 L-10.9 -5.6 Q-10.8 -5.4 -11.05 -5.25 M-10.3 -4.15 L-9.0 -4.35 Q-9.25 -4.9 -8.65 -5.2 L-7.3 -5.3 Q-5.6 -5.95 -5.4 -5.6 -5.25 -5.3 -6.25 -4.8 -6.85 -4.5 -7.75 -4.3 L-8.05 -3.95 -8.55 -3.9 Q-8.7 -3.65 -9.05 -3.45 -9.9 -3.05 -10.5 -3.6 -10.65 -4.0 -10.3 -4.15 M-10.4 -3.45 L-11.6 -2.2 Q-12.0 -2.0 -12.25 -2.2 L-12.15 -2.3 -12.45 -2.1 -13.1 -1.45 -13.7 -1.4 -14.2 -0.6 Q-14.6 -0.4 -14.75 -0.75 L-14.3 -1.75 -13.45 -2.7 -12.6 -3.0 -12.2 -3.45 -10.4 -3.45 M-14.2 -4.05 L-14.95 -3.1 -15.35 -3.2 Q-15.55 -3.7 -14.55 -4.15 L-14.2 -4.05 M-2.7 -7.0 Q-2.3 -7.2 -2.05 -6.8 -1.8 -6.25 -2.7 -5.8 -3.15 -5.55 -4.25 -6.15 -4.5 -6.6 -3.7 -6.95 L-2.7 -7.0 M-8.55 -6.9 Q-8.7 -6.55 -9.15 -6.3 -10.3 -5.75 -10.45 -6.1 L-10.1 -6.45 -8.65 -6.95 -8.55 -6.9 M-5.7 -7.9 L-5.65 -7.9 -6.0 -7.55 -7.55 -7.3 -7.25 -7.7 -5.7 -7.9 M-8.9 -0.05 L-9.3 0.4 Q-11.9 1.65 -12.1 1.25 -12.35 0.75 -11.35 0.3 L-10.05 0.0 -8.9 -0.05 M-6.5 -1.4 Q-6.3 -0.95 -6.8 -0.65 L-7.1 -0.6 -7.35 -0.35 Q-7.7 -0.15 -7.85 -0.5 -8.1 -1.0 -7.3 -1.35 L-6.9 -1.55 -6.5 -1.4 M-6.1 -1.55 L-5.55 -2.1 -3.55 -3.1 -3.5 -3.1 -2.6 -3.75 -1.95 -3.75 Q-1.85 -3.6 -2.45 -3.15 L-2.45 -3.1 Q-2.3 -2.85 -2.55 -2.7 -3.35 -2.35 -3.6 -2.5 L-5.4 -1.5 -6.1 -1.55" fill="#10702d" fill-rule="evenodd" stroke="none"/>
    <path d="M16.25 -22.1 L15.75 -21.8 15.25 -21.5 Q13.85 -20.7 13.2 -20.7 12.75 -20.7 12.55 -21.05 L12.45 -21.45 Q12.45 -22.05 13.6 -22.65 14.7 -23.25 15.65 -23.25 16.75 -23.25 16.65 -22.55 L16.25 -22.1" fill="#ffffff" fill-opacity="0.8" fill-rule="evenodd" stroke="none"/>
    <path d="M16.25 -22.1 L16.65 -22.55 Q16.75 -23.25 15.65 -23.25 14.7 -23.25 13.6 -22.65 12.45 -22.05 12.45 -21.45 L12.55 -21.05 Q12.75 -20.7 13.2 -20.7 13.85 -20.7 15.25 -21.5 L15.75 -21.8 16.35 -22.05 16.4 -22.1 16.25 -22.1 M18.2 -22.5 Q18.2 -21.05 15.0 -20.45 10.95 -18.75 10.3 -18.75 L9.75 -18.8 9.65 -19.25 Q9.65 -19.9 12.15 -21.85 14.8 -23.85 16.1 -23.85 18.55 -23.85 18.2 -22.5" fill="#ffffff" fill-opacity="0.3019608" fill-rule="evenodd" stroke="none"/>
    <path d="M-15.7 -5.6 Q-12.95 -8.3 -5.6 -10.2 0.3 -11.7 9.5 -17.75 L9.95 -17.55 Q7.15 -13.15 -4.65 -8.95 -10.25 -6.95 -12.0 -6.0 -15.15 -4.35 -15.15 -2.45 -14.75 -2.0 -14.75 -1.5 -14.75 -0.55 -15.75 -0.55 -16.75 -0.55 -17.3 -2.1 -17.3 -3.2 -16.75 -4.2 L-16.8 -3.5 Q-16.8 -2.95 -16.1 -2.55 -14.8 -3.6 -14.3 -5.25 L-15.0 -5.7 -15.7 -5.6" fill="#ffffff" fill-opacity="0.3019608" fill-rule="evenodd" stroke="none"/>
    <path d="M-16.75 -4.2 L-15.7 -5.6 -15.0 -5.7 -14.3 -5.25 Q-14.8 -3.6 -16.1 -2.55 -16.8 -2.95 -16.8 -3.5 L-16.75 -4.2" fill="#ffffff" fill-opacity="0.7019608" fill-rule="evenodd" stroke="none"/>
  </g>
</svg>
