<?xml version="1.0" encoding="UTF-8" standalone="no"?>
<svg xmlns:xlink="http://www.w3.org/1999/xlink" height="16.85px" width="48.25px" xmlns="http://www.w3.org/2000/svg">
  <g transform="matrix(1.0, 0.0, 0.0, 1.0, 24.75, 13.0)">
    <path d="M-18.55 -7.9 L-18.75 -8.65 Q-18.75 -9.65 -17.75 -9.9 L-17.8 -9.8 -18.1 -9.45 -18.15 -9.45 Q-18.7 -9.5 -18.6 -8.7 L-18.45 -8.0 -18.4 -7.95 -18.55 -7.9 M-16.0 -10.05 L-15.65 -10.05 -9.45 -9.6 1.25 -9.1 Q7.5 -8.65 11.05 -7.65 L10.1 -7.65 5.65 -8.1 -2.55 -8.5 -13.15 -8.9 Q-14.75 -8.9 -16.15 -9.65 -16.0 -9.7 -16.0 -10.05 M6.0 -7.3 L0.05 -7.4 -6.7 -7.25 -6.85 -7.25 -10.3 -7.35 -12.45 -7.3 -14.15 -7.35 -14.15 -7.4 -16.25 -7.9 -16.75 -8.55 -15.8 -8.85 Q-14.3 -8.1 -13.45 -8.1 L-12.85 -8.2 -10.65 -8.2 -2.55 -7.9 4.95 -7.65 Q4.85 -7.45 5.35 -7.3 L6.0 -7.3 M14.8 -3.05 L16.85 -2.25 17.7 -1.8 18.35 -1.5 18.75 -1.2 18.6 -0.65 Q18.3 -1.15 17.4 -1.15 L16.45 -0.9 15.0 -1.2 11.45 -1.45 7.35 -1.35 2.9 -1.8 -2.05 -2.25 -15.05 -1.4 Q-16.8 -1.4 -17.15 -2.05 L-17.45 -2.55 -17.75 -2.45 -16.25 -2.8 -9.85 -2.85 1.2 -3.15 11.45 -2.4 13.3 -2.85 14.8 -3.05 M16.5 0.0 Q16.15 0.65 11.45 0.65 L1.35 -0.5 -9.7 0.05 -17.3 -0.25 -17.3 -0.35 Q-17.3 -0.7 -17.9 -0.95 L-17.5 -1.1 Q-16.85 -0.65 -16.3 -0.65 L-2.1 -1.65 2.95 -1.15 7.35 -0.65 11.5 -0.75 15.9 -0.2 16.5 0.0 M-11.75 -3.4 L-12.35 -3.35 -13.55 -3.35 -16.2 -3.3 -17.5 -3.45 -18.9 -3.8 -18.95 -3.8 -19.35 -4.1 -17.85 -4.05 -15.05 -4.7 -12.9 -4.45 -6.15 -4.85 -1.25 -4.25 -0.35 -4.05 -0.9 -4.05 -16.85 -3.4 -11.75 -3.4 M-20.05 -4.2 L-20.55 -4.1 -20.8 -4.15 -20.2 -4.25 -20.05 -4.2 M-21.55 -5.1 L-21.6 -5.45 Q-21.6 -5.65 -19.65 -6.4 L-18.35 -6.85 -17.1 -7.15 -14.25 -6.2 Q-10.5 -6.7 -4.0 -6.25 L7.0 -5.25 13.4 -4.75 14.05 -4.65 13.85 -4.25 Q13.6 -3.6 13.0 -3.6 L7.3 -3.9 5.9 -4.0 3.55 -4.15 3.45 -4.15 3.4 -4.15 2.95 -4.1 -0.75 -4.75 -6.2 -5.45 -12.9 -5.15 -15.35 -5.4 -17.75 -5.0 -19.25 -5.1 Q-19.25 -5.45 -19.55 -5.45 L-20.0 -5.3 -20.5 -5.7 -21.4 -5.25 -21.55 -5.1 M7.75 -8.9 L1.4 -9.6 -9.35 -10.1 -10.25 -10.2 -1.15 -10.55 Q2.55 -9.65 8.45 -9.65 L14.1 -9.95 Q15.65 -9.95 16.95 -9.25 L18.0 -8.5 13.8 -9.1 13.75 -9.1 10.75 -9.05 10.55 -9.25 9.65 -9.0 7.75 -8.9 M17.9 -7.6 L17.35 -7.35 16.7 -7.5 16.6 -7.55 14.7 -8.5 15.25 -8.5 16.65 -8.05 17.9 -7.6 M13.2 -8.5 L11.3 -8.15 9.85 -8.5 13.2 -8.5 M3.45 -10.25 L0.6 -10.6 1.6 -10.45 2.0 -10.5 3.45 -10.25 M-1.85 -11.0 L-12.15 -10.4 -13.05 -10.4 -15.6 -10.55 -16.9 -10.4 -17.05 -10.4 -16.55 -10.7 Q-15.25 -11.4 -13.7 -11.4 L-8.05 -11.1 Q-2.15 -11.1 1.55 -12.0 L12.25 -11.4 16.35 -11.4 Q15.85 -10.85 15.45 -10.85 L6.75 -11.1 1.5 -11.4 -1.85 -11.0 M18.25 -8.8 L18.2 -8.75 18.15 -8.8 18.25 -8.8 M14.95 -4.8 L15.4 -4.8 15.1 -4.7 14.95 -4.8 M16.8 -4.8 L16.75 -4.8 17.2 -4.8 16.8 -4.8 M-18.95 1.85 L-18.75 1.65 -18.75 1.75 -18.7 2.05 -18.95 1.85 M-15.25 2.2 Q-13.3 1.5 -11.8 1.5 L-9.45 1.7 Q-2.0 1.7 1.75 0.75 L12.75 1.75 15.1 1.4 15.2 1.4 Q15.4 1.95 16.05 1.95 L17.5 1.55 Q16.95 2.45 14.85 2.2 L2.35 1.45 Q-2.75 1.45 -10.85 2.8 L-15.25 2.2" fill="#4ea527" fill-rule="evenodd" stroke="none"/>
    <path d="M-18.55 -7.9 L-19.3 -7.8 -19.45 -8.6 Q-19.45 -10.25 -17.6 -10.4 L-16.6 -11.1 -16.55 -11.1 Q-15.15 -11.85 -13.5 -11.85 L-7.8 -11.55 Q-2.0 -11.55 1.65 -12.4 L1.75 -12.45 12.55 -11.85 18.0 -11.85 18.05 -11.85 Q19.85 -11.7 19.85 -10.05 19.85 -8.85 18.9 -8.35 L18.35 -8.15 18.1 -7.2 19.5 -7.15 Q21.45 -7.1 21.95 -6.6 L22.2 -6.35 22.25 -6.35 Q22.9 -6.35 22.7 -5.85 L22.4 -5.4 22.85 -4.9 Q22.85 -4.2 22.35 -3.9 L22.05 -3.35 Q21.75 -3.0 21.1 -3.0 L20.95 -3.0 20.2 -3.15 19.3 -2.7 19.3 -2.6 19.3 -2.45 18.35 -3.0 Q18.1 -3.4 17.2 -3.5 L16.2 -3.8 17.2 -3.8 Q18.65 -3.75 19.1 -3.2 19.65 -3.4 19.6 -3.65 L20.95 -3.5 Q21.7 -3.5 21.7 -4.2 22.1 -4.35 22.1 -4.85 L21.65 -5.15 17.95 -4.85 17.7 -4.5 16.8 -4.3 16.7 -4.35 16.1 -4.55 15.5 -4.3 15.55 -4.2 15.75 -3.85 15.3 -3.9 15.25 -3.95 15.05 -4.2 14.15 -4.6 14.05 -4.65 13.4 -4.75 7.0 -5.25 -4.0 -6.25 Q-10.5 -6.7 -14.25 -6.2 L-17.1 -7.15 -18.35 -6.85 -19.65 -6.4 Q-21.6 -5.65 -21.6 -5.45 L-21.55 -5.1 -21.2 -4.8 Q-21.2 -4.25 -20.8 -4.15 L-20.55 -4.1 -20.05 -4.2 -19.4 -4.25 -19.35 -4.1 -18.95 -3.8 -18.9 -3.8 -17.5 -3.45 -16.2 -3.3 -13.55 -3.35 -12.35 -3.35 -11.75 -3.4 0.3 -3.4 1.2 -3.45 3.3 -3.55 7.2 -3.45 11.7 -2.9 12.0 -2.8 13.3 -2.85 11.45 -2.4 1.2 -3.15 -9.85 -2.85 -16.25 -2.8 -17.75 -2.45 -18.1 -2.15 -18.1 -2.1 -18.6 -1.55 -18.7 -1.5 -18.7 -1.1 -18.5 -0.7 Q-18.4 -0.45 -17.3 -0.25 L-9.7 0.05 1.35 -0.5 11.45 0.65 Q16.15 0.65 16.5 0.0 L16.5 -0.15 17.65 0.1 Q18.3 0.15 18.35 -0.55 L18.4 -0.55 18.6 -0.65 18.75 -1.2 18.35 -1.5 17.7 -1.8 16.85 -2.25 14.8 -3.05 15.35 -3.2 16.95 -2.8 17.2 -2.7 17.55 -2.55 17.8 -2.4 18.0 -2.3 18.3 -2.15 18.9 -1.8 19.4 -1.2 Q19.4 -0.5 18.95 -0.2 L18.65 0.35 18.35 0.55 18.35 0.85 Q18.35 2.05 17.4 2.55 L15.05 2.75 15.0 2.75 2.5 2.0 Q-2.55 2.0 -10.55 3.35 L-10.65 3.35 Q-13.75 3.35 -16.5 2.3 L-18.1 2.65 -18.25 2.65 Q-19.45 2.7 -19.45 1.2 -19.55 0.65 -18.3 -0.05 L-18.8 -0.45 -19.1 -1.15 -19.95 -1.4 -20.9 -1.6 -22.75 -1.4 -22.9 -1.35 Q-24.3 -1.35 -24.3 -2.35 -24.4 -2.75 -22.7 -3.3 L-21.05 -3.65 -21.55 -3.95 -21.8 -4.5 Q-22.25 -4.8 -22.2 -5.5 -22.35 -5.95 -20.0 -6.85 L-19.95 -6.85 -19.4 -7.1 -17.95 -7.3 -16.25 -7.3 -15.15 -6.95 -15.25 -6.95 -14.45 -6.7 -14.25 -6.75 -12.6 -6.65 -11.95 -6.6 -6.85 -6.7 -6.35 -6.7 -0.35 -6.25 14.35 -5.05 10.65 -5.5 13.35 -5.25 14.3 -5.05 22.05 -5.5 Q22.45 -6.0 22.25 -6.05 22.05 -6.05 21.6 -6.4 L19.55 -6.85 12.45 -6.85 0.2 -7.05 -2.95 -7.05 -6.7 -7.25 0.05 -7.4 6.0 -7.3 12.3 -7.2 16.1 -7.2 Q14.4 -8.15 13.9 -8.15 L13.65 -8.1 11.45 -7.7 11.05 -7.65 Q7.5 -8.65 1.25 -9.1 L-9.45 -9.6 -15.65 -10.05 -16.0 -10.05 Q-17.2 -10.0 -17.55 -9.5 L-18.15 -9.0 Q-18.35 -8.95 -18.05 -8.15 L-17.85 -7.95 -18.4 -7.95 -18.45 -8.0 -18.6 -8.7 Q-18.7 -9.5 -18.15 -9.45 L-18.1 -9.45 -17.8 -9.8 -17.75 -9.9 Q-18.75 -9.65 -18.75 -8.65 L-18.55 -7.9 M7.75 -8.9 L9.85 -8.5 11.3 -8.15 13.2 -8.5 13.9 -8.65 14.05 -8.65 14.7 -8.5 16.6 -7.55 16.7 -7.5 17.35 -7.35 17.9 -7.6 18.05 -8.3 18.0 -8.5 16.95 -9.25 Q15.65 -9.95 14.1 -9.95 L8.45 -9.65 Q2.55 -9.65 -1.15 -10.55 L-10.25 -10.2 -9.35 -10.1 1.4 -9.6 7.75 -8.9 M0.6 -10.6 L3.45 -10.25 8.25 -10.1 13.9 -10.4 Q15.55 -10.4 17.0 -9.65 L18.15 -8.8 18.2 -8.75 18.25 -8.8 18.3 -8.8 18.9 -9.2 19.15 -9.95 19.15 -10.1 Q19.15 -11.3 17.8 -11.4 L16.35 -11.4 12.25 -11.4 1.55 -12.0 Q-2.15 -11.1 -8.05 -11.1 L-13.7 -11.4 Q-15.25 -11.4 -16.55 -10.7 L-17.05 -10.4 -16.9 -10.4 -15.6 -10.55 -13.05 -10.4 -12.15 -10.4 -1.85 -11.0 -1.35 -11.0 -1.2 -10.95 -0.95 -10.9 0.6 -10.6 M14.95 -4.8 L15.1 -4.7 15.4 -4.8 14.95 -4.8 M16.8 -4.8 L17.2 -4.8 16.75 -4.8 16.8 -4.8 M17.5 1.55 L17.65 0.8 17.65 0.6 17.0 0.4 Q16.65 0.75 15.55 0.95 L11.6 1.15 11.55 1.15 Q4.9 0.0 1.5 0.0 L-9.5 0.55 -9.55 0.55 -17.75 0.1 -18.05 0.2 Q-19.15 0.8 -19.15 1.15 L-18.95 1.85 -18.7 2.05 -18.45 2.1 -16.6 1.75 -15.25 2.2 -10.85 2.8 Q-2.75 1.45 2.35 1.45 L14.85 2.2 Q16.95 2.45 17.5 1.55 M-23.15 -1.75 L-21.05 -2.0 -19.1 -1.65 -18.65 -2.0 -18.4 -2.4 Q-18.2 -2.75 -17.7 -2.95 L-18.45 -3.1 -19.55 -3.5 -22.7 -3.05 Q-24.0 -2.65 -24.0 -2.4 -24.0 -1.75 -23.15 -1.75" fill="#2e6017" fill-rule="evenodd" stroke="none"/>
    <path d="M-17.85 -7.95 L-18.05 -8.15 Q-18.35 -8.95 -18.15 -9.0 L-17.55 -9.5 Q-17.2 -10.0 -16.0 -10.05 -16.0 -9.7 -16.15 -9.65 -14.75 -8.9 -13.15 -8.9 L-2.55 -8.5 5.65 -8.1 10.1 -7.65 11.05 -7.65 11.45 -7.7 13.65 -8.1 13.9 -8.15 Q14.4 -8.15 16.1 -7.2 L12.3 -7.2 6.0 -7.3 5.35 -7.3 Q4.85 -7.45 4.95 -7.65 L-2.55 -7.9 -10.65 -8.2 -12.85 -8.2 -13.45 -8.1 Q-14.3 -8.1 -15.8 -8.85 L-16.75 -8.55 -16.25 -7.9 -16.7 -8.0 -17.85 -7.95 M-2.95 -7.05 L0.2 -7.05 12.45 -6.85 19.55 -6.85 21.6 -6.4 Q22.05 -6.05 22.25 -6.05 22.45 -6.0 22.05 -5.5 L14.3 -5.05 13.35 -5.25 10.65 -5.5 -0.35 -6.8 -2.95 -7.05 M-14.25 -6.75 L-14.45 -6.7 -15.25 -6.95 -15.15 -6.95 -14.25 -6.75 M18.6 -0.65 L18.4 -0.55 18.35 -0.55 Q18.3 0.15 17.65 0.1 L16.5 -0.15 16.5 0.0 15.9 -0.2 11.5 -0.75 7.35 -0.65 2.95 -1.15 -2.1 -1.65 -16.3 -0.65 Q-16.85 -0.65 -17.5 -1.1 L-17.9 -0.95 Q-17.3 -0.7 -17.3 -0.35 L-17.3 -0.25 Q-18.4 -0.45 -18.5 -0.7 L-18.7 -1.1 -18.7 -1.5 -18.6 -1.55 -18.1 -2.1 -18.1 -2.15 -17.75 -2.45 -17.45 -2.55 -17.15 -2.05 Q-16.8 -1.4 -15.05 -1.4 L-2.05 -2.25 2.9 -1.8 7.35 -1.35 11.45 -1.45 15.0 -1.2 16.45 -0.9 17.4 -1.15 Q18.3 -1.15 18.6 -0.65 M-19.35 -4.1 L-19.4 -4.25 -20.05 -4.2 -20.2 -4.25 -20.8 -4.15 Q-21.2 -4.25 -21.2 -4.8 L-21.55 -5.1 -21.4 -5.25 -20.5 -5.7 -20.0 -5.3 -19.55 -5.45 Q-19.25 -5.45 -19.25 -5.1 L-17.75 -5.0 -15.35 -5.4 -12.9 -5.15 -6.2 -5.45 -0.75 -4.75 2.95 -4.1 -0.35 -4.05 -1.25 -4.25 -6.15 -4.85 -12.9 -4.45 -15.05 -4.7 -17.85 -4.05 -19.35 -4.1 M14.05 -4.65 L14.15 -4.6 15.05 -4.2 15.25 -3.95 15.3 -3.9 13.0 -3.6 12.9 -3.6 11.95 -3.5 7.3 -3.9 13.0 -3.6 Q13.6 -3.6 13.85 -4.25 L14.05 -4.65 M15.75 -3.85 L15.55 -4.2 15.5 -4.3 16.1 -4.55 16.7 -4.35 16.8 -4.3 17.7 -4.5 17.95 -4.85 21.65 -5.15 22.1 -4.85 Q22.1 -4.35 21.7 -4.2 21.7 -3.5 20.95 -3.5 L19.6 -3.65 Q19.65 -3.4 19.1 -3.2 18.65 -3.75 17.2 -3.8 L16.2 -3.8 15.75 -3.85 M17.2 -3.5 Q18.1 -3.4 18.35 -3.0 L18.15 -3.1 17.2 -3.5 M9.85 -8.5 L7.75 -8.9 9.65 -9.0 10.55 -9.25 10.75 -9.05 13.75 -9.1 13.8 -9.1 18.0 -8.5 18.05 -8.3 17.9 -7.6 16.65 -8.05 15.25 -8.5 14.7 -8.5 14.05 -8.65 13.9 -8.65 13.2 -8.5 9.85 -8.5 M3.45 -10.25 L2.0 -10.5 1.6 -10.45 0.6 -10.6 -0.95 -10.9 -1.2 -10.95 -1.35 -11.0 -1.85 -11.0 1.5 -11.4 6.75 -11.1 15.45 -10.85 Q15.85 -10.85 16.35 -11.4 L17.8 -11.4 Q19.15 -11.3 19.15 -10.1 L19.15 -9.95 18.9 -9.2 18.3 -8.8 18.25 -8.8 18.15 -8.8 17.0 -9.65 Q15.55 -10.4 13.9 -10.4 L8.25 -10.1 3.45 -10.25 M-18.95 1.85 L-19.15 1.15 Q-19.15 0.8 -18.05 0.2 L-17.75 0.1 -9.55 0.55 -9.5 0.55 1.5 0.0 Q4.9 0.0 11.55 1.15 L11.6 1.15 15.55 0.95 Q16.65 0.75 17.0 0.4 L17.65 0.6 17.65 0.8 17.5 1.55 16.05 1.95 Q15.4 1.95 15.2 1.4 L15.1 1.4 12.75 1.75 1.75 0.75 Q-2.0 1.7 -9.45 1.7 L-11.8 1.5 Q-13.3 1.5 -15.25 2.2 L-16.6 1.75 -18.45 2.1 -18.7 2.05 -18.75 1.75 -18.75 1.65 -18.95 1.85 M-23.15 -1.75 Q-24.0 -1.75 -24.0 -2.4 -24.0 -2.65 -22.7 -3.05 L-19.55 -3.5 -18.45 -3.1 -17.7 -2.95 Q-18.2 -2.75 -18.4 -2.4 L-18.65 -2.0 -19.1 -1.65 -21.05 -2.0 -23.15 -1.75" fill="#458e24" fill-rule="evenodd" stroke="none"/>
    <path d="M1.85 -12.95 L12.75 -12.35 18.1 -12.35 18.15 -12.35 Q20.5 -12.2 20.45 -10.05 20.4 -8.55 19.2 -7.9 L18.95 -7.8 18.6 -7.7 18.9 -7.7 19.65 -7.65 Q21.8 -7.6 22.35 -7.0 L22.4 -6.95 22.5 -6.85 23.15 -6.6 Q23.5 -6.3 23.3 -5.7 L23.2 -5.5 Q23.6 -5.15 23.45 -4.8 23.4 -4.0 22.9 -3.6 L22.5 -3.0 22.5 -2.95 Q22.05 -2.55 21.25 -2.5 L21.0 -2.5 20.9 -2.55 20.45 -2.65 19.9 -2.35 19.8 -2.0 19.85 -1.85 19.85 -1.7 20.0 -1.05 Q19.95 -0.3 19.5 0.1 L19.15 0.7 19.1 0.75 18.95 0.85 Q18.9 2.35 17.7 3.0 L15.1 3.25 2.6 2.5 2.55 2.5 Q-2.45 2.5 -10.4 3.85 L-10.55 3.85 -10.6 3.85 Q-13.7 3.85 -16.45 2.85 L-17.85 3.1 -18.1 3.15 Q-19.0 3.2 -19.4 2.65 -19.8 2.2 -19.85 1.3 -20.05 0.65 -19.1 -0.05 L-19.2 -0.3 -19.35 -0.7 -20.05 -0.9 -20.9 -1.1 -22.6 -0.9 -22.55 -0.9 -22.7 -0.85 -22.75 -0.85 Q-23.7 -0.85 -24.1 -1.15 -24.65 -1.55 -24.7 -2.25 -25.0 -3.05 -22.75 -3.75 L-22.65 -3.8 -22.05 -3.95 -22.15 -4.25 Q-22.65 -4.65 -22.6 -5.45 -22.8 -6.25 -20.1 -7.35 L-19.7 -7.7 -19.85 -8.6 Q-19.9 -10.65 -17.75 -10.85 L-16.75 -11.55 -16.6 -11.6 Q-15.15 -12.35 -13.4 -12.35 L-7.7 -12.05 1.6 -12.9 1.8 -12.95 1.85 -12.95 M18.35 -3.0 L19.3 -2.45 19.3 -2.6 19.3 -2.7 20.2 -3.15 20.95 -3.0 21.1 -3.0 Q21.75 -3.0 22.05 -3.35 L22.35 -3.9 Q22.85 -4.2 22.85 -4.9 L22.4 -5.4 22.7 -5.85 Q22.9 -6.35 22.25 -6.35 L22.2 -6.35 21.95 -6.6 Q21.45 -7.1 19.5 -7.15 L18.1 -7.2 18.35 -8.15 18.9 -8.35 Q19.85 -8.85 19.85 -10.05 19.85 -11.7 18.05 -11.85 L18.0 -11.85 12.55 -11.85 1.75 -12.45 1.65 -12.4 Q-2.0 -11.55 -7.8 -11.55 L-13.5 -11.85 Q-15.15 -11.85 -16.55 -11.1 L-16.6 -11.1 -17.6 -10.4 Q-19.45 -10.25 -19.45 -8.6 L-19.3 -7.8 -18.55 -7.9 -18.4 -7.95 -17.85 -7.95 -16.7 -8.0 -16.25 -7.9 -14.15 -7.4 -14.15 -7.35 -12.45 -7.3 -10.3 -7.35 -6.85 -7.25 -6.7 -7.25 -2.95 -7.05 -0.35 -6.8 10.65 -5.5 14.35 -5.05 -0.35 -6.25 -6.35 -6.7 -6.85 -6.7 -11.95 -6.6 -12.6 -6.65 -14.25 -6.75 -15.15 -6.95 -16.25 -7.3 -17.95 -7.3 -19.4 -7.1 -19.95 -6.85 -20.0 -6.85 Q-22.35 -5.95 -22.2 -5.5 -22.25 -4.8 -21.8 -4.5 L-21.55 -3.95 -21.05 -3.65 -22.7 -3.3 Q-24.4 -2.75 -24.3 -2.35 -24.3 -1.35 -22.9 -1.35 L-22.75 -1.4 -20.9 -1.6 -19.95 -1.4 -19.1 -1.15 -18.8 -0.45 -18.3 -0.05 Q-19.55 0.65 -19.45 1.2 -19.45 2.7 -18.25 2.65 L-18.1 2.65 -16.5 2.3 Q-13.75 3.35 -10.65 3.35 L-10.55 3.35 Q-2.55 2.0 2.5 2.0 L15.0 2.75 15.05 2.75 17.4 2.55 Q18.35 2.05 18.35 0.85 L18.35 0.55 18.65 0.35 18.95 -0.2 Q19.4 -0.5 19.4 -1.2 L18.9 -1.8 18.3 -2.15 18.0 -2.3 17.8 -2.4 17.55 -2.55 17.2 -2.7 16.95 -2.8 15.35 -3.2 14.8 -3.05 13.3 -2.85 12.0 -2.8 11.7 -2.9 7.2 -3.45 3.3 -3.55 1.2 -3.45 0.3 -3.4 -11.75 -3.4 -16.85 -3.4 -0.9 -4.05 -0.35 -4.05 2.95 -4.1 3.4 -4.15 3.45 -4.15 3.55 -4.15 5.9 -4.0 7.3 -3.9 11.95 -3.5 12.9 -3.6 13.0 -3.6 15.3 -3.9 15.75 -3.85 16.2 -3.8 17.2 -3.5 18.15 -3.1 18.35 -3.0" fill="#000000" fill-rule="evenodd" stroke="none"/>
  </g>
</svg>
