<?xml version="1.0" encoding="UTF-8" standalone="no"?>
<svg xmlns:xlink="http://www.w3.org/1999/xlink" height="23.05px" width="26.5px" xmlns="http://www.w3.org/2000/svg">
  <g transform="matrix(1.0, 0.0, 0.0, 1.0, 13.2, 22.0)">
    <path d="M-7.75 -18.4 Q-2.5 -21.85 1.05 -22.0 4.6 -22.3 10.25 -17.1 13.3 -14.3 13.3 -10.4 13.35 1.05 1.25 1.05 -13.3 1.05 -13.2 -9.5 -13.25 -14.85 -7.75 -18.4" fill="#000000" fill-rule="evenodd" stroke="none"/>
    <path d="M4.6 -17.2 Q4.6 -17.6 3.4 -18.0 2.0 -18.3 1.7 -17.15 1.7 -16.45 3.45 -16.45 4.6 -16.45 4.6 -17.2 M2.35 -19.35 Q2.65 -20.05 0.9 -20.05 -0.4 -20.05 -0.4 -19.35 -0.4 -18.7 0.65 -18.7 2.35 -18.7 2.35 -19.35 M10.75 -7.9 L10.5 -7.8 10.3 -7.7 10.2 -7.55 Q6.2 -4.95 0.6 -4.95 -5.05 -4.95 -9.05 -7.65 L-10.8 -9.05 -11.0 -9.2 -11.25 -9.15 -11.45 -8.95 -11.5 -8.7 Q-10.55 -1.15 1.15 -1.15 9.45 -1.15 11.15 -7.35 L11.15 -7.6 11.0 -7.8 10.75 -7.9 M12.5 -10.5 Q12.5 0.1 1.25 0.1 -12.35 0.1 -12.35 -9.6 -12.35 -14.55 -7.3 -17.8 -2.25 -21.05 1.1 -21.3 4.4 -21.5 9.7 -16.6 12.5 -14.05 12.5 -10.5 M-0.65 -17.5 Q-0.65 -18.25 -1.95 -18.25 L-2.9 -17.95 -3.7 -17.45 Q-3.1 -16.7 -1.95 -16.7 -0.65 -16.7 -0.65 -17.5" fill="#ffffff" fill-rule="evenodd" stroke="none"/>
    <path d="M2.35 -19.35 Q2.35 -18.7 0.65 -18.7 -0.4 -18.7 -0.4 -19.35 -0.4 -20.05 0.9 -20.05 2.65 -20.05 2.35 -19.35 M4.6 -17.2 Q4.6 -16.45 3.45 -16.45 1.7 -16.45 1.7 -17.15 2.0 -18.3 3.4 -18.0 4.6 -17.6 4.6 -17.2 M-0.65 -17.5 Q-0.65 -16.7 -1.95 -16.7 -3.1 -16.7 -3.7 -17.45 L-2.9 -17.95 -1.95 -18.25 Q-0.65 -18.25 -0.65 -17.5" fill="#ff0033" fill-rule="evenodd" stroke="none"/>
    <path d="M10.75 -7.9 L11.0 -7.8 11.15 -7.6 11.15 -7.35 Q9.45 -1.15 1.15 -1.15 -10.55 -1.15 -11.5 -8.7 L-11.45 -8.95 -11.25 -9.15 -11.0 -9.2 -10.8 -9.05 -9.05 -7.65 Q-5.05 -4.95 0.6 -4.95 6.2 -4.95 10.2 -7.55 L10.3 -7.7 10.5 -7.8 10.75 -7.9" fill="#eef0f7" fill-rule="evenodd" stroke="none"/>
  </g>
</svg>
