<?xml version="1.0" encoding="UTF-8" standalone="no"?>
<svg
   xmlns:dc="http://purl.org/dc/elements/1.1/"
   xmlns:cc="http://creativecommons.org/ns#"
   xmlns:rdf="http://www.w3.org/1999/02/22-rdf-syntax-ns#"
   xmlns:svg="http://www.w3.org/2000/svg"
   xmlns="http://www.w3.org/2000/svg"
   xmlns:sodipodi="http://sodipodi.sourceforge.net/DTD/sodipodi-0.dtd"
   xmlns:inkscape="http://www.inkscape.org/namespaces/inkscape"
   height="16.95px"
   width="35.15px"
   version="1.1"
   id="svg28"
   sodipodi:docname="3332.svg"
   inkscape:version="0.92.1 r15371">
  <metadata
     id="metadata34">
    <rdf:RDF>
      <cc:Work
         rdf:about="">
        <dc:format>image/svg+xml</dc:format>
        <dc:type
           rdf:resource="http://purl.org/dc/dcmitype/StillImage" />
        <dc:title></dc:title>
      </cc:Work>
    </rdf:RDF>
  </metadata>
  <defs
     id="defs32" />
  <sodipodi:namedview
     pagecolor="#ffffff"
     bordercolor="#666666"
     borderopacity="1"
     objecttolerance="10"
     gridtolerance="10"
     guidetolerance="10"
     inkscape:pageopacity="0"
     inkscape:pageshadow="2"
     inkscape:window-width="1920"
     inkscape:window-height="1016"
     id="namedview30"
     showgrid="false"
     inkscape:object-nodes="false"
     inkscape:zoom="25.427679"
     inkscape:cx="14.127446"
     inkscape:cy="3.2600871"
     inkscape:window-x="0"
     inkscape:window-y="27"
     inkscape:window-maximized="1"
     inkscape:current-layer="svg28" />
  <g
     transform="matrix(1.0, 0.0, 0.0, 1.0, 17.35, 14.85)"
     id="g26">
    <path
       d="M-11.8 -13.3 L-11.1 -13.4 Q-9.8 -14.85 -7.9 -14.85 -1.2 -14.85 -0.2 -13.75 L-0.05 -13.55 0.15 -13.1 0.2 -13.05 1.35 -13.0 2.9 -13.2 2.95 -13.2 4.55 -12.9 4.6 -12.9 4.65 -12.9 6.8 -12.8 7.0 -12.75 8.6 -12.15 8.65 -12.15 8.95 -11.9 9.0 -11.85 9.45 -11.4 14.95 -10.75 Q16.6 -10.7 17.05 -9.05 17.6 -8.55 17.35 -7.4 L17.3 -7.3 17.25 -7.25 17.15 -6.8 17.6 -5.55 17.6 -5.45 17.55 -5.1 17.2 -3.65 17.45 -3.05 17.45 -3.0 17.55 -2.85 17.6 -2.8 17.65 -2.75 17.8 -2.2 17.8 -2.15 Q17.85 -1.4 17.05 -1.0 L16.0 -0.1 15.8 -0.05 Q14.8 0.5 12.85 1.1 L12.8 1.1 8.0 2.1 7.25 2.1 2.3 1.45 2.2 1.4 0.2 0.9 0.1 0.9 -1.0 1.05 -1.25 1.1 -1.55 1.25 -1.6 1.3 -2.05 1.6 -2.3 1.8 -2.4 1.8 -3.55 2.1 -4.85 1.9 -6.3 1.15 -6.55 1.05 -8.8 -0.25 -9.15 -0.4 -9.25 -0.45 -9.3 -0.45 -10.05 -0.7 -10.1 -0.75 -10.15 -0.75 -10.35 -0.8 -10.4 -0.8 -11.0 -1.0 -12.9 -0.65 Q-14.2 -0.65 -15.05 -1.2 -15.8 -1.2 -17.05 -2.35 L-17.05 -2.4 -17.35 -3.0 -17.2 -3.65 Q-16.75 -4.4 -16.7 -5.35 L-16.75 -7.45 Q-16.65 -8.65 -15.95 -9.2 L-16.0 -9.15 -15.95 -9.25 -15.85 -9.3 -14.85 -10.15 -14.95 -10.1 -14.8 -10.3 -14.1 -11.5 Q-14.2 -12.85 -11.8 -13.3"
       fill="#000000"
       fill-rule="evenodd"
       stroke="none"
       id="path24" />
  </g>
  <g
     transform="translate(0.41740056,9.2247094)"
     id="g14">
    <path
       style="fill:#764a0a;fill-rule:evenodd;stroke:none"
       inkscape:connector-curvature="0"
       d="m 25,-4.7 0.15,0.05 h -0.1 L 25,-4.7 m 0.7,0 H 25.65 V -4.8 L 25.6,-4.85 V -4.9 L 25.55,-5 25.2,-5.4 l -0.1,-0.1 -1.6,-0.6 -2.05,-0.1 -2,0.3 Q 19.05,-6.4 16.2,-6.35 L 12.35,-6.05 12.1,-6.1 Q 11.4,-6.2 9.7,-6.8 3.75,-7 3.75,-5.65 v 0.1 L 3.85,-5.65 4.25,-6 Q 3.9,-5.85 2.9,-4.1 l -0.15,0.3 -1.2,1.05 Q 1.15,-2.4 1.1,-1.6 0.9,-1 1.15,0.15 1.15,1.55 0.5,2.6 1.5,3.5 2,3.5 L 2.05,3.45 q 0.7,0.6 1.9,0.6 L 5.8,3.7 6.8,3.95 7.05,4 V 4.05 L 8,4.35 8.2,4.45 H 8.3 L 8.35,4.5 H 8.4 l 0.05,0.05 2.2,1.25 0.4,0.15 q 0.5,0.5 1.25,0.7 l 1,0.15 0.8,-0.2 0.1,-0.1 0.45,-0.3 0.65,-0.35 0.35,-0.1 1.15,-0.15 h 0.25 l 2.45,0.6 q 1.75,0.6 4.6,0.6 h 0.65 L 29.4,5.85 32.35,4.7 33.15,3.9 33.4,3.85 33.65,3.5 33.6,3.4 33.35,3.05 33.05,2.25 v -0.1 q 0,-0.95 0.4,-1.9 l -0.5,-1.2 0.05,-0.2 0.2,-0.75 Q 33.3,-2.55 33,-2.75 32.8,-4 31.7,-4.05 L 26.2,-4.7 h -0.5 m -2,-1.85 1.6,0.55 0.15,0.15 0.05,0.05 0.5,0.6 v -0.05 0.05 h 0.2 l 5.55,0.65 q 1.4,0.05 1.7,1.5 0.4,0.35 0.25,1.25 l -0.05,0.05 -0.15,0.65 v 0.05 l 0.45,1.25 v 0.2 q -0.4,0.9 -0.4,1.75 l 0.3,0.7 0.15,0.25 0.05,0.05 0.05,0.1 0.05,0.25 q 0.05,0.55 -0.6,0.8 L 32.6,5.15 29.55,6.3 H 29.5 l -4.7,1 H 24.1 L 19.35,6.7 17.05,6.1 H 16.9 l -1.15,0.15 -0.3,0.1 Q 15.15,6.4 14.95,6.6 L 14.5,6.9 14.3,7.05 14.35,7 13.3,7.3 12.15,7.15 10.85,6.4 10.5,6.3 Q 9.6,5.95 8.25,5 L 8.2,4.95 H 8.15 L 7.95,4.9 7.8,4.8 6.95,4.5 6.85,4.45 H 6.75 6.7 L 5.85,4.2 3.95,4.55 Q 2.7,4.55 1.95,4 1.3,4.05 0.15,2.95 L 0,2.65 0.1,2.3 Q 0.65,1.4 0.65,0.25 0.4,-1 0.6,-1.65 0.65,-2.7 1.2,-3.1 l 0.05,-0.05 1.1,-1 0.15,-0.2 0.75,-1.3 Q 3.15,-6.7 5.15,-7.1 L 9.7,-7.3 h 0.15 l 2.35,0.7 v 0.05 h 0.1 l 3.9,-0.3 q 2.7,-0.05 3.45,0.45 l 1.7,-0.3 h 0.1 l 2.15,0.1 0.1,0.05 m -17.9,1.2 -0.05,0.05 -0.3,0.05 v -0.1 H 5.8"
       id="path2" />
    <path
       style="fill:#c57c10;fill-rule:evenodd;stroke:none"
       inkscape:connector-curvature="0"
       d="m 24.35,-5.2 -1.6,-0.95 0.75,0.05 1.6,0.6 0.1,0.1 0.35,0.4 0.05,0.1 v 0.05 l 0.05,0.05 v 0.1 h 0.05 l 0.1,0.5 V -4 h -0.55 l -0.2,-0.65 h 0.1 L 25,-4.7 24.95,-4.75 24.75,-4.9 24.4,-5.15 24.35,-5.2 M 12.1,-6.1 12.3,-5.65 V -5.6 L 9.7,-6.2 9.45,-6.25 7.25,-6.3 Q 4.8,-6.35 4.2,-5.5 L 4.1,-5.4 3.5,-4.05 3.2,-3.75 2.9,-4.1 q 1,-1.75 1.35,-1.9 l -0.4,0.35 h -0.1 q 0,-1.35 5.95,-1.15 1.7,0.6 2.4,0.7 m 19.65,5.2 q 0.1,-0.35 0.65,-0.3 l 0.6,0.05 -0.05,0.2 0.5,1.2 q -0.4,0.95 -0.4,1.9 v 0.1 l 0.3,0.8 L 33.6,3.4 33.4,3.85 33.15,3.9 32.35,4.7 32.1,4.5 32.5,3.9 32.4,3.55 32.05,3.7 H 31.7 L 31.65,3.45 32.4,2.7 32.3,2.25 q 0,-0.8 0.45,-1.45 l 0.4,-0.55 q -0.05,-0.5 -1.4,-1.15 m -7,7.7 H 24.1 q -2.85,0 -4.6,-0.6 L 17.05,5.6 H 16.8 l -1.15,0.15 -0.3,0.1 V 5.4 H 15.3 V 5.85 L 14.65,6.2 14.2,6.5 14.1,6.6 V 6.4 Q 14.05,5.3 14.4,3.35 L 14.6,2.6 h 0.05 Q 15.3,2 17.05,2 h 0.1 l 0.95,0.15 q 0.3,0.65 0.4,2.05 0.9,2.1 2.3,2.1 L 21.75,5.55 23,5 q 0.5,0 0.7,1 l 1.05,0.8 M 12.3,6.65 Q 11.55,6.45 11.05,5.95 L 10.65,5.8 8.45,4.55 8.4,4.5 H 8.35 L 8.3,4.45 H 8.2 L 8,4.35 7.05,4.05 V 4 3.75 L 7,3.7 6.8,3.95 5.8,3.7 3.95,4.05 4,3.5 Q 3.15,2.85 3.2,2.3 3.15,1.8 3.45,1.8 3.65,2.5 4.1,2.85 4.1,2 4.8,2.15 H 5.3 L 5.5,1.6 5.35,1.95 5.55,0.15 5.8,0.1 7.35,0.45 7.15,1.2 v 0.3 q 0.45,0.1 0.5,0.35 v 0.1 L 7.7,2.05 8.05,1.85 8.5,2 h 0.05 q 1.1,0 2.5,1.9 l 0.8,1 1.05,0.95 -0.6,0.8 M 27.95,5 27.9,6.2 25.8,6.65 27.15,5.75 27.2,5 q 0.05,-0.65 0.55,-0.65 0.25,0 0.2,0.65 m -3.1,-0.2 q -0.05,0.25 0.4,1.15 l -0.2,0.25 -1,-0.8 q 0,-1.05 0.65,-1.05 l 0.2,0.05 0.05,0.2 -0.1,0.2 M 26.6,4.7 26.85,4.65 Q 27.1,4.6 27.1,5.05 27.1,5.4 26.9,5.4 L 26.6,4.7 M 20.5,4.65 q 0,-0.6 0.55,-0.6 l 0.15,0.2 -0.5,0.6 -0.2,-0.2 M 8.85,4.3 q 1.8,1 1.8,1.35 V 5.6 q 0,-0.85 -0.6,-1.2 L 9,4 9.1,3.65 8.85,4.3"
       id="path4" />
    <path
       style="fill:#ee9f2b;fill-rule:evenodd;stroke:none"
       inkscape:connector-curvature="0"
       d="m 23.5,-6.1 -0.75,-0.05 1.6,0.95 -0.25,-0.1 -2.95,-0.35 -1.65,0.3 q -1.9,-0.6 -3.75,-0.6 l -3.3,0.45 -0.15,-0.1 v -0.05 l -0.2,-0.45 0.25,0.05 3.85,-0.3 q 2.85,-0.05 3.25,0.45 l 2,-0.3 2.05,0.1 m 2.3,2.1 v -0.2 l -0.1,-0.5 h 0.5 l 5.5,0.65 q 1.1,0.05 1.3,1.3 0.3,0.2 0.2,0.85 L 33,-1.15 32.4,-1.2 q -0.55,-0.05 -0.65,0.3 L 31.55,-1 Q 32.6,-1.45 32.6,-2.45 V -2.6 L 32.5,-2.85 Q 31.7,-3.95 26.25,-4 H 25.8 M 33.6,3.4 33.65,3.5 33.4,3.85 33.6,3.4 M 32.35,4.7 29.4,5.85 24.75,6.8 23.7,6 Q 23.5,5 23,5 L 21.75,5.55 20.8,6.3 Q 19.4,6.3 18.5,4.2 18.4,2.8 18.1,2.15 l 1.4,0.45 4.6,0.6 5.3,-1 Q 31.65,1.55 32.55,0.95 L 32.75,0.8 Q 32.3,1.45 32.3,2.25 L 32.4,2.7 31.65,3.45 31.7,3.7 h 0.35 L 32.4,3.55 32.5,3.9 32.1,4.5 32.35,4.7 M 15.65,5.75 15.3,5.85 V 5.4 h 0.05 v 0.45 l 0.3,-0.1 M 14.1,6.6 13.3,6.8 12.3,6.65 12.9,5.85 11.85,4.9 11.05,3.9 Q 9.65,2 8.55,2 H 8.5 L 8.05,1.85 7.7,2.05 7.65,1.95 V 1.85 Q 7.6,1.6 7.15,1.5 V 1.2 l 0.2,-0.75 q 0.8,0.25 1.1,0.45 l 2.6,1.4 Q 11.9,3.15 13.3,3.2 L 14.6,2.6 14.4,3.35 Q 14.05,5.3 14.1,6.4 V 6.6 M 7.05,4 6.8,3.95 7,3.7 7.05,3.75 V 4 m -3.1,0.05 q -1.2,0 -1.9,-0.6 L 2,3.5 Q 1.5,3.5 0.5,2.6 1.15,1.55 1.15,0.15 0.9,-1 1.1,-1.6 1.15,-2.4 1.55,-2.75 L 2.75,-3.8 2.9,-4.1 3.2,-3.75 1.7,-2.2 H 1.75 L 1.5,-1.65 v 0.1 q 0,0.75 0.45,1.25 L 2.75,0.25 5.8,0.1 5.55,0.15 5.35,1.95 5.5,1.6 5.3,2.15 H 4.8 Q 4.1,2 4.1,2.85 3.65,2.5 3.45,1.8 3.15,1.8 3.2,2.3 3.15,2.85 4,3.5 L 3.95,4.05 M 26.6,4.7 26.9,5.4 q 0.2,0 0.2,-0.35 0,-0.45 -0.25,-0.4 L 26.6,4.7 M 24.85,4.8 24.95,4.6 24.9,4.4 24.7,4.35 q -0.65,0 -0.65,1.05 l 1,0.8 0.2,-0.25 Q 24.8,5.05 24.85,4.8 M 27.95,5 Q 28,4.35 27.75,4.35 27.25,4.35 27.2,5 L 27.15,5.75 25.8,6.65 27.9,6.2 27.95,5 m -7.45,-0.35 0.2,0.2 0.5,-0.6 -0.15,-0.2 q -0.55,0 -0.55,0.6 M 9.7,-6.2 9.45,-6.25 9.7,-6.2 M 8.85,4.3 9.1,3.65 9,4 10.05,4.4 q 0.6,0.35 0.6,1.2 v 0.05 q 0,-0.35 -1.8,-1.35"
       id="path6" />
    <path
       style="fill:#ffffff;fill-rule:evenodd;stroke:none"
       inkscape:connector-curvature="0"
       d="m 20.85,-4.6 0.25,-0.1 q 1.95,0 3.25,0.65 -0.35,1 0.65,1 6.8,0 6.8,0.85 -1.15,0.75 -1.1,1.35 -0.05,0.65 1.3,1.15 l -0.1,0.05 q -3.65,2 -7.85,2 l -4.5,-0.6 -2.45,-0.6 q -1.85,0 -2.6,0.6 -0.75,0.6 -1.2,0.6 -0.55,0 -1.05,-0.35 l 0.05,-0.3 -0.2,-0.15 1.1,0.1 q 1.45,0 1.5,-0.8 -0.05,-0.8 -2.25,-0.75 -1.7,0 -1.7,0.55 L 10.85,1 Q 10.1,0.95 9.15,0.2 8.1,-0.65 6.5,-0.8 L 4.6,-0.75 4.15,-0.5 3.55,-0.55 q -1.3,-0.2 -1.3,-1 L 2.6,-2 3.3,-1.85 Q 4.75,-1.9 4.75,-2.95 L 4.45,-3.35 3.7,-3.3 q 1.95,-2 3.85,-2 l 2.75,0.15 q -0.8,0.15 -0.75,0.6 -0.3,0.85 2.2,0.9 1.85,0 1.9,-0.75 l -0.2,-0.45 2.35,-0.1 2.25,0.1 h -0.1 q -0.6,0 -0.6,0.4 l 2.45,0.65 q 1.3,-0.05 1.3,-0.55 L 20.85,-4.6 m 2.2,2.15 3.6,0.8 0.65,-0.75 q 0,-0.45 -2.75,-0.55 -1.8,-0.25 -1.5,0.5 m 2.65,2.1 -0.1,0.25 q 0,0.75 3.1,0.8 1.8,0 1.8,-0.65 v -0.1 q -0.1,-0.75 -2.6,-0.75 -1.85,0 -2.2,0.45 m -3.05,0.15 q 0.6,0 0.6,-0.4 0,-0.5 -1.2,-0.5 -0.9,-0.05 -0.9,0.3 0,0.6 1.5,0.6 M 19.5,1.4 q 0.9,0.4 1.65,0.4 2.25,0 2.25,-0.75 0,-0.8 -3.2,-0.8 -1.5,0 -1.5,0.6 L 19.5,1.4 M 5.55,-3.5 q 0,0.4 0.85,0.4 0.85,-0.05 0.85,-0.55 L 6.85,-4.1 q -1.3,0.4 -1.3,0.6 m 7.05,2.6 0.45,-0.25 q 0,-0.4 -0.4,-0.4 l -0.55,0.4 q 0.15,0.25 0.5,0.25 m -4.45,0.4 0.3,0.15 h 1.2 L 9.7,-0.55 9,-0.9 q -0.35,0 -0.85,0.4"
       id="path8" />
    <path
       style="fill:#feecc5;fill-rule:evenodd;stroke:none"
       inkscape:connector-curvature="0"
       d="m 24.35,-5.2 0.05,0.05 0.35,0.25 0.2,0.15 0.05,0.05 0.05,0.05 0.2,0.65 h 0.55 0.45 q 5.45,0.05 6.25,1.15 l 0.1,0.25 v 0.15 q 0,1 -1.05,1.45 l 0.2,0.1 q 1.35,0.65 1.4,1.15 l -0.4,0.55 -0.2,0.15 Q 31.65,1.55 29.4,2.2 L 24.1,3.2 19.5,2.6 18.1,2.15 17.15,2 h -0.1 Q 15.3,2 14.65,2.6 H 14.6 L 13.3,3.2 Q 11.9,3.15 11.05,2.3 L 8.45,0.9 Q 8.15,0.7 7.35,0.45 L 5.8,0.1 2.75,0.25 1.95,-0.3 Q 1.5,-0.8 1.5,-1.55 v -0.1 L 1.75,-2.2 H 1.7 l 1.5,-1.55 0.3,-0.3 0.6,-1.35 0.1,-0.1 q 0.6,-0.85 3.05,-0.8 l 2.2,0.05 0.25,0.05 2.6,0.6 0.15,0.1 3.3,-0.45 q 1.85,0 3.75,0.6 l 1.65,-0.3 2.95,0.35 0.25,0.1 m -3.5,0.6 0.25,0.25 q 0,0.5 -1.3,0.55 l -2.45,-0.65 q 0,-0.4 0.6,-0.4 h 0.1 l -2.25,-0.1 -2.35,0.1 0.2,0.45 Q 13.6,-3.65 11.75,-3.65 9.25,-3.7 9.55,-4.55 9.5,-5 10.3,-5.15 L 7.55,-5.3 q -1.9,0 -3.85,2 l 0.75,-0.05 0.3,0.4 q 0,1.05 -1.45,1.1 L 2.6,-2 2.25,-1.55 q 0,0.8 1.3,1 L 4.15,-0.5 4.6,-0.75 6.5,-0.8 q 1.6,0.15 2.65,1 0.95,0.75 1.7,0.8 l -0.1,-0.35 q 0,-0.55 1.7,-0.55 2.2,-0.05 2.25,0.75 -0.05,0.8 -1.5,0.8 L 12.1,1.55 12.3,1.7 12.25,2 q 0.5,0.35 1.05,0.35 0.45,0 1.2,-0.6 0.75,-0.6 2.6,-0.6 l 2.45,0.6 4.5,0.6 q 4.2,0 7.85,-2 L 32,0.3 q -1.35,-0.5 -1.3,-1.15 -0.05,-0.6 1.1,-1.35 0,-0.85 -6.8,-0.85 -1,0 -0.65,-1 -1.3,-0.65 -3.25,-0.65 l -0.25,0.1 m 1.8,4.4 q -1.5,0 -1.5,-0.6 0,-0.35 0.9,-0.3 1.2,0 1.2,0.5 0,0.4 -0.6,0.4 m 3.05,-0.15 q 0.35,-0.45 2.2,-0.45 2.5,0 2.6,0.75 v 0.1 q 0,0.65 -1.8,0.65 -3.1,-0.05 -3.1,-0.8 l 0.1,-0.25 m -2.65,-2.1 q -0.3,-0.75 1.5,-0.5 2.75,0.1 2.75,0.55 l -0.65,0.75 -3.6,-0.8 M 19.5,1.4 18.7,0.85 q 0,-0.6 1.5,-0.6 3.2,0 3.2,0.8 0,0.75 -2.25,0.75 -0.75,0 -1.65,-0.4 M 5.55,-3.5 q 0,-0.2 1.3,-0.6 l 0.4,0.45 q 0,0.5 -0.85,0.55 -0.85,0 -0.85,-0.4 M 5.8,-5.35 H 5.45 v 0.1 L 5.75,-5.3 5.8,-5.35 M 8.15,-0.5 Q 8.65,-0.9 9,-0.9 l 0.7,0.35 -0.05,0.2 H 8.45 L 8.15,-0.5 m 4.45,-0.4 q -0.35,0 -0.5,-0.25 l 0.55,-0.4 q 0.4,0 0.4,0.4 L 12.6,-0.9"
       id="path10" />
    <path
       style="fill:#cf7e05;fill-rule:evenodd;stroke:none"
       inkscape:connector-curvature="0"
       d="m 3.85,-5.65 -0.1,0.1 v -0.1 h 0.1"
       id="path12" />
  </g>
  <g
     transform="translate(17.224425,14.69601)"
     id="g44">
    <path
       d="m -9.85,-12.4 h -0.2 l -0.2,-0.05 -0.1,-0.2 q 0,-0.75 2.25,-1 h 0.15 l -0.2,0.4 q 0,0.35 0.4,0.35 l 0.6,0.1 -2.7,0.4 m 4.85,-1.35 1.7,0.35 q 0.35,0.25 0.35,0.6 0,0.5 -0.55,0.5 0.25,-0.3 -1.05,-0.4 l 0.15,-0.5 q 0,-0.4 -0.6,-0.55 m 6.05,1.9 0.55,-0.15 0.6,0.05 2.65,0.4 -1.6,-0.15 -0.3,0.45 L 8,-10 q 2,0.45 3.7,2.05 0.45,0 0.55,-0.55 l 0.35,0.8 q 0,0.65 -0.65,0.65 Q 9.9,-9 7.25,-9.8 L 3.9,-10.35 q -3,-0.6 -3,-1.3 l 0.15,-0.2"
       id="path36"
       inkscape:connector-curvature="0"
       style="fill:#fe9a9a;fill-rule:evenodd;stroke:none" />
    <path
       d="m -7.95,-13.65 1.25,-0.3 1.7,0.2 q 0.6,0.15 0.6,0.55 l -0.15,0.5 -0.3,0.05 -2.3,-0.15 -0.6,-0.1 q -0.4,0 -0.4,-0.35 l 0.2,-0.4 m 12.85,2.1 3.55,0.75 q 3.8,1.05 3.8,2.05 V -8.5 Q 12.15,-7.95 11.7,-7.95 10,-9.55 8,-10 l -5.05,-1.25 0.3,-0.45 1.6,0.15 H 4.9 m -6.1,1.05 q -0.55,0 -1.35,-0.8 0.3,-0.4 0.9,-0.4 0.75,0 0.85,0.7 0,0.5 -0.4,0.5"
       id="path38"
       inkscape:connector-curvature="0"
       style="fill:#ffe6e6;fill-rule:evenodd;stroke:none" />
    <path
       d="M -7.95,-13.65 H -8.1 q -2.25,0.25 -2.25,1 l 0.1,0.2 0.2,0.05 h 0.2 l -0.35,0.4 q -1.05,1.45 -1.05,2.1 0.15,0.6 0.75,0.6 0.6,-0.5 1.45,-0.5 -0.35,0.6 2.5,0.6 3.55,0 4.9,1 1.3,1 2.8,1 9.3,0 9.4,0.95 2.75,0 2.75,-1.65 l -1.05,-0.6 v -0.25 q 0,-1 -3.8,-2.05 L 4.9,-11.55 4.75,-11.65 2.2,-11.95 1.6,-12 l -0.55,0.15 -2,-0.4 -1.6,-0.95 -0.75,-0.2 -1.7,-0.35 -1.7,-0.2 -1.25,0.3 m 0,-0.5 q 6.4,0 7.35,0.95 l 0.35,0.65 q 0.25,0.3 1.25,0.3 l 1.9,-0.25 q 1.35,0 6.35,1.85 5,1.85 5,2.3 l -0.3,0.85 q 0.5,0.6 0.5,1.55 0,0.5 -0.65,0.6 l -2,0.5 q -2.15,0.8 -4,0.8 -3,0 -4.55,-1.45 l -5.9,-0.25 -0.9,-0.8 -2.65,0.45 q -0.8,0 -1.6,-0.85 -0.7,-0.75 -2.55,-0.5 -2.9,0.4 -2.9,-1.05 0,-0.5 1.7,-3.3 1.3,-2.35 3.6,-2.35"
       id="path40"
       inkscape:connector-curvature="0"
       style="fill:#ff0000;fill-rule:evenodd;stroke:none" />
    <path
       d="m -3.3,-13.4 0.75,0.2 1.6,0.95 2,0.4 -0.15,0.2 q 0,0.7 3,1.3 l 3.35,0.55 q 2.65,0.8 4.7,2.75 0.65,0 0.65,-0.65 l -0.35,-0.8 1.05,0.6 q 0,1.65 -2.75,1.65 -0.1,-0.95 -9.4,-0.95 -1.5,0 -2.8,-1 -1.35,-1 -4.9,-1 -2.85,0 -2.5,-0.6 -0.85,0 -1.45,0.5 -0.6,0 -0.75,-0.6 0,-0.65 1.05,-2.1 l 0.35,-0.4 2.7,-0.4 2.3,0.15 0.3,-0.05 q 1.3,0.1 1.05,0.4 0.55,0 0.55,-0.5 0,-0.35 -0.35,-0.6 m 5.5,1.45 2.55,0.3 0.15,0.1 H 4.85 l -2.65,-0.4 m -3.4,1.45 q 0.4,0 0.4,-0.5 -0.1,-0.7 -0.85,-0.7 -0.6,0 -0.9,0.4 0.8,0.8 1.35,0.8"
       id="path42"
       inkscape:connector-curvature="0"
       style="fill:#b10101;fill-rule:evenodd;stroke:none" />
  </g>
</svg>
