<?xml version="1.0" encoding="UTF-8" standalone="no"?>
<svg xmlns:xlink="http://www.w3.org/1999/xlink" height="36.5px" width="27.55px" xmlns="http://www.w3.org/2000/svg">
  <g transform="matrix(1.0, 0.0, 0.0, 1.0, 12.05, 36.55)">
    <path d="M5.9 -36.5 L10.3 -34.1 10.35 -34.05 10.6 -33.7 10.6 -33.3 10.6 -33.25 9.9 -32.05 9.85 -32.0 9.55 -31.8 9.1 -31.8 8.15 -32.3 7.65 -31.4 8.35 -30.6 8.4 -30.55 8.4 -30.45 8.65 -30.1 8.7 -30.05 8.75 -29.95 Q9.1 -29.1 9.1 -27.95 9.5 -27.7 9.55 -26.95 L9.55 -26.85 Q9.15 -23.25 7.5 -23.2 6.45 -21.9 4.9 -21.5 L5.3 -21.15 5.45 -20.95 5.45 -20.9 5.45 -20.85 6.35 -21.15 9.65 -22.15 10.75 -23.75 Q12.05 -25.7 13.3 -25.25 14.0 -25.1 14.25 -24.65 L14.25 -24.6 Q14.5 -24.15 14.25 -23.4 L14.2 -23.4 14.2 -23.35 14.15 -23.3 13.3 -21.85 Q15.9 -20.5 15.4 -18.4 L15.4 -18.3 Q15.15 -17.45 14.55 -17.15 L13.05 -17.05 13.0 -17.05 12.95 -17.05 Q11.85 -17.3 10.75 -18.45 L9.95 -19.5 Q6.55 -18.1 5.15 -17.8 L4.7 -14.65 4.8 -14.55 4.85 -14.5 4.95 -14.25 4.9 -13.95 3.45 -10.2 4.3 -7.75 4.3 -7.7 4.35 -7.6 Q4.3 -6.35 3.65 -6.05 L4.2 -3.9 4.2 -3.85 4.2 -3.7 Q4.2 -1.95 3.65 -1.05 3.05 -0.05 1.85 -0.05 0.4 0.05 -0.5 -2.1 -1.15 -3.55 -1.1 -4.45 -0.85 -7.5 1.25 -7.8 L-0.35 -7.7 -1.25 -7.85 -2.5 -8.2 -3.0 -8.4 -3.05 -8.4 -3.2 -8.55 -3.25 -8.55 -3.3 -8.7 -5.15 -10.45 -5.65 -9.45 -5.65 -8.45 Q-5.65 -7.1 -6.25 -6.4 -6.85 -5.7 -8.05 -5.7 -11.8 -5.65 -12.05 -10.5 -12.05 -12.1 -11.4 -12.85 -10.8 -13.7 -9.5 -13.7 -8.35 -13.7 -7.35 -12.85 L-7.3 -12.8 -7.25 -12.8 -6.9 -12.35 -6.65 -12.65 Q-5.95 -13.45 -5.45 -13.4 L-4.55 -13.15 -4.95 -14.65 -4.95 -14.9 -4.85 -15.15 -4.8 -15.2 -4.8 -15.25 -4.75 -15.25 -4.15 -15.8 -4.1 -15.85 -4.05 -15.9 -4.05 -15.85 -3.8 -16.05 -4.15 -16.35 -4.2 -16.4 -4.35 -16.65 -4.35 -16.95 -4.35 -17.0 -3.15 -21.05 -3.7 -21.9 -5.25 -24.6 -6.75 -24.65 Q-8.5 -25.1 -9.35 -26.4 -10.15 -27.55 -9.9 -28.45 -9.6 -29.6 -8.9 -30.05 -8.25 -30.55 -7.2 -30.35 L-7.1 -30.35 -7.05 -30.35 -6.9 -30.25 -6.9 -30.2 -5.35 -29.3 -5.35 -29.95 -4.85 -30.7 -4.75 -30.7 -3.95 -30.8 Q-2.75 -30.6 -2.75 -28.75 L-2.75 -28.7 -2.85 -27.4 -2.9 -27.2 -3.4 -26.15 -2.75 -25.05 -1.75 -23.65 -1.7 -23.6 -1.7 -23.55 -1.7 -23.5 -1.65 -23.4 -1.05 -23.45 -1.25 -23.75 Q-2.15 -25.3 -2.15 -26.8 L-1.85 -28.75 -1.1 -30.3 -1.1 -30.35 -1.05 -30.4 -1.0 -30.5 -0.95 -30.55 -0.9 -30.6 Q0.25 -32.3 2.2 -32.9 L2.3 -32.9 2.35 -32.9 5.45 -32.8 5.85 -33.55 4.65 -34.2 4.65 -34.25 4.6 -34.25 4.4 -34.55 4.45 -35.0 5.1 -36.25 5.15 -36.3 5.15 -36.25 5.45 -36.5 5.9 -36.5" fill="#600606" fill-rule="evenodd" stroke="none"/>
    <path d="M8.4 -34.0 L6.65 -30.75 5.4 -31.45 7.15 -34.7 8.4 -34.0" fill="#ce1717" fill-rule="evenodd" stroke="none"/>
    <path d="M9.3 -32.35 L4.9 -34.75 5.6 -36.0 10.0 -33.6 9.3 -32.35" fill="#ce1717" fill-rule="evenodd" stroke="none"/>
    <path d="M-4.8 -29.15 L-4.8 -29.85 Q-4.7 -30.35 -4.1 -30.25 -3.35 -30.05 -3.3 -28.75 L-3.45 -27.45 -4.0 -26.35 Q-4.1 -25.95 -3.25 -24.75 L-2.3 -23.35 -2.25 -23.25 -2.75 -22.25 -2.95 -21.75 -3.25 -22.2 -4.95 -25.35 -6.6 -25.25 Q-8.15 -25.6 -8.9 -26.7 -9.55 -27.6 -9.35 -28.25 -8.9 -30.2 -7.25 -29.8 L-5.85 -28.95 Q-5.05 -27.35 -4.4 -27.35 -3.9 -27.35 -3.9 -27.8 L-4.8 -29.15 M-2.05 -22.65 L-1.3 -20.6 Q-1.5 -20.05 -2.0 -20.15 L-2.65 -21.25 -2.05 -22.65 M-5.95 -10.15 L-6.1 -10.9 Q-6.25 -11.7 -6.5 -11.95 L-6.2 -12.25 Q-5.75 -12.85 -5.45 -12.85 -4.8 -12.85 -4.0 -12.0 L-4.0 -11.9 -3.75 -10.1 -3.7 -9.8 -5.25 -11.35 -5.95 -10.15 M-6.75 -11.6 L-6.75 -11.5 -6.45 -10.45 -6.25 -8.95 -6.2 -8.95 -6.2 -8.45 Q-6.2 -6.75 -7.4 -6.4 -7.05 -7.1 -7.05 -8.35 -7.05 -12.05 -9.05 -12.05 -11.15 -12.05 -11.45 -10.95 -11.3 -13.15 -9.5 -13.15 -8.5 -13.15 -7.7 -12.45 L-6.8 -11.45 -6.75 -11.6 M-2.95 -10.8 L-2.05 -9.4 Q-2.05 -8.9 -2.6 -8.9 L-2.8 -9.0 -2.95 -10.8" fill="#ce1717" fill-rule="evenodd" stroke="none"/>
    <path d="M-2.25 -23.25 L-2.2 -23.1 -2.05 -22.65 -2.65 -21.25 -2.95 -21.75 -2.75 -22.25 -2.25 -23.25 M-5.85 -28.95 L-4.7 -28.3 -4.7 -28.4 -4.75 -28.8 -4.8 -29.15 -3.9 -27.8 Q-3.9 -27.35 -4.4 -27.35 -5.05 -27.35 -5.85 -28.95 M-6.5 -11.95 Q-6.25 -11.7 -6.1 -10.9 L-5.95 -10.15 -6.2 -9.6 -6.2 -8.95 -6.25 -8.95 -6.45 -10.45 -6.75 -11.5 -6.75 -11.6 -6.5 -11.95 M-3.7 -9.8 L-3.75 -10.1 -4.0 -11.9 -4.0 -12.0 -3.75 -11.75 -2.95 -10.8 -2.8 -9.0 -3.7 -9.8 M-11.45 -10.95 Q-11.15 -12.05 -9.05 -12.05 -7.05 -12.05 -7.05 -8.35 -7.05 -7.1 -7.4 -6.4 L-7.4 -6.35 -7.85 -6.3 -8.05 -6.3 Q-10.65 -6.3 -11.3 -9.15 L-11.3 -9.2 -11.35 -9.5 -11.4 -9.6 -11.45 -10.5 -11.45 -10.6 -11.45 -10.9 -11.45 -10.95" fill="#700707" fill-rule="evenodd" stroke="none"/>
    <path d="M-3.7 -15.45 L-3.8 -15.15 Q-3.65 -14.35 -3.2 -13.9 -2.8 -12.8 -0.4 -12.6 L1.75 -12.8 Q2.65 -13.05 2.95 -13.45 3.5 -13.65 3.85 -14.75 L4.35 -14.2 2.25 -8.65 -0.3 -8.35 -1.15 -8.45 -1.1 -8.8 -1.2 -10.6 Q-0.9 -12.3 -1.6 -12.5 L-1.95 -12.35 Q-2.35 -12.45 -2.35 -12.2 L-2.4 -10.1 -2.35 -9.0 -2.35 -8.8 -2.8 -9.0 -4.4 -14.8 -3.7 -15.45" fill="#ce1717" fill-rule="evenodd" stroke="none"/>
    <path d="M-2.35 -8.8 L-2.35 -9.0 -2.4 -10.1 -2.35 -12.2 Q-2.35 -12.45 -1.95 -12.35 L-1.6 -12.5 Q-0.9 -12.3 -1.2 -10.6 L-1.1 -8.8 -1.15 -8.45 -2.35 -8.8" fill="#f8c48f" fill-rule="evenodd" stroke="none"/>
    <path d="M3.85 -14.75 Q3.5 -13.65 2.95 -13.45 2.65 -13.05 1.75 -12.8 L-0.4 -12.6 Q-2.8 -12.8 -3.2 -13.9 -3.65 -14.35 -3.8 -15.15 L-3.7 -15.45 Q-3.25 -15.9 -2.65 -16.15 -1.45 -16.75 0.05 -16.6 2.0 -16.5 3.5 -15.15 L3.85 -14.75" fill="#700707" fill-rule="evenodd" stroke="none"/>
    <path d="M3.45 -21.85 L4.95 -20.75 4.15 -14.55 Q1.2 -13.9 -1.35 -15.1 L-1.35 -15.15 -1.0 -16.6 -0.2 -19.1 Q0.1 -19.8 -0.6 -20.05 -1.4 -20.25 -1.8 -19.15 L-2.15 -17.7 -2.7 -15.95 -3.85 -16.8 -2.1 -22.7 -0.7 -22.95 Q-0.6 -22.4 0.0 -21.8 1.0 -20.85 2.6 -20.85 4.0 -20.85 4.2 -21.3 L3.45 -21.85 M-1.7 -15.3 L-1.95 -15.4 -1.95 -15.45 -1.7 -15.3 M3.9 -20.6 L2.45 -20.5 1.45 -20.7 Q-0.15 -21.2 -1.3 -22.1 L-1.4 -22.1 Q-1.55 -21.25 0.85 -20.6 L2.9 -20.3 Q3.85 -20.3 3.95 -20.6 L3.9 -20.6" fill="#ce1717" fill-rule="evenodd" stroke="none"/>
    <path d="M-1.35 -15.1 L-1.7 -15.3 -1.95 -15.45 -1.95 -15.4 -2.2 -15.6 -2.45 -15.7 -2.65 -15.9 -2.7 -15.95 -2.15 -17.7 -1.8 -19.15 Q-1.4 -20.25 -0.6 -20.05 0.1 -19.8 -0.2 -19.1 L-1.0 -16.6 -1.35 -15.15 -1.35 -15.1" fill="#f8c48f" fill-rule="evenodd" stroke="none"/>
    <path d="M-0.7 -22.95 L0.65 -22.85 0.9 -22.8 3.45 -21.85 4.2 -21.3 Q4.0 -20.85 2.6 -20.85 1.0 -20.85 0.0 -21.8 -0.6 -22.4 -0.7 -22.95 M3.9 -20.6 L3.95 -20.6 Q3.85 -20.3 2.9 -20.3 L0.85 -20.6 Q-1.55 -21.25 -1.4 -22.1 L-1.3 -22.1 Q-0.15 -21.2 1.45 -20.7 L2.45 -20.5 3.9 -20.6" fill="#700707" fill-rule="evenodd" stroke="none"/>
    <path d="M12.5 -21.65 L12.4 -21.6 11.55 -20.9 Q11.55 -20.25 13.0 -20.25 L14.3 -20.35 13.4 -21.15 13.35 -21.15 13.4 -21.15 Q15.2 -20.05 14.8 -18.45 14.5 -17.3 13.05 -17.65 12.1 -17.85 11.15 -18.85 10.3 -19.75 10.3 -20.3 5.8 -18.35 4.55 -18.3 L4.3 -18.95 Q4.3 -19.25 4.85 -19.8 L4.85 -20.0 6.5 -20.6 9.9 -21.6 11.25 -23.45 Q12.25 -24.95 13.15 -24.7 14.0 -24.5 13.7 -23.6 L12.5 -21.65 M3.25 -9.2 L3.8 -7.6 3.55 -6.75 2.95 -6.85 Q2.5 -7.45 2.25 -7.45 L2.1 -7.4 1.8 -8.05 2.85 -8.85 3.25 -9.2 M3.35 -4.85 L3.65 -3.7 Q3.65 -0.65 1.85 -0.6 0.75 -0.6 0.0 -2.35 -0.55 -3.65 -0.55 -4.45 -0.3 -7.25 1.75 -7.2 L2.25 -7.15 1.9 -7.15 1.8 -6.65 1.75 -5.7 Q1.8 -4.45 2.65 -4.45 3.1 -4.45 3.35 -4.85 M1.45 -9.05 L1.15 -10.4 Q1.15 -10.95 1.75 -10.95 2.25 -10.95 2.7 -10.35 L1.85 -9.55 1.45 -9.05" fill="#ce1717" fill-rule="evenodd" stroke="none"/>
    <path d="M12.5 -21.65 L12.5 -21.6 13.4 -21.15 13.35 -21.15 13.4 -21.15 14.3 -20.35 13.0 -20.25 Q11.55 -20.25 11.55 -20.9 L12.4 -21.6 12.5 -21.65 M4.55 -18.3 L4.3 -18.3 Q3.65 -18.5 3.8 -19.1 3.9 -19.5 4.85 -20.0 L4.85 -19.8 Q4.3 -19.25 4.3 -18.95 L4.55 -18.3 M3.55 -6.75 Q3.4 -6.6 3.2 -6.6 L3.15 -6.6 3.05 -6.25 3.35 -4.85 Q3.1 -4.45 2.65 -4.45 1.8 -4.45 1.75 -5.7 L1.8 -6.65 1.9 -7.15 2.25 -7.15 2.3 -7.1 2.1 -7.4 2.25 -7.45 Q2.5 -7.45 2.95 -6.85 L3.55 -6.75 M1.8 -8.05 L1.6 -8.75 1.45 -9.05 1.85 -9.55 2.7 -10.35 2.75 -10.25 3.05 -9.75 3.15 -9.5 3.25 -9.2 2.85 -8.85 1.8 -8.05" fill="#700707" fill-rule="evenodd" stroke="none"/>
    <path d="M8.35 -27.5 Q8.25 -28.65 7.6 -29.7 L7.55 -29.8 7.2 -30.2 Q5.25 -31.95 2.45 -31.65 0.75 -31.45 -0.3 -30.35 L-0.45 -30.25 -0.55 -30.1 Q0.55 -31.8 2.45 -32.35 5.8 -33.1 7.9 -30.3 L8.2 -29.8 Q8.55 -29.0 8.55 -27.95 L8.5 -27.55 8.35 -27.5 M-1.25 -28.6 Q-1.2 -28.35 -0.95 -28.35 L1.15 -28.7 Q2.85 -28.55 4.85 -27.65 L7.25 -25.9 6.8 -24.55 Q6.75 -24.3 6.85 -24.15 L7.3 -23.85 Q5.95 -21.9 3.45 -21.9 0.55 -21.9 -0.75 -24.1 -1.55 -25.45 -1.55 -26.8 L-1.25 -28.6 M0.2 -23.85 L0.55 -23.55 0.9 -23.25 Q2.0 -22.55 3.5 -22.55 4.8 -22.6 5.75 -23.45 6.4 -24.1 6.45 -24.7 L6.45 -24.75 6.4 -25.15 6.3 -25.55 5.5 -26.65 Q4.05 -28.0 1.3 -28.0 -0.95 -28.0 -0.95 -26.15 -0.95 -25.3 -0.1 -24.2 L0.2 -23.85" fill="#ce1717" fill-rule="evenodd" stroke="none"/>
    <path d="M6.1 -30.25 Q6.1 -30.8 5.75 -30.75 4.65 -30.8 4.65 -29.65 4.45 -29.05 5.05 -29.0 5.55 -29.05 5.85 -29.55 L6.1 -30.25 M8.35 -27.5 Q7.9 -27.35 7.55 -26.55 L4.95 -28.3 Q1.75 -29.3 -0.1 -29.3 L-0.6 -29.25 -0.6 -29.05 4.6 -28.15 Q5.45 -27.85 6.4 -26.95 L7.35 -26.2 7.25 -25.9 4.85 -27.65 Q2.85 -28.55 1.15 -28.7 L-0.95 -28.35 Q-1.2 -28.35 -1.25 -28.6 L-0.6 -30.05 -0.55 -30.1 -0.45 -30.25 -0.3 -30.35 Q0.75 -31.45 2.45 -31.65 5.25 -31.95 7.2 -30.2 L7.55 -29.8 7.6 -29.7 Q8.25 -28.65 8.35 -27.5 M2.55 -31.5 Q1.7 -31.5 1.7 -30.3 1.7 -29.8 2.3 -29.8 3.0 -29.85 3.0 -30.85 3.0 -31.5 2.55 -31.5" fill="#e6ecee" fill-rule="evenodd" stroke="none"/>
    <path d="M7.25 -25.9 L7.35 -26.2 6.4 -26.95 Q5.45 -27.85 4.6 -28.15 L-0.6 -29.05 -0.6 -29.25 -0.1 -29.3 Q1.75 -29.3 4.95 -28.3 L7.55 -26.55 Q7.9 -27.35 8.35 -27.5 L8.5 -27.55 8.55 -27.55 Q8.95 -27.55 9.05 -26.95 8.7 -23.85 7.4 -23.85 L7.3 -23.85 6.85 -24.15 Q6.75 -24.3 6.8 -24.55 L7.25 -25.9" fill="#f8c48f" fill-rule="evenodd" stroke="none"/>
    <path d="M6.1 -30.25 L5.85 -29.55 Q5.55 -29.05 5.05 -29.0 4.45 -29.05 4.65 -29.65 4.65 -30.8 5.75 -30.75 6.1 -30.8 6.1 -30.25 M2.55 -31.5 Q3.0 -31.5 3.0 -30.85 3.0 -29.85 2.3 -29.8 1.7 -29.8 1.7 -30.3 1.7 -31.5 2.55 -31.5" fill="#430101" fill-rule="evenodd" stroke="none"/>
    <path d="M6.3 -25.55 L6.4 -25.15 6.45 -24.75 6.45 -24.7 Q6.4 -24.1 5.75 -23.45 4.8 -22.6 3.5 -22.55 2.0 -22.55 0.9 -23.25 L0.55 -23.55 0.2 -23.85 0.9 -24.75 Q2.15 -26.0 4.15 -26.0 L6.3 -25.55" fill="#f9b9b9" fill-rule="evenodd" stroke="none"/>
    <path d="M6.3 -25.55 L4.15 -26.0 Q2.15 -26.0 0.9 -24.75 L0.2 -23.85 -0.1 -24.2 Q-0.95 -25.3 -0.95 -26.15 -0.95 -28.0 1.3 -28.0 4.05 -28.0 5.5 -26.65 L6.3 -25.55" fill="#700707" fill-rule="evenodd" stroke="none"/>
    <path d="M2.1 -1.8 Q2.1 -1.4 1.45 -1.4 0.45 -1.4 0.2 -3.55 L0.25 -3.95 0.35 -3.95 2.1 -1.8 M7.95 -34.6 Q6.15 -34.8 5.6 -35.2 5.55 -35.65 6.0 -35.65 L7.95 -34.6 M-8.85 -28.7 Q-8.85 -29.35 -7.7 -29.35 L-6.85 -28.65 -8.4 -28.4 -8.8 -28.45 -8.85 -28.7 M-0.95 -21.2 Q-0.5 -21.2 -0.5 -20.75 -0.5 -20.25 -1.2 -20.25 -1.8 -20.25 -1.8 -20.65 -1.8 -21.2 -0.95 -21.2 M-8.3 -12.9 L-7.85 -12.3 -7.85 -12.2 -9.65 -12.5 Q-10.5 -12.5 -10.95 -12.05 L-11.0 -12.25 Q-11.0 -13.25 -9.65 -13.25 -8.65 -13.25 -8.3 -12.9 M-1.7 -12.5 L-1.6 -12.35 Q-1.85 -12.1 -2.15 -12.1 -2.9 -12.1 -3.5 -12.75 L-3.95 -13.5 -3.75 -14.0 -1.7 -12.5" fill="#ffffff" fill-rule="evenodd" stroke="none"/>
  </g>
</svg>
