<?xml version="1.0" encoding="UTF-8" standalone="no"?>
<svg
   xmlns:svg="http://www.w3.org/2000/svg"
   xmlns:xlink="http://www.w3.org/1999/xlink"
   height="39.771339"
   width="25.950001"
   version="1.1"
   id="svg62">
  <g
     id="g3886"
     transform="translate(-23.525961,8.278872)">
    <g
       id="g4059">
      <g
         transform="matrix(-1,0,0,1,42.360541,15.827528)"
         id="g15">
        <clipPath
           id="clipPath0"
           transform="matrix(1.0, 0.0, 0.0, 1.0, 27.2, 27.15)">
          <use
             y="0"
             x="0"
             height="31.5"
             transform="translate(-27.2,-27.15)"
             width="38.150002"
             xlink:href="#shape0"
             id="use2" />
        </clipPath>
        <g
           clip-path="url(#clipPath0)"
           id="g7">
          <use
             y="0"
             x="0"
             height="24.799999"
             transform="matrix(0.9885,0,-0.0996,1.0328,-2.4226,-24.1064)"
             width="24.799999"
             xlink:href="#sprite0"
             id="use5" />
        </g>
        <use
           y="0"
           x="0"
           height="22.549999"
           transform="matrix(0.2693,0,-0.0996,1.0328,7.9075,-23.0204)"
           width="21.35"
           xlink:href="#sprite1"
           id="use9" />
        <use
           y="0"
           x="0"
           height="15.6"
           transform="matrix(0.1772,0,-0.0996,1.0328,9.8805,-19.0557)"
           width="15.25"
           xlink:href="#sprite2"
           id="use11" />
        <use
           y="0"
           x="0"
           height="14.35"
           transform="matrix(1,0,0.0813,1.0624,-6.601,-22.3963)"
           width="10.2"
           xlink:href="#sprite3"
           id="use13" />
      </g>
      <g
         id="g82"
         transform="translate(36.975961,9.4924682)">
        <path
           style="fill:#717171;fill-rule:evenodd;stroke:none"
           id="path68"
           d="M 2.5,10.3 9,10.6 3.6,10.9 0.2,10.4 2.5,10.3 M 5.7,13.75 6.05,14.4 2.5,14.3 0.55,13.7 5.7,13.75 m -6.95,-2.7 -0.1,0.65 -0.55,3.8 q -0.7,-2.25 0.1,-4.3 0.4,-1.15 0.55,-0.15" />
        <path
           style="fill:#919191;fill-rule:evenodd;stroke:none"
           id="path70"
           d="m 2.5,10.3 -2.3,0.1 3.4,0.5 2.1,2.85 -5.15,-0.05 1.95,0.6 -3.25,0.25 0.15,-4.2 -0.65,0.7 q -0.15,-1 -0.55,0.15 -0.8,2.05 -0.1,4.3 l 0.55,-3.8 0.3,2.9 7.65,0.9 2,5.65 H -8.2 L -4.7,8.2 2.5,10.3" />
        <path
           style="fill:#9f9f9f;fill-rule:evenodd;stroke:none"
           id="path72"
           d="M 3.6,10.9 9,10.6 2.5,10.3 -4.7,8.2 H 9.35 l 2.2,12.95 H 8.6 l -2,-5.65 -7.65,-0.9 -0.3,-2.9 0.1,-0.65 0.65,-0.7 -0.15,4.2 L 2.5,14.3 6.05,14.4 5.7,13.75 3.6,10.9" />
        <path
           style="fill:#888888;fill-rule:evenodd;stroke:none"
           id="path74"
           d="M -5.95,8.2 Q -6.85,10.75 -9,21.15 h -3.55 l 2.2,-12.95 h 4.4" />
        <path
           style="fill:#5e5e5e;fill-rule:evenodd;stroke:none"
           id="path76"
           d="m 8.6,21.15 h 2.95 L 9.35,8.2 H -4.7 L -8.2,21.15 H 8.6 m 3.9,0.4 -0.4,0.45 h -25.2 l -0.35,-0.4 2.3,-14 h 21.3 L 12.5,21.55 M -5.95,8.2 h -4.4 l -2.2,12.95 H -9 Q -6.85,10.75 -5.95,8.2" />
        <path
           style="fill:#cccccc;fill-rule:evenodd;stroke:none"
           id="path78"
           d="m 7.05,-1.55 0.45,-0.55 0.4,0.15 0.2,0.4 -0.35,0.6 0.2,1.1 -1.35,-0.4 0.45,-1.3 M 6,-3.8 q 0.75,0 0.6,0.65 0,0.7 -0.6,0.7 -0.45,0 -0.65,-0.35 L 5.3,-3.2 q 0,-0.6 0.7,-0.6 m 2.55,-1.75 q 0.65,0 0.65,0.7 0,0.8 -0.8,0.8 -0.6,0 -0.6,-0.8 0,-0.7 0.75,-0.7 m -4.2,2.1 Q 4.3,-2.85 3.8,-2.85 L 3.3,-3.5 q 0,-0.45 0.5,-0.45 0.55,0 0.55,0.5 M 2,-8.4 q 0.55,0 0.55,0.7 0,0.65 -0.6,0.65 -0.6,0 -0.6,-0.6 Q 1.55,-8.4 2,-8.4 m 1.75,-4.25 -0.9,0.2 0.05,0.15 q 0.15,1 -0.9,0.65 v -0.85 l 0.6,-0.1 -0.15,-0.95 1.05,-0.4 0.25,1.3 m -3.6,-1 0.45,0.1 0.05,0.3 q 0,0.45 -0.35,0.45 l -0.45,-0.1 -0.05,-0.35 q 0,-0.4 0.35,-0.4 M 1.7,-15.3 q 0.5,0 0.55,0.55 0,0.65 -0.45,0.65 -0.65,0 -0.7,-0.65 0,-0.55 0.6,-0.55 m 5.95,34.9 q 0.5,0 0.5,0.4 0,0.55 -0.45,0.55 l -0.4,-0.5 q 0,-0.45 0.35,-0.45 m 0,-2.95 q 0,-0.55 0.6,-0.55 0.6,0 0.65,0.55 0,0.55 -0.75,0.55 L 7.65,16.65 M 9.5,17.95 9.15,17.1 11.1,18.95 11.05,19.9 10.45,20.5 9.3,20.4 8.7,18.9 9.5,17.95 M 7.45,17.9 7.15,17.85 7.1,17.6 q 0,-0.3 0.3,-0.3 l 0.35,0.15 0.05,0.15 -0.05,0.2 -0.3,0.1 M 9.3,13 q 0,-0.45 0.45,-0.45 0.5,0 0.5,0.45 0,0.45 -0.5,0.45 Q 9.3,13.45 9.3,13 M 8.75,14.5 7.9,15.05 7.35,14.5 8.75,13.6 v 0.9 m 0.6,0.55 q 0,-0.6 0.65,-0.6 0.6,0 0.65,0.65 0,0.6 -0.55,0.6 L 9.35,15.05 M 8.05,11.2 q 0.6,0 0.55,0.55 0,0.55 -0.55,0.55 L 7.5,11.7 q 0,-0.5 0.55,-0.5 m 1.6,-1.75 q 0,0.6 -0.5,0.6 L 8.5,9.45 q 0,-0.6 0.55,-0.6 0.65,0 0.6,0.6 m -3.1,-0.4 q 0,-0.7 0.9,-0.7 0.65,0 0.7,0.7 L 8.1,9.4 8.2,9.7 q 0,0.55 -0.7,0.55 L 7,9.75 6.6,9.45 6.55,9.05 M 4.95,10.1 4.25,9.55 q 0,-0.6 0.6,-0.6 0.5,0 0.6,0.55 0,0.6 -0.5,0.6 M 4.25,3.8 4.8,3.15 q 0.6,0 0.6,0.7 0,0.5 -0.6,0.5 -0.55,0 -0.55,-0.55 m -0.5,1.5 q 0,0.6 -0.65,0.6 -0.65,0 -0.65,-0.6 0,-0.65 0.7,-0.65 0.6,0 0.6,0.65 M 4.95,0.6 4.35,0 q 0,-0.6 0.6,-0.6 0.7,0 0.75,0.6 0,0.6 -0.75,0.6 m 0,1.05 L 4.85,2 4.5,2.1 q -0.45,0 -0.45,-0.45 0,-0.6 0.45,-0.6 0.35,0 0.45,0.6 m 2.25,0.1 q 0,0.65 -0.65,0.7 H 6.45 L 6.25,2.3 5.75,1.8 q 0,-0.75 0.7,-0.75 0.65,0 0.75,0.7" />
        <path
           style="fill:#666666;fill-rule:evenodd;stroke:none"
           id="path80"
           d="m -10.25,15.75 q -1,-0.3 -0.2,-1 l 0.5,0.9 -0.3,0.1 m -0.95,-2.3 q 0,-0.45 0.7,-0.45 0.3,0 0.3,0.45 0,0.45 -0.5,0.45 -0.5,0 -0.5,-0.45 m 0.15,4.85 0.1,-1.45 0.85,-0.25 0.45,0.15 0.45,0.65 -0.2,1 -1.1,0.25 -0.05,1.45 h -1.55 l -0.2,-1.2 1.25,-0.6 M -0.6,6.45 q 0,0.6 -0.6,0.6 -0.6,0 -0.6,-0.6 0,-0.55 0.6,-0.55 0.6,0 0.6,0.55 m -8.8,4.15 -0.15,0.05 Q -9.45,10 -9.4,10.6 m -0.2,-1.05 0.05,0.4 q 0,0.55 -0.45,0.55 -0.6,0 -0.45,-0.55 0,-0.5 0.45,-0.5 l 0.4,0.1 m 1.45,0 q 0.35,0.15 0.4,0.4 L -8,10.15 -8.4,9.8 -8.15,9.55 m 0.55,-0.9 q 0,0.4 -0.3,0.4 -0.5,0 -0.5,-0.4 0,-0.4 0.4,-0.4 0.4,0 0.4,0.4 m 1.7,-7.75 0.75,0.85 q 0,0.85 -0.85,0.85 -0.9,0 -0.9,-0.85 0,-0.85 1,-0.85 m 4.4,2.25 q 0.6,0 0.75,0.75 0,0.75 -0.75,0.75 -0.65,0 -0.65,-0.75 0,-0.75 0.65,-0.75 m -3.3,1.8 0.9,-1.2 0.7,1.25 q 0,0.75 -0.85,0.75 -0.8,0 -0.75,-0.8 m 3.9,-9.9 q 0.45,0 0.6,0.6 0,0.75 -0.55,0.75 -0.7,0 -0.7,-0.65 0,-0.7 0.65,-0.7 m -1.9,4.9 0.4,-1.1 1.75,1.9 -0.95,0.65 -0.5,-1.05 -0.7,-0.4 m 0.25,-5.7 q 0,0.8 -0.75,0.8 -0.85,0 -0.75,-0.8 0,-0.7 0.75,-0.7 0.75,0 0.75,0.7 m -3,4.7 q -0.85,0 -0.8,-0.85 0,-0.8 0.8,-0.8 0.75,0 0.75,0.85 0,0.8 -0.75,0.8 m -0.6,-5 q 0,0.8 -0.8,0.8 -0.85,0 -0.85,-0.8 0,-0.85 0.85,-0.85 l 0.8,0.85 m 0.75,-0.3 q -0.75,0 -0.6,-0.6 0,-1 0.7,-1 0.6,0 0.6,1 0,0.6 -0.7,0.6 m -1.25,-3.4 0.35,-0.35 q 0.55,0 0.55,0.5 L -6,-9.2 -6.65,-9.75 m 2.75,-0.95 q 0,0.65 -0.6,0.65 -0.75,0 -0.65,-0.65 0,-0.6 0.65,-0.6 l 0.6,0.6 m 0.25,-5.05 q 0.65,0 0.65,0.7 0,0.65 -0.65,0.65 -0.6,0 -0.7,-0.65 0,-0.7 0.7,-0.7 m -2.55,2.65 0.65,0.6 q 0,0.65 -0.65,0.65 -0.65,0 -0.6,-0.65 0.05,-0.6 0.6,-0.6" />
      </g>
    </g>
  </g>
  <defs
     id="defs60">
    <g
       id="shape0"
       transform="translate(27.2,27.15)">
      <path
         d="m 7.9,4.35 h -35.1 l 3.05,-31.5 h 35.1 L 7.9,4.35"
         id="path17"
         style="fill:#00ff00;fill-rule:evenodd;stroke:none" />
    </g>
    <g
       id="sprite0"
       transform="translate(12.4,12.4)">
      <use
         height="24.799999"
         transform="translate(-12.4,-12.4)"
         width="24.799999"
         xlink:href="#shape1"
         id="use20"
         x="0"
         y="0" />
    </g>
    <g
       id="shape1"
       transform="translate(12.4,12.4)">
      <path
         d="m 8.8,-8.75 q 3.6,3.6 3.6,8.75 0,5.15 -3.6,8.8 -3.65,3.6 -8.8,3.6 -5.15,0 -8.75,-3.6 -3.65,-3.65 -3.65,-8.8 0,-5.15 3.65,-8.75 3.6,-3.65 8.75,-3.65 5.15,0 8.8,3.65"
         id="path23"
         style="fill:#4a4a4a;fill-rule:evenodd;stroke:none" />
      <path
         d="m -8.1,-8.35 q 3.35,-3.3 8.1,-3.3 4.85,0 8.25,3.4 3.4,3.4 3.4,8.25 0,2.8 -1.15,5.15 Q 7.35,7.05 3.95,7.05 1.2,7.05 -1.75,5.5 -4.55,4 -6,2 -8.75,-1.95 -8.75,-4.7 l 0.65,-3.65"
         id="path25"
         style="fill:#8a8a8a;fill-rule:evenodd;stroke:none" />
      <path
         d="m 10.5,5.15 -0.4,0.8 V 5.9 l -0.45,0.75 -0.45,0.6 -0.95,1 q -3.4,3.4 -8.25,3.4 -4.85,0 -8.25,-3.4 -3.4,-3.4 -3.4,-8.25 0,-2.05 0.65,-3.85 0.55,-1.75 1.75,-3.25 l 1,-1.15 0.15,-0.1 -0.65,3.65 q 0,2.75 2.75,6.7 1.45,2 4.25,3.5 2.95,1.55 5.7,1.55 3.4,0 6.55,-1.9"
         id="path27"
         style="fill:#747474;fill-rule:evenodd;stroke:none" />
    </g>
    <g
       id="sprite1"
       transform="translate(10.65,11.3)">
      <use
         height="22.549999"
         transform="translate(-10.65,-11.3)"
         width="21.35"
         xlink:href="#shape2"
         id="use30"
         x="0"
         y="0" />
    </g>
    <g
       id="shape2"
       transform="translate(10.2,10.55)">
      <path
         d="M 10.55,4.8 Q 9.15,9.4 4.65,11.25 0.1,13.1 -4.35,10.5 -11.3,6.45 -10,-1.85 q 1.25,-8 9.2,-8.7 7.2,0.2 10.8,6.35 1.95,4.35 0.55,9"
         id="path33"
         style="fill:#e1e1e1;fill-rule:evenodd;stroke:none" />
    </g>
    <g
       id="sprite2"
       transform="translate(7.6,7.8)">
      <use
         height="15.6"
         transform="translate(-7.6,-7.8)"
         width="15.25"
         xlink:href="#shape3"
         id="use36"
         x="0"
         y="0" />
    </g>
    <g
       id="shape3"
       transform="translate(7.6,7.8)">
      <path
         d="m 4.3,-6.85 q 0.85,0.6 0.95,1.7 l 0.05,0.65 1.95,1.55 0.05,1.5 -0.6,0.35 q 0.8,0.45 0.9,1.6 L 7.65,1.15 6.1,2.9 6.4,3.9 Q 5.6,5.5 3.9,5.7 3.5,8.25 0.7,7.7 l -1,-1.1 Q -2.05,7.75 -4,7.75 L -5.55,5.1 -6.5,4.8 -5.7,2.85 -7.15,3 -6.9,1.15 -6.7,0.55 Q -7.4,0.1 -7.55,-0.95 L -7.6,-1.7 -4.8,-1.2 -6.05,-2.05 V -2.5 L -6.7,-3.25 q 1.2,-1.2 1.9,-3 L -4,-6 -3.7,-6.8 q 1.85,0.35 3.05,-1 l 3.2,1.7 0.45,-0.3 0.25,0.1 0.2,0.45 0.3,-0.75 0.55,-0.25 M 3.35,-3.2 3.15,-3.65 1.3,-4.5 1,-5.65 0.45,-5.05 0.2,-4.65 H 0.15 l -0.5,0.05 0.05,0.45 -0.2,0.4 -0.25,-0.75 -0.55,0.3 -0.05,0.05 -0.6,-0.05 -0.1,0.85 v 0.85 l -1.1,-1.6 0.15,1.1 0.35,1.6 -1.3,-0.85 0.9,1.9 -1.35,-0.5 0.3,0.8 -1.2,0.05 1.25,1.9 -0.25,0.6 1.25,0.15 0.1,0.05 0.4,0.15 0.75,0.2 -0.45,1.7 1.2,-1.3 0.2,0.05 q -0.7,1.25 0.1,1.15 l 0.1,-0.2 0.5,-0.65 0.3,0.35 L 0.55,5.5 1.05,4 1.15,3.85 1.7,3.8 2.3,5 2.25,2.5 2.7,3.05 3.1,3.55 3.35,3.65 3.5,3.6 V 3.35 L 3.45,3.1 3.3,2.75 2.95,2 4.7,2.55 4.4,2.1 3.95,1.55 2.85,0.6 4.9,0.95 4.5,0.5 3.75,0.3 3.1,-0.1 4.45,-0.4 3.5,-0.95 4.8,-1.85 2.5,-1.6 v -0.05 l 0.45,-0.6 0.2,-0.35 0.2,-0.6 M 6,-0.75 5.15,-0.4 5.1,0.2 6.1,0.55 5.3,-0.4 6,-0.75 M 4.65,3.65 4.7,3.5 4.3,3.05 4.65,3.65"
         id="path39"
         style="fill:#c7c7c7;fill-rule:evenodd;stroke:none" />
      <path
         d="m 3.15,-3.65 0.2,0.45 -0.25,0.5 0.05,0.1 -0.2,0.35 -0.45,0.6 -0.05,0.05 H 2.5 L 4.8,-1.85 3.5,-0.95 4.45,-0.4 3.1,-0.1 3.75,0.3 4.5,0.5 4.9,0.95 2.85,0.6 3.95,1.55 4.4,2.1 4.7,2.55 2.95,2 3.3,2.75 3.45,3.1 3.5,3.35 V 3.6 L 3.35,3.65 3.1,3.55 2.7,3.05 2.25,2.5 2.3,5 1.7,3.8 1.2,2.55 1.05,4 0.55,5.5 0.15,4.15 0.1,3.15 -0.15,3.8 l -0.5,0.65 -0.1,0.2 q -0.8,0.1 -0.1,-1.15 L -0.8,3 -1.05,3.45 -2.25,4.75 -1.8,3.05 -2.55,2.85 -3.05,2.65 -4.3,2.5 -4.05,1.9 -5.3,0 l 1.2,-0.05 -0.3,-0.8 1.35,0.5 -0.9,-1.9 1.3,0.85 L -3,-3 l -0.15,-1.1 1.1,1.6 0.6,0.7 -0.6,-1.55 0.1,-0.85 0.6,0.05 0.05,-0.05 0.55,-0.3 0.25,0.75 0.1,0.45 0.1,0.15 0.45,-1.5 H 0.2 l 0.25,-0.4 0.55,-0.6 0.3,1.15 0.35,0.4 0.2,-0.05 0.2,0.6 -0.1,0.5 1.2,-0.6"
         id="path41"
         style="fill:#f4f4f4;fill-rule:evenodd;stroke:none" />
      <path
         d="M 0.15,-3.15 0.1,-2.95 Q 0,-2.8 -0.25,-2.75 h -0.3 q -0.9,0 -0.85,-1.6 -0.05,-0.45 0.65,-0.45 h 0.1 l 0.2,0.05 q 0.4,0.2 0.55,0.95 l 0.05,0.65 M 2.85,-0.2 2.7,-1.3 3.55,-1.65 4.75,-1.5 4.9,-1.05 4,-0.05 2.85,-0.2 M 1.3,-3.9 1.6,-4.2 1.95,-4.4 h 0.3 q 0.45,0.45 0.2,1.25 l -0.15,0.2 q -0.4,0.5 -0.95,0.6 L 0.75,-2.6 q 0,-0.7 0.55,-1.3 m 1.75,5 Q 3.9,1.1 4.6,2.35 V 2.6 Q 4.5,2.9 4.1,2.9 H 4.05 q -1.1,0 -1.4,-1.45 0,-0.35 0.4,-0.35 m -1.7,3.75 q -0.7,0 -0.9,-1.55 0,-0.45 0.5,-0.45 0.6,0 0.85,0.8 L 1.9,4.3 1.7,4.8 1.35,4.85 M -5.2,-0.3 q 1.5,0 1.6,1 0,0.5 -0.4,0.5 -1.75,0 -1.85,-0.85 v -0.1 l 0.15,-0.35 0.5,-0.2 m 1.5,-3.05 q 0.7,0 1.5,1.45 0,0.45 -0.45,0.45 -0.6,0 -1.1,-0.6 l -0.5,-0.8 0.1,-0.35 0.45,-0.15 M -1.5,2.85 -1.95,3.7 -2.4,4.2 -2.7,4.3 -3.1,4.2 -3.15,3.9 V 3.85 l 0.35,-0.8 q 0.4,-0.7 0.8,-0.7 0.55,0 0.5,0.5"
         id="path43"
         style="fill:#515151;fill-rule:evenodd;stroke:none" />
    </g>
    <g
       id="sprite3"
       transform="translate(4.55,5.55)">
      <use
         height="14.35"
         transform="translate(-4.55,-5.55)"
         width="10.2"
         xlink:href="#shape4"
         id="use46"
         x="0"
         y="0" />
    </g>
    <g
       id="shape4"
       transform="translate(4.55,5.55)">
      <path
         d="M 3,-2.65 3.4,-1.45 3.6,0 V 0.15 L 3.5,1.6 2.9,3.55 2.25,4.35 1.7,4.75 H 1.65 q -1.25,-0.2 -1.7,-1 v -0.2 l -0.4,-2.4 q 0.4,-0.15 0.4,-0.7 0,-1.15 -0.5,-1.35 L 0.2,-3.8 0.75,-4.7 1.8,-4.55 2.7,-3.35 3,-2.7 v 0.05 M 0.7,0.7 1.7,2.45 2.4,1.7 2.9,0.7 Q 2.8,-1.15 2,-1.15 1.35,-1.15 0.7,0.7"
         id="path49"
         style="fill:#f4f4f4;fill-rule:evenodd;stroke:none" />
      <path
         d="m -0.55,-0.9 q 0.5,0.2 0.5,1.35 0,0.55 -0.4,0.7 L -0.75,1.2 H -0.8 -0.9 -1 -1.15 q -0.5,-0.15 -0.45,-0.75 0,-1.05 0.45,-1.3 l 0.25,-0.1 h 0.05 l 0.3,0.05 M 0.7,0.7 q 0.65,-1.85 1.3,-1.85 0.8,0 0.9,1.85 L 2.4,1.7 1.7,2.45 0.7,0.7"
         id="path51"
         style="fill:#3a3a3a;fill-rule:evenodd;stroke:none" />
      <path
         d="M 4.55,-5 H 4.6 l 0.55,0.15 0.5,0.3 -0.2,0.4 0.2,0.9 q 0,2 -1.6,6.5 L 2.85,5.7 2.25,4.35 2.9,3.55 3.5,1.6 3.6,0.15 V 0 L 3.4,-1.45 3,-2.65 3.9,-3.7 5.1,-4.85 4.5,-5 h 0.05"
         id="path53"
         style="fill:#8a8a8a;fill-rule:evenodd;stroke:none" />
      <path
         d="M 2.85,5.7 2.2,6.45 2.1,6.55 0.25,7.85 -2,8.8 q -0.85,0 -1.45,-4.95 l -1.1,-4.8 q 0,-1.35 0.8,-2.65 0.9,-1.4 2,-1.4 0.5,0.3 0.95,0.3 1,-0.85 2.95,-0.85 L 3.9,-5.15 4.55,-5 H 4.5 L 5.1,-4.85 3.9,-3.7 3,-2.65 V -2.7 L 2.7,-3.35 1.8,-4.55 0.75,-4.7 0.2,-3.8 -0.1,-3.3 -0.5,-3.75 -2.45,-3.8 q -0.65,0.25 -0.95,1.6 v 0.1 Q -3.8,-0.7 -3.45,0.75 -3,2.7 -1.9,3.45 l 0.75,0.35 0.8,-0.9 0.2,0.7 0.1,0.15 q 0.45,0.8 1.7,1 H 1.7 l 0.55,-0.4 0.6,1.35"
         id="path55"
         style="fill:#747474;fill-rule:evenodd;stroke:none" />
      <path
         d="m 0.2,-3.8 -0.75,2.9 -0.3,-0.05 H -0.9 l -0.25,0.1 q -0.45,0.25 -0.45,1.3 -0.05,0.6 0.45,0.75 h 0.15 0.1 0.1 0.05 l 0.3,-0.05 0.4,2.4 v 0.2 L -0.15,3.6 -0.35,2.9 -1.15,3.8 -1.9,3.45 Q -3,2.7 -3.45,0.75 -3.8,-0.7 -3.4,-2.1 v -0.1 l 0.1,-0.25 0.65,-1.2 0.2,-0.15 1.95,0.05 0.4,0.45 0.3,-0.5"
         id="path57"
         style="fill:#c5c5c5;fill-rule:evenodd;stroke:none" />
    </g>
  </defs>
</svg>
