<?xml version="1.0" encoding="UTF-8" standalone="no"?>
<svg
   xmlns:dc="http://purl.org/dc/elements/1.1/"
   xmlns:cc="http://creativecommons.org/ns#"
   xmlns:rdf="http://www.w3.org/1999/02/22-rdf-syntax-ns#"
   xmlns:svg="http://www.w3.org/2000/svg"
   xmlns="http://www.w3.org/2000/svg"
   xmlns:xlink="http://www.w3.org/1999/xlink"
   xmlns:sodipodi="http://sodipodi.sourceforge.net/DTD/sodipodi-0.dtd"
   xmlns:inkscape="http://www.inkscape.org/namespaces/inkscape"
   height="40.526199"
   width="27.42425"
   version="1.1"
   id="svg46"
   sodipodi:docname="1183.svg"
   inkscape:version="0.92.1 r15371">
  <metadata
     id="metadata50">
    <rdf:RDF>
      <cc:Work
         rdf:about="">
        <dc:format>image/svg+xml</dc:format>
        <dc:type
           rdf:resource="http://purl.org/dc/dcmitype/StillImage" />
        <dc:title></dc:title>
      </cc:Work>
    </rdf:RDF>
  </metadata>
  <sodipodi:namedview
     pagecolor="#ffffff"
     bordercolor="#666666"
     borderopacity="1"
     objecttolerance="10"
     gridtolerance="10"
     guidetolerance="10"
     inkscape:pageopacity="0"
     inkscape:pageshadow="2"
     inkscape:window-width="720"
     inkscape:window-height="480"
     id="namedview48"
     showgrid="false"
     fit-margin-top="0"
     fit-margin-left="0"
     fit-margin-right="0"
     fit-margin-bottom="0"
     inkscape:zoom="3.776"
     inkscape:cx="4.9562515"
     inkscape:cy="19.25"
     inkscape:window-x="0"
     inkscape:window-y="27"
     inkscape:window-maximized="0"
     inkscape:current-layer="svg46" />
  <g
     transform="translate(13.20625,38.9262)"
     id="g4">
    <use
       height="40.799999"
       transform="translate(-13.2,-39.2)"
       width="27.4"
       xlink:href="#sprite0"
       id="use2"
       x="0"
       y="0" />
  </g>
  <defs
     id="defs44">
    <g
       id="sprite0"
       transform="translate(13.45,18.8)">
      <use
         height="26.549999"
         transform="matrix(1,0,0,1.002,-13.45,-18.7767)"
         width="27.4"
         xlink:href="#sprite1"
         id="use6"
         x="0"
         y="0" />
      <use
         height="37.549999"
         transform="translate(-13.45,-15.55)"
         width="25.950001"
         xlink:href="#shape1"
         id="use8"
         x="0"
         y="0" />
    </g>
    <g
       id="sprite1"
       transform="translate(13.6,13.65)">
      <use
         height="26.549999"
         transform="translate(-13.6,-13.65)"
         width="27.4"
         xlink:href="#shape0"
         id="use11"
         x="0"
         y="0" />
    </g>
    <g
       id="shape0"
       transform="translate(13.6,13.65)">
      <path
         d="m 3,-13.35 q 3.35,0.9 5.8,2.9 l 0.05,0.05 q 2.75,2.15 4,5.25 v 0.05 q 1.1,2.8 0.95,5.9 V 1 1.05 2 L 13.75,2.1 V 2.2 L 13.4,3.6 13.35,3.8 V 3.85 L 12.95,4.95 12.9,5 12.8,5.25 V 5.2 Q 11.3,7.7 9.15,9.45 7.05,11.15 4.3,12.2 l -0.1,0.05 -6.9,0.35 h -0.1 q -2.75,-0.5 -5.25,-2.25 -2.4,-1.6 -3.8,-4 l -0.1,-0.1 Q -13.4,3.8 -13.6,0.85 V 0.2 q -0.1,-3.4 1.4,-6.35 l 0.05,-0.1 0.2,-0.6 V -6.9 l 0.3,-0.5 v 0.05 l 1.45,-1.9 0.05,-0.1 0.2,-0.15 1.3,-1.15 0.25,-0.2 q 2.4,-1.45 5,-2.15 l 0.1,-0.05 6.2,-0.35 0.1,0.05"
         id="path14"
         inkscape:connector-curvature="0"
         style="fill:#505050;fill-rule:evenodd;stroke:none" />
      <path
         d="M 5.5,-8.45 5.85,-8.85 6.9,-8 5.35,-5.2 4,-8.15 3.3,-7.85 Q 2,-8.35 3.1,-9.05 l 0.65,-0.25 1.1,-0.75 0.65,1.6 m 0.3,1.2 0.15,-0.2 h -0.3 l 0.15,0.2 m -2.35,-2.6 -0.6,-0.1 q -0.3,-0.2 -0.3,-0.45 0.05,-0.35 0.35,-0.2 1.6,-0.4 0.65,0.75 V -9.9 l -0.1,0.05 m 4.4,4.15 q -0.5,0.3 -0.8,-0.15 -0.65,-1 0.6,-1.4 1.5,0.7 0.2,1.55"
         id="path16"
         inkscape:connector-curvature="0"
         style="fill:#c8c8c8;fill-rule:evenodd;stroke:none" />
      <path
         d="m 5.8,-7.25 -0.15,-0.2 h 0.3 l -0.15,0.2 m -3.65,3.8 -0.4,-0.1 Q 1.6,-3.7 1.6,-3.9 1.6,-4.15 1.75,-4.25 L 2.15,-4.4 2.5,-4.25 2.65,-3.9 2.5,-3.55 2.15,-3.45 M 4.8,-3.75 V -4.8 h 2.45 v 1.05 H 4.8 M 1.3,-6.45 1.5,-6.7 1.6,-6.75 1.9,-6.5 1.95,-6.45 1.7,-6.2 1.6,-6.15 Q 1.3,-6.2 1.3,-6.45 M 0,-9.5 V -9.65 L 0.9,-10.1 1.1,-10 1,-9.25 0.95,-9.15 0,-9.2 V -9.5 M 11,-2.1 10.85,-2.55 11,-3 q 0.1,-0.2 0.3,-0.2 l 0.4,0.2 0.1,0.45 -0.1,0.45 q -0.2,0.15 -0.4,0.15 -0.2,0 -0.3,-0.15 m -12.8,-8.75 0.4,-0.15 0.4,0.15 0.2,0.4 -0.2,0.4 q -0.15,0.15 -0.4,0.15 -0.25,0 -0.4,-0.15 l -0.15,-0.4 0.15,-0.4 m 1.45,-1.2 V -12 l -0.05,0.15 -0.1,0.1 q -0.4,0.1 -0.5,-0.2 v -0.1 l 0.15,-0.15 0.2,-0.1 0.3,0.25"
         id="path18"
         inkscape:connector-curvature="0"
         style="fill:#bcbcbc;fill-rule:evenodd;stroke:none" />
      <path
         d="m 5.5,-8.45 -0.65,-1.6 -1.1,0.75 -0.65,0.25 q -1.1,0.7 0.2,1.2 L 4,-8.15 5.35,-5.2 6.9,-8 5.85,-8.85 5.5,-8.45 M 3.55,-9.85 Q 4.5,-11 2.9,-10.6 q -0.3,-0.15 -0.35,0.2 0,0.25 0.3,0.45 l 0.6,0.1 h 0.1 M 0,-9.5 v 0.3 L 0.95,-9.15 1,-9.25 1.1,-10 0.9,-10.1 0,-9.65 v 0.15 m 1.3,3.05 q 0,0.25 0.3,0.3 L 1.7,-6.2 1.95,-6.45 1.9,-6.5 1.6,-6.75 1.5,-6.7 1.3,-6.45 m 3.5,2.7 H 7.25 V -4.8 H 4.8 v 1.05 M 2.15,-3.45 2.5,-3.55 2.65,-3.9 2.5,-4.25 2.15,-4.4 1.75,-4.25 q -0.15,0.1 -0.15,0.35 0,0.2 0.15,0.35 l 0.4,0.1 m 5.7,-2.25 q 1.3,-0.85 -0.2,-1.55 -1.25,0.4 -0.6,1.4 0.3,0.45 0.8,0.15 M 11,-2.1 q 0.1,0.15 0.3,0.15 0.2,0 0.4,-0.15 L 11.8,-2.55 11.7,-3 11.3,-3.2 Q 11.1,-3.2 11,-3 L 10.85,-2.55 11,-2.1 m -18.7,-8.05 q 2.3,-1.4 4.8,-2.05 h 0.05 q 2.75,-0.95 5.6,-0.4 3.05,0.9 5.35,2.75 2,1.5 3.15,3.6 l 0.2,0.4 Q 13,-2.1 12.6,1.65 L 10.45,1.75 8.5,3.1 8.6,4.2 9.3,5.05 8.25,4.85 7.4,5.35 5.85,5.1 5.2,4.05 2.75,4.25 2.5,3 3.85,1.9 0.6,1.55 V 1.3 Q 0.3,0.55 0.15,1.5 L -1.9,1.25 -0.6,0.15 h -1.75 l -4.3,-3.05 1.15,-1.2 0.05,-1.25 -1.1,-1.1 0.8,-2 -1.45,0.55 -0.8,-1.45 0.3,-0.8 m 20,13.35 -0.45,1.25 -1.5,0.3 -1.4,-1.2 2.3,-0.65 1.05,0.3 M -10.55,-6.95 -9.05,-8.9 -9.6,-7 -10.55,-6.95 M 9,1.4 Q 9.1,2.45 9.8,1.75 10.1,1.35 9.45,1.4 H 9 M 6.45,3.85 Q 6.9,3.6 6.8,2.9 5.45,2.75 6.2,3.8 L 6.45,3.85 M 5.7,5.55 Q 6.15,6 5.6,6.2 5.05,5.95 5.7,5.55 M 1.65,4.6 1,4.9 -0.7,4.55 -0.1,3.05 1.2,2.75 1.8,3.2 2.1,3.9 1.65,4.6 m -2,-16.65 -0.3,-0.25 -0.2,0.1 -0.15,0.15 v 0.1 q 0.1,0.3 0.5,0.2 l 0.1,-0.1 0.05,-0.15 v -0.05 m -1.45,1.2 -0.15,0.4 0.15,0.4 q 0.15,0.15 0.4,0.15 0.25,0 0.4,-0.15 l 0.2,-0.4 -0.2,-0.4 -0.4,-0.15 -0.4,0.15 m -7.6,7.35 0.9,-0.65 0.05,1 -0.95,-0.35 m 1.8,-1.9 -1,-0.4 0.7,-0.45 0.3,0.85 m 0.65,-0.05 0.85,0.65 -1.5,0.5 0.65,-1.15 m 3,1.15 0.5,0.4 0.3,-0.35 q 0.3,-1.05 -0.8,-0.05 m -0.3,1.35 -0.1,-0.35 q -1.1,0 -0.15,0.4 l 0.25,-0.05 M -0.15,6.4 -2.35,7.05 -2.2,5.7 0,5.6 -0.15,6.4 m -5.7,-5.25 -1.35,0.4 0.6,-0.95 0.75,0.55 m 1.05,-2 1.05,0.4 L -2.9,1.5 -4.75,1.85 -5.7,0 -4.8,-0.85 m 4.1,-1.75 q 1,1.15 1.45,0.15 Q 1.1,-3.5 -0.7,-2.6"
         id="path20"
         inkscape:connector-curvature="0"
         style="fill:#a1a1a1;fill-rule:evenodd;stroke:none" />
      <path
         d="m 3.45,-9.85 0.1,-0.05 v 0.05 h -0.1"
         id="path22"
         inkscape:connector-curvature="0"
         style="fill:#ffa73c;fill-rule:evenodd;stroke:none" />
      <path
         d="m -7.7,-10.15 -0.3,0.8 0.8,1.45 1.45,-0.55 -0.8,2 1.1,1.1 -0.05,1.25 -1.15,1.2 4.3,3.05 H -0.6 L -1.9,1.25 0.15,1.5 Q 0.3,0.55 0.6,1.3 V 1.55 L 3.85,1.9 2.5,3 2.75,4.25 5.2,4.05 5.85,5.1 7.4,5.35 8.25,4.85 9.3,5.05 8.6,4.2 8.5,3.1 10.45,1.75 12.6,1.65 12.3,3.2 11.25,2.9 l -2.3,0.65 1.4,1.2 1.5,-0.3 Q 10.4,6.9 8.4,8.7 6.4,10.45 3.9,11.45 L -2.25,11.8 Q -4.9,11.35 -7.2,9.6 -9.45,8 -10.75,5.6 -12.2,3 -12.25,-0.2 q -0.1,-3.1 1.3,-5.85 l 0.4,-0.9 0.95,-0.05 0.55,-1.9 1.35,-1.25 M 6.45,3.85 6.2,3.8 Q 5.45,2.75 6.8,2.9 6.9,3.6 6.45,3.85 M 9,1.4 H 9.45 Q 10.1,1.35 9.8,1.75 9.1,2.45 9,1.4 M 1.65,4.6 2.1,3.9 1.8,3.2 1.2,2.75 -0.1,3.05 -0.7,4.55 1,4.9 1.65,4.6 M 5.7,5.55 Q 5.05,5.95 5.6,6.2 6.15,6 5.7,5.55 m -12.65,-11 -0.65,1.15 1.5,-0.5 -0.85,-0.65 m -0.65,0.05 -0.3,-0.85 -0.7,0.45 1,0.4 m -1.8,1.9 0.95,0.35 -0.05,-1 -0.9,0.65 m 5.15,0.55 -0.25,0.05 q -0.95,-0.4 0.15,-0.4 l 0.1,0.35 m 0.3,-1.35 q 1.1,-1 0.8,0.05 l -0.3,0.35 -0.5,-0.4 M -4.8,-0.85 -5.7,0 -4.75,1.85 -2.9,1.5 -3.75,-0.45 -4.8,-0.85 m -1.05,2 L -6.6,0.6 -7.2,1.55 -5.85,1.15 M -0.15,6.4 0,5.6 -2.2,5.7 -2.35,7.05 -0.15,6.4 m -0.55,-9 q 1.8,-0.9 1.45,0.15 -0.45,1 -1.45,-0.15"
         id="path24"
         inkscape:connector-curvature="0"
         style="fill:#919191;fill-rule:evenodd;stroke:none" />
      <path
         d="m -8.7,-8.1 1.35,-1.85 0.6,0.6 4.8,-1.65 2.2,1.25 -2.4,-0.55 -6.55,2.2 m 17.6,7.9 0.15,-0.7 -0.85,-0.7 1.95,0.55 -0.25,0.8 0.4,0.65 -0.7,0.85 0.2,1 -0.6,0.55 0.55,0.8 -1.4,1 0.45,1 L 6.25,7.9 6.3,9.05 0.6,10 5.6,8.4 8.55,3.45 9.05,1.85 8.65,1.2 9.35,0.35 8.9,-0.2 m 1.2,-2.65 q -1.4,-1.3 -3.5,-2 L 8.5,1.35 6.1,1.3 7.95,3.9 4.2,3.3 5.7,5.1 3.55,4.65 3.5,5.95 2.3,6.1 2.7,7.3 1.5,8.3 1.2,9.2 -0.2,9.05 -0.35,9.8 l -8.8,-0.95 2.7,-1.2 3.5,0.5 2.1,-1.6 2.1,0.4 L 0.05,4.8 0.95,4.45 1.85,1.4 4.7,1.75 3.55,-0.15 5.15,-0.6 Q 4.65,-3.05 4.95,-5.4 L 4.9,-6.75 10.8,-5.95 12.7,-2.1 12.35,2 11.3,5.75 11.1,2.15 10.85,-1.55 10.7,-2 10.4,-2.55 10.1,-2.85 M 2.9,-5.65 3.85,-4.7 1.8,-3.65 v 0.95 l -3.4,2.15 -0.1,0.95 -2.3,1.7 -0.15,0.95 -1.95,0.4 -1.85,1.8 0.5,1.1 H -9.2 L -8.4,3.9 -7,2.8 -5.3,2.4 -4.85,0.75 -1.3,-1.6 -1.45,-2.7 2.9,-5.65 M 0,-9.15 2.8,-9 l -1.05,-2.15 -5.8,-1.15 0.75,-0.25 -0.65,0.25 1.45,-0.15 q 4.05,0.65 7.45,2.65 l -0.2,2.15 -2.1,1.15 -1.7,-0.45 -0.8,2.75 -2.05,-2 -0.7,0.5 -1.7,-0.55 -0.3,1.95 h -0.95 l -0.5,1.2 -1.9,-2.35 -0.8,6 -0.55,-0.15 -0.05,0.3 -0.7,0.65 -0.6,4 -1.6,-3.1 0.75,-0.65 0.55,-4.75 1.05,-0.4 2.2,-3.2 1.1,1 2.15,-2.5 0.25,0.15 0.25,-0.15 0.25,-0.35 1.95,-0.05 1.35,1.8 0.4,-2.3 m 6.7,-1.5 v 2.75 h -1 v -2.75 h 1"
         id="path26"
         inkscape:connector-curvature="0"
         style="fill:#505050;fill-opacity:0.49019608;fill-rule:evenodd;stroke:none" />
    </g>
    <g
       id="shape1"
       transform="translate(13.45,15.55)">
      <path
         d="M 3.6,10.9 0.2,10.4 2.5,10.3 9,10.6 3.6,10.9 m -4.95,0.8 -0.55,3.8 q -0.7,-2.25 0.1,-4.3 0.4,-1.15 0.55,-0.15 l -0.1,0.65 M 2.5,14.3 0.55,13.7 5.7,13.75 6.05,14.4 2.5,14.3 m 6.75,1.05 Q 8.85,15.1 8.8,14.6 8.6,12.85 9.15,11.15 l 0.1,4.2"
         id="path29"
         inkscape:connector-curvature="0"
         style="fill:#717171;fill-rule:evenodd;stroke:none" />
      <path
         d="m 2.5,10.3 -2.3,0.1 3.4,0.5 2.1,2.85 -5.15,-0.05 1.95,0.6 -3.25,0.25 0.15,-4.2 -0.65,0.7 q -0.15,-1 -0.55,0.15 -0.8,2.05 -0.1,4.3 l 0.55,-3.8 0.3,2.9 7.65,0.9 2,5.65 H -8.2 L -4.7,8.2 2.5,10.3"
         id="path31"
         inkscape:connector-curvature="0"
         style="fill:#919191;fill-rule:evenodd;stroke:none" />
      <path
         d="M 3.6,10.9 9,10.6 2.5,10.3 -4.7,8.2 H 9.35 l 2.2,12.95 H 8.6 l -2,-5.65 -7.65,-0.9 -0.3,-2.9 0.1,-0.65 0.65,-0.7 -0.15,4.2 L 2.5,14.3 6.05,14.4 5.7,13.75 3.6,10.9 m 5.65,4.45 -0.1,-4.2 q -0.55,1.7 -0.35,3.45 0.05,0.5 0.45,0.75"
         id="path33"
         inkscape:connector-curvature="0"
         style="fill:#9f9f9f;fill-rule:evenodd;stroke:none" />
      <path
         d="m -9,21.15 h -3.55 l 2.2,-12.95 h 4.4 Q -6.85,10.75 -9,21.15"
         id="path35"
         inkscape:connector-curvature="0"
         style="fill:#888888;fill-rule:evenodd;stroke:none" />
      <path
         d="M -4.7,8.2 -8.2,21.15 H 8.6 11.55 L 9.35,8.2 H -4.7 M 12.5,21.55 12.1,22 h -25.2 l -0.35,-0.4 2.3,-14 h 21.3 L 12.5,21.55 M -9,21.15 Q -6.85,10.75 -5.95,8.2 h -4.4 l -2.2,12.95 H -9"
         id="path37"
         inkscape:connector-curvature="0"
         style="fill:#5e5e5e;fill-rule:evenodd;stroke:none" />
      <path
         d="m 3.5,-15 -0.45,0.65 q -0.4,-0.3 -0.4,-0.8 0,-0.4 0.4,-0.4 L 3.5,-15 m 2.7,0.35 q 0,0.6 -0.55,0.6 l -0.5,-0.55 q 0,-0.6 0.6,-0.6 0.45,0 0.45,0.55 m 3.1,3.8 q 0,0.55 -0.5,0.55 L 8.15,-10.85 8.2,-11.1 q -0.4,-0.1 -0.4,-0.5 l 0.55,-0.55 q 0.45,0 0.55,0.55 v 0.2 l 0.4,0.55 M 7.85,-9.3 7.5,-9.35 7.45,-9.65 q 0,-0.4 0.35,-0.4 0.4,0 0.4,0.4 0,0.35 -0.35,0.35 M 5.8,-11.2 q 0,0.6 -0.6,0.6 l -0.6,-0.6 q 0,-0.6 0.6,-0.6 0.65,0 0.6,0.6 m 1.7,4.15 q 0.45,0 0.55,0.55 v 0.1 l 0.8,-0.25 0.7,0.3 q 0.1,-0.35 0.55,-0.35 0.5,0 0.6,0.6 0,0.6 -0.6,0.6 l -0.25,-0.25 0.05,0.2 q 0,0.7 -0.45,0.95 l 0.1,0.55 0.55,-0.1 q 0.9,0 1.1,1.1 0,1.1 -1.1,1.1 L 9.7,-2 Q 9.6,-1.65 9.3,-1.65 L 8.8,-2.2 9.15,-2.6 9,-3.05 9.05,-3.3 H 8.9 L 8.3,-3.9 8.45,-4.55 7.85,-5 Q 7.7,-5.25 7.7,-5.55 L 7.8,-6.05 7.5,-6 Q 6.95,-6 6.95,-6.5 L 7.5,-7.05 M 8.35,-8.9 q 0,-0.45 0.45,-0.45 l 0.45,0.45 q 0,0.4 -0.4,0.4 -0.5,0 -0.5,-0.4 M 8.15,-7.75 8.1,-7.55 7.8,-7.4 7.5,-7.75 q 0,-0.4 0.3,-0.4 0.35,0 0.35,0.4 M 9.4,-7.5 q 0,-0.7 0.7,-0.7 0.45,0 0.55,0.7 0,0.6 -0.55,0.6 -0.7,0 -0.7,-0.6 M 4.6,-7.5 5,-8 5.3,-7.65 q 0,0.45 -0.4,0.45 L 4.6,-7.5 m 1.85,5.2 q -0.5,0 -0.5,-0.45 0,-0.45 0.45,-0.45 l 0.45,0.45 q 0,0.45 -0.4,0.45 m 4.95,-3.45 q 0,0.4 -0.3,0.4 L 10.75,-5.4 10.7,-5.7 q 0,-0.4 0.35,-0.4 l 0.35,0.35 M 7,2.25 Q 7,2.8 6.45,2.8 L 5.85,2.2 q 0,-0.55 0.6,-0.55 0.45,0 0.55,0.6 M 8.1,1 8.05,0.65 q 0,-0.95 0.85,-0.95 l 0.45,0.45 q 0,0.9 -0.95,0.9 L 8.1,1 m 0.05,19 q 0,0.55 -0.45,0.55 l -0.4,-0.5 q 0,-0.45 0.35,-0.45 0.5,0 0.5,0.4 M 9.5,17.95 9.05,17.45 9.65,16.8 11.1,18.95 11.05,19.9 10.45,20.5 9.3,20.4 8.7,18.9 9.5,17.95 m -1.85,-1.3 q 0,-0.55 0.6,-0.55 0.6,0 0.65,0.55 0,0.55 -0.75,0.55 L 7.65,16.65 M 7.15,17.85 7.1,17.6 q 0,-0.3 0.3,-0.3 l 0.35,0.15 0.05,0.15 -0.05,0.2 -0.3,0.1 -0.3,-0.05 m 2.2,-2.8 q 0,-0.6 0.65,-0.6 0.6,0 0.65,0.65 0,0.6 -0.55,0.6 L 9.35,15.05 M 8.75,14.5 7.9,15.05 7.35,14.5 8.75,13.6 v 0.9 m 1,-1.05 Q 9.3,13.45 9.3,13 q 0,-0.45 0.45,-0.45 0.5,0 0.5,0.45 0,0.45 -0.5,0.45 M 8.05,11.2 q 0.6,0 0.55,0.55 0,0.55 -0.55,0.55 L 7.5,11.7 q 0,-0.5 0.55,-0.5 m 1.6,-1.75 q 0,0.6 -0.5,0.6 L 8.5,9.45 q 0,-0.6 0.55,-0.6 0.65,0 0.6,0.6 m -3.1,-0.4 q 0,-0.7 0.9,-0.7 0.65,0 0.7,0.7 L 8.1,9.4 8.2,9.7 q 0,0.55 -0.7,0.55 L 7,9.75 6.6,9.45 6.55,9.05 M 4.95,10.1 4.25,9.55 q 0,-0.6 0.6,-0.6 0.5,0 0.6,0.55 0,0.6 -0.5,0.6"
         id="path39"
         inkscape:connector-curvature="0"
         style="fill:#cccccc;fill-rule:evenodd;stroke:none" />
      <path
         d="m -4.45,-13.2 q 0,0.55 -0.45,0.55 l -0.4,-0.1 -0.05,-0.45 q 0,-0.6 0.45,-0.6 l 0.45,0.6 m -6.3,6.15 q 0,0.55 -0.65,0.55 -0.4,0 -0.4,-0.5 0,-0.5 0.4,-0.5 0.65,0 0.65,0.45 m -1.2,3.55 q 0,-1.1 1.15,-1.1 0.6,0 0.9,0.3 L -10,-4.55 q 0,-1.1 1.2,-1.1 0.6,0 0.85,0.5 l 0.15,0.6 q 0,1.05 -1.1,1.05 -0.5,0 -0.8,-0.35 l 0.05,0.35 q 0,1.05 -1.1,1.05 -1.05,0 -1.2,-1.05 m 6.05,-6.3 q 0,0.6 -0.6,0.6 -0.5,0 -0.6,-0.55 0,-0.8 0.6,-0.8 l 0.6,0.75 m -3.05,0.45 q 0,0.65 -0.7,0.65 -0.6,0 -0.45,-0.55 0,-0.7 0.55,-0.7 l 0.6,0.6 m 0.75,-2.9 q -0.05,-0.65 0.6,-0.65 l 0.65,0.65 -0.65,0.6 q -0.65,0 -0.6,-0.6 m -1.65,5.75 q -0.45,0 -0.45,-0.45 0,-0.5 0.55,-0.5 l 0.25,0.05 q 0.1,-0.85 1.15,-0.85 l 0.8,0.5 0.2,0.6 v 0.35 l 0.3,-0.05 q 0.7,0 0.95,0.5 l 0.15,0.6 q 0,1.05 -1.1,1.05 -0.9,0 -1.1,-1.05 L -8.1,-6.1 h -0.35 q -0.75,0 -1,-0.5 l -0.4,0.1 m 0.95,4.45 q 0,-1.1 1.2,-1.1 0.55,0 0.8,0.5 l 0.2,0.6 q 0,1.05 -1.1,1.05 -1.05,0 -1.1,-1.05 m 6.2,4.95 q 0,0.4 -0.35,0.4 -0.55,0 -0.65,-0.55 L -3.25,2.35 -2.7,2.9 M -5,1.15 q -0.5,0 -0.5,-0.5 0,-0.5 0.5,-0.5 0.5,0 0.5,0.5 0,0.5 -0.5,0.5 m 0,3.05 -0.3,0.1 q -0.3,0 -0.35,-0.6 L -5.6,3.45 -5.4,3.4 -4.95,3.95 -5,4.2 m 1.95,-0.35 q 0.7,0 0.6,0.55 0,0.65 -0.6,0.65 -0.5,0 -0.6,-0.6 0,-0.6 0.6,-0.6 m -3,-1.55 q 0,1.15 -1.1,1.15 -1.05,0 -1.1,-1.15 0,-1.15 1.1,-1.15 1.1,0 1.1,1.15 M -9.8,0.1 q 0,-0.6 0.6,-0.6 l 0.65,0.55 q 0,0.65 -0.65,0.65 -0.5,0 -0.6,-0.6 m 0.25,10.55 Q -9.45,10 -9.4,10.6 l -0.15,0.05 m -0.45,-1.2 0.4,0.1 0.05,0.4 q 0,0.55 -0.45,0.55 -0.6,0 -0.45,-0.55 0,-0.5 0.45,-0.5 M -7.75,9.95 -8,10.15 -8.4,9.8 -8.15,9.55 q 0.35,0.15 0.4,0.4 M -8,8.25 q 0.4,0 0.4,0.4 0,0.4 -0.3,0.4 -0.5,0 -0.5,-0.4 0,-0.4 0.4,-0.4 m 4.2,-1.6 -0.35,-0.4 q 0,-0.45 0.4,-0.45 l 0.35,0.5 -0.4,0.35 m -6.45,9.1 q -1,-0.3 -0.2,-1 l 0.5,0.9 -0.3,0.1 m -0.8,2.55 -0.2,-0.7 1.15,-1 0.45,0.15 0.45,0.65 -0.2,1 -1.1,0.25 -0.05,1.45 h -1.55 l -0.2,-1.2 1.25,-0.6 M -10.5,13 q 0.3,0 0.3,0.45 0,0.45 -0.5,0.45 -0.5,0 -0.5,-0.45 0,-0.45 0.7,-0.45"
         id="path41"
         inkscape:connector-curvature="0"
         style="fill:#666666;fill-rule:evenodd;stroke:none" />
    </g>
  </defs>
</svg>
