<?xml version="1.0" encoding="UTF-8" standalone="no"?>
<svg xmlns:xlink="http://www.w3.org/1999/xlink" height="32.6px" width="37.45px" xmlns="http://www.w3.org/2000/svg">
  <g transform="matrix(1.0, 0.0, 0.0, 1.0, 15.8, 31.25)">
    <path d="M2.55 -31.2 L2.85 -30.95 3.35 -29.8 3.35 -29.75 3.75 -27.8 Q10.7 -27.75 16.45 -23.65 19.15 -21.75 20.95 -18.95 L21.35 -18.7 21.65 -18.0 21.65 -17.95 21.4 -17.35 Q21.2 -17.1 20.85 -17.0 L20.2 -17.05 20.05 -17.15 19.75 -17.35 18.7 -17.6 15.55 -18.0 15.5 -18.0 12.45 -17.6 Q10.8 -17.1 9.5 -15.9 L9.55 -15.95 9.15 -15.55 8.75 -15.3 8.25 -15.4 6.8 -16.2 6.85 -16.15 Q5.3 -16.85 3.75 -17.15 L3.45 -6.25 3.5 -6.2 3.7 -5.75 Q4.05 -3.1 3.6 -0.35 L3.75 0.15 3.6 0.6 3.25 1.05 2.85 1.35 2.45 1.35 1.75 1.25 1.7 1.25 1.25 1.3 0.8 1.05 0.6 0.6 Q0.3 -2.45 0.5 -4.25 0.6 -5.45 0.85 -6.05 L0.85 -6.3 1.25 -17.3 0.55 -17.25 Q-1.4 -17.05 -3.25 -16.2 L-3.8 -16.2 -6.3 -16.85 -6.35 -16.85 -11.1 -17.3 -14.8 -16.65 -15.25 -16.65 -15.65 -16.9 -15.8 -17.35 -15.65 -17.85 Q-13.55 -21.2 -8.35 -24.75 -6.05 -26.35 -2.95 -27.15 L1.2 -27.75 Q1.3 -29.3 1.7 -30.8 L1.9 -31.1 2.2 -31.25 2.55 -31.2" fill="#000000" fill-rule="evenodd" stroke="none"/>
    <path d="M20.55 -18.0 L20.65 -18.0 20.65 -17.95 Q20.55 -18.0 20.55 -18.0" fill="#cc3300" fill-rule="evenodd" stroke="none"/>
    <path d="M2.95 -24.95 L2.8 -24.75 2.7 -24.7 2.65 -24.65 Q2.35 -24.55 2.15 -24.75 L2.1 -24.7 1.95 -24.7 1.85 -24.75 1.75 -26.0 Q1.7 -28.35 2.3 -30.65 L2.7 -27.25 2.95 -24.95" fill="#999999" fill-rule="evenodd" stroke="none"/>
    <path d="M2.95 -24.95 L2.7 -27.25 2.3 -30.65 2.75 -29.6 Q3.45 -27.25 2.95 -24.95" fill="#333333" fill-rule="evenodd" stroke="none"/>
    <path d="M4.75 -26.9 Q4.95 -26.65 5.25 -26.55 6.8 -25.8 8.1 -24.65 L10.6 -21.85 Q11.75 -20.3 12.15 -18.35 10.4 -17.8 9.0 -16.45 L9.25 -16.75 Q9.25 -23.45 3.5 -27.0 L3.45 -27.05 3.55 -27.05 4.75 -26.9 M-3.6 -16.95 L-6.15 -17.6 -11.1 -18.1 -11.1 -18.2 Q-10.4 -19.9 -9.2 -21.4 -7.1 -24.1 -4.2 -25.8 L-3.6 -26.0 Q-3.1 -26.15 -2.75 -26.35 L1.9 -27.0 Q-2.85 -23.95 -3.45 -18.35 L-3.6 -16.95" fill="#ffffff" fill-rule="evenodd" stroke="none"/>
    <path d="M12.15 -18.35 Q11.75 -20.3 10.6 -21.85 L8.1 -24.65 Q6.8 -25.8 5.25 -26.55 4.95 -26.65 4.75 -26.9 L8.3 -26.15 11.75 -24.85 14.75 -23.25 17.45 -21.3 19.9 -18.6 20.3 -18.05 18.85 -18.35 15.55 -18.8 12.15 -18.35 M-11.1 -18.1 L-15.0 -17.4 Q-12.95 -20.65 -7.85 -24.1 -5.7 -25.65 -2.75 -26.35 -3.1 -26.15 -3.6 -26.0 L-4.2 -25.8 Q-7.1 -24.1 -9.2 -21.4 -10.4 -19.9 -11.1 -18.2 L-11.1 -18.1" fill="#cccccc" fill-rule="evenodd" stroke="none"/>
    <path d="M4.75 -26.9 L3.55 -27.05 Q10.4 -27.0 15.95 -23.0 18.8 -21.05 20.65 -18.0 L20.5 -18.0 20.3 -18.05 19.9 -18.6 17.45 -21.3 14.75 -23.25 11.75 -24.85 8.3 -26.15 4.75 -26.9 M3.45 -27.05 L3.5 -27.0 3.4 -26.85 3.2 -26.55 Q3.0 -25.8 2.4 -25.25 L2.25 -25.0 0.9 -21.75 0.5 -19.5 0.5 -18.6 0.45 -18.05 Q-1.55 -17.85 -3.6 -16.95 L-3.45 -18.35 Q-2.85 -23.95 1.9 -27.0 L3.45 -27.05" fill="#6633ff" fill-rule="evenodd" stroke="none"/>
    <path d="M3.5 -27.0 Q9.25 -23.45 9.25 -16.75 L9.0 -16.45 8.6 -16.1 7.15 -16.9 Q3.8 -18.4 0.45 -18.05 L0.5 -18.6 0.5 -19.5 0.9 -21.75 2.25 -25.0 2.4 -25.25 Q3.0 -25.8 3.2 -26.55 L3.4 -26.85 3.5 -27.0" fill="#6699ff" fill-rule="evenodd" stroke="none"/>
    <path d="M1.65 -6.25 L2.1 -18.3 2.35 -13.35 Q2.45 -10.05 1.65 -6.25" fill="#ffffff" fill-rule="evenodd" stroke="none"/>
    <path d="M1.65 0.45 L1.4 0.5 Q1.1 -2.4 1.3 -4.15 L1.6 -5.95 1.65 -6.25 Q2.45 -10.05 2.35 -13.35 L2.1 -18.3 2.45 -19.4 3.0 -18.8 2.65 -5.95 2.9 -5.65 2.25 -4.55 Q1.25 -2.2 1.65 0.45" fill="#999999" fill-rule="evenodd" stroke="none"/>
    <path d="M2.9 -5.65 Q3.25 -3.0 2.75 -0.15 L2.95 0.1 2.6 0.6 1.65 0.45 Q1.25 -2.2 2.25 -4.55 L2.9 -5.65" fill="#333333" fill-rule="evenodd" stroke="none"/>
  </g>
</svg>
