<?xml version="1.0" encoding="UTF-8" standalone="no"?>
<svg xmlns:xlink="http://www.w3.org/1999/xlink" height="32.95px" width="16.55px" xmlns="http://www.w3.org/2000/svg">
  <g transform="matrix(1.0, 0.0, 0.0, 1.0, 10.15, 32.7)">
    <path d="M-0.8 -7.1 L-2.5 -6.9 -9.8 -32.35 -0.8 -30.5 5.65 -7.8 3.95 -7.6 -0.8 -7.1" fill="#33ccff" fill-rule="evenodd" stroke="none"/>
    <path d="M3.95 -7.55 L5.9 -0.8 1.15 -0.25 -0.8 -7.05 3.95 -7.55" fill="#3c0000" fill-rule="evenodd" stroke="none"/>
    <path d="M5.9 -0.8 L5.9 -0.6 1.2 -0.1 1.15 -0.25 5.9 -0.8" fill="#ab4638" fill-rule="evenodd" stroke="none"/>
    <path d="M-0.8 -7.1 L-2.5 -6.9 -9.8 -32.35 -0.8 -30.5 5.65 -7.8 3.95 -7.6 -0.8 -7.1" fill="none" stroke="#014454" stroke-linecap="round" stroke-linejoin="round" stroke-width="0.75"/>
    <path d="M3.95 -7.55 L5.9 -0.8 1.15 -0.25 -0.8 -7.05 -0.8 -7.1 M3.95 -7.6 L3.95 -7.55" fill="none" stroke="#732e26" stroke-linecap="round" stroke-linejoin="round" stroke-width="1.0"/>
    <path d="M-2.8 -27.8 L-2.85 -27.9 -1.9 -27.65 Q-2.0 -26.95 -1.7 -25.85 -0.95 -23.2 1.9 -16.2 2.35 -12.45 2.85 -10.35 3.05 -9.2 3.65 -8.5 L3.3 -8.45 Q2.3 -8.35 1.9 -8.85 L1.45 -11.55 -1.7 -21.75 -2.8 -27.8" fill="#503ff3" fill-rule="evenodd" stroke="none"/>
    <path d="M-0.65 -8.65 L-1.85 -11.45 -2.35 -12.8 Q-4.05 -21.15 -7.2 -29.35 L-4.2 -28.3 Q-2.8 -25.55 -2.5 -22.55 -2.35 -21.0 -1.7 -19.5 0.8 -13.85 0.4 -8.6 L-0.65 -8.65" fill="#e9e7fe" fill-rule="evenodd" stroke="none"/>
  </g>
</svg>
