<?xml version="1.0" encoding="UTF-8" standalone="no"?>
<svg xmlns:xlink="http://www.w3.org/1999/xlink" height="29.2px" width="23.2px" xmlns="http://www.w3.org/2000/svg">
  <g transform="matrix(1.0, 0.0, 0.0, 1.0, 9.4, 28.45)">
    <path d="M-6.55 -27.95 Q-4.55 -19.4 1.0 -16.25 L-3.1 -15.15 Q-6.75 -21.5 -6.55 -27.95" fill="#525252" fill-rule="evenodd" stroke="none"/>
    <path d="M-6.55 -27.95 Q-4.55 -19.4 1.0 -16.25 L-3.1 -15.15 Q-6.75 -21.5 -6.55 -27.95 Z" fill="none" stroke="#000000" stroke-linecap="round" stroke-linejoin="round" stroke-width="1.0"/>
    <path d="M2.35 -24.1 Q5.35 -23.8 7.55 -22.3 10.4 -20.4 10.4 -17.75 L10.2 -16.25 10.75 -14.65 12.55 -7.9 13.3 -4.3 Q12.5 -2.7 10.3 -1.5 7.85 -0.15 4.7 0.25 4.15 0.0 4.0 -0.5 3.35 -2.1 2.8 -5.3 L1.25 -11.15 1.2 -11.3 -2.05 -11.45 -3.25 -11.55 Q-5.35 -11.9 -6.4 -12.95 L-7.55 -14.25 -7.9 -14.8 2.35 -14.8 2.35 -24.1" fill="url(#gradient0)" fill-rule="evenodd" stroke="none"/>
    <path d="M-3.25 -11.55 L-5.75 -10.5 -8.0 -8.7 -8.0 -11.9 -7.55 -14.25 -6.4 -12.95 Q-5.35 -11.9 -3.25 -11.55" fill="#525252" fill-rule="evenodd" stroke="none"/>
    <path d="M2.35 -24.1 Q5.35 -23.8 7.55 -22.3 10.4 -20.4 10.4 -17.75 L10.2 -16.25 10.75 -14.65 12.55 -7.9 13.3 -4.3 Q12.5 -2.7 10.3 -1.5 7.85 -0.15 4.7 0.25 4.15 0.0 4.0 -0.5 3.35 -2.1 2.8 -5.3 L1.25 -11.15 1.2 -11.3 -2.05 -11.45 -3.25 -11.55 -5.75 -10.5 -8.0 -8.7 -8.0 -11.9 -7.55 -14.25 -7.9 -14.8 M-3.25 -11.55 Q-5.35 -11.9 -6.4 -12.95 L-7.55 -14.25" fill="none" stroke="#000000" stroke-linecap="round" stroke-linejoin="round" stroke-width="1.0"/>
    <path d="M-8.7 -18.9 Q-8.2 -18.95 -7.5 -19.5 L-6.65 -20.25 -5.45 -21.55 Q-3.2 -24.2 0.8 -24.15 L2.35 -24.1 2.35 -14.8 -7.9 -14.8 -8.15 -15.25 -8.35 -15.65 -8.4 -15.75 -8.5 -15.95 -8.55 -16.05 -8.85 -17.75 -8.8 -18.25 -8.7 -18.9" fill="url(#gradient1)" fill-rule="evenodd" stroke="none"/>
    <path d="M-8.7 -18.9 L-8.85 -18.4 -8.7 -18.9" fill="#666666" fill-rule="evenodd" stroke="none"/>
    <path d="M-8.7 -18.9 Q-8.2 -18.95 -7.5 -19.5 L-6.65 -20.25 -5.45 -21.55 Q-3.2 -24.2 0.8 -24.15 L2.35 -24.1 M-7.9 -14.8 L-8.15 -15.25 -8.35 -15.65 -8.4 -15.75 -8.5 -15.95 -8.55 -16.05 -8.85 -17.75 -8.8 -18.25 -8.7 -18.9 -8.85 -18.4 -8.9 -18.4 -8.7 -18.9 -8.85 -18.4" fill="none" stroke="#000000" stroke-linecap="round" stroke-linejoin="round" stroke-width="1.0"/>
    <path d="M4.6 -10.9 Q7.9 -10.4 9.15 -12.0 M5.7 -5.8 Q8.95 -5.55 10.05 -7.05 M10.15 -3.45 L9.85 -2.85 Q8.85 -2.2 7.55 -2.45 M3.6 -14.25 L0.75 -13.95 -1.8 -14.35 -3.2 -14.8" fill="none" stroke="#333333" stroke-linecap="round" stroke-linejoin="round" stroke-width="1.0"/>
    <path d="M-3.2 -14.8 Q-4.2 -15.15 -4.8 -15.8 -5.95 -16.95 -6.55 -18.1 L-6.75 -18.5" fill="none" stroke="#333333" stroke-linecap="round" stroke-linejoin="round" stroke-width="1.0"/>
    <path d="M8.25 -19.35 Q8.25 -19.05 7.85 -19.05 L4.95 -21.0 4.95 -21.2 Q4.95 -21.6 5.6 -21.6 6.7 -21.6 7.5 -20.6 L8.25 -19.35 M4.05 -19.5 Q5.7 -19.5 5.25 -17.4 5.25 -15.85 4.05 -15.45 L3.9 -15.65 4.25 -17.4 Q4.65 -18.05 3.8 -19.35 L4.05 -19.5 M0.2 -19.55 L-0.85 -17.55 -1.95 -15.95 -1.95 -15.9 -2.15 -15.8 -2.4 -16.3 Q-2.4 -18.8 0.0 -19.8 L0.2 -19.55 M0.85 -15.5 Q0.45 -15.75 0.7 -17.2 L1.0 -18.55 Q1.15 -19.3 1.5 -19.5 2.25 -18.8 2.25 -17.15 2.25 -15.55 1.5 -15.15 L0.85 -15.5 M-1.8 -20.3 L-5.4 -17.55 -5.7 -17.55 -5.7 -18.2 Q-3.9 -20.7 -2.6 -20.7 L-1.85 -20.55 -1.8 -20.3" fill="#999999" fill-rule="evenodd" stroke="none"/>
    <path d="M7.9 -17.4 Q10.95 -18.2 12.95 -26.75 14.3 -16.75 5.75 -12.65 L7.9 -17.4" fill="#525252" fill-rule="evenodd" stroke="none"/>
    <path d="M5.75 -12.65 Q14.3 -16.75 12.95 -26.75 10.95 -18.2 7.9 -17.4" fill="none" stroke="#000000" stroke-linecap="round" stroke-linejoin="round" stroke-width="1.0"/>
    <path d="M4.9 -21.35 L4.45 -20.3 Q3.4 -19.9 2.35 -19.85 -0.15 -19.65 -2.4 -21.3 L-2.1 -21.65 Q-0.05 -22.9 2.35 -22.65 L4.15 -22.3 4.9 -21.35 M-2.95 -19.25 Q-2.95 -18.35 -4.2 -18.35 -5.55 -18.35 -5.55 -19.5 -5.55 -20.55 -4.8 -20.55 -2.95 -20.55 -2.95 -19.25" fill="#ffffff" fill-rule="evenodd" stroke="none"/>
    <path d="M-6.05 -16.4 Q-5.5 -15.35 -3.5 -14.15 -1.5 -12.95 -0.85 -13.15 -1.05 -12.35 -2.85 -12.85 -5.65 -13.6 -6.4 -15.2 L-6.5 -15.45 -6.85 -17.35 Q-6.6 -17.55 -6.05 -16.4" fill="#ffffff" fill-rule="evenodd" stroke="none"/>
  </g>
  <defs>
    <radialGradient cx="0" cy="0" fx="-1401.6000000000001" fy="0" gradientTransform="matrix(0.0166, 0.0204, -0.0254, 0.0207, 0.0, -18.2)" gradientUnits="userSpaceOnUse" id="gradient0" r="819.2" spreadMethod="pad">
      <stop offset="0.33725490196078434" stop-color="#cccccc"/>
      <stop offset="1.0" stop-color="#333333"/>
    </radialGradient>
    <radialGradient cx="0" cy="0" fx="-1401.6000000000001" fy="0" gradientTransform="matrix(0.0166, 0.0204, -0.0254, 0.0207, 0.0, -18.2)" gradientUnits="userSpaceOnUse" id="gradient1" r="819.2" spreadMethod="pad">
      <stop offset="0.33725490196078434" stop-color="#cccccc"/>
      <stop offset="1.0" stop-color="#333333"/>
    </radialGradient>
  </defs>
</svg>
