<?xml version="1.0" encoding="UTF-8" standalone="no"?>
<svg
   xmlns:dc="http://purl.org/dc/elements/1.1/"
   xmlns:cc="http://creativecommons.org/ns#"
   xmlns:rdf="http://www.w3.org/1999/02/22-rdf-syntax-ns#"
   xmlns:svg="http://www.w3.org/2000/svg"
   xmlns="http://www.w3.org/2000/svg"
   xmlns:xlink="http://www.w3.org/1999/xlink"
   xmlns:sodipodi="http://sodipodi.sourceforge.net/DTD/sodipodi-0.dtd"
   xmlns:inkscape="http://www.inkscape.org/namespaces/inkscape"
   height="33.638748"
   width="32.335209"
   version="1.1"
   id="svg35"
   sodipodi:docname="60.svg"
   inkscape:version="0.92.1 r15371">
  <metadata
     id="metadata39">
    <rdf:RDF>
      <cc:Work
         rdf:about="">
        <dc:format>image/svg+xml</dc:format>
        <dc:type
           rdf:resource="http://purl.org/dc/dcmitype/StillImage" />
        <dc:title></dc:title>
      </cc:Work>
    </rdf:RDF>
  </metadata>
  <sodipodi:namedview
     pagecolor="#ffffff"
     bordercolor="#666666"
     borderopacity="1"
     objecttolerance="10"
     gridtolerance="10"
     guidetolerance="10"
     inkscape:pageopacity="0"
     inkscape:pageshadow="2"
     inkscape:window-width="818"
     inkscape:window-height="480"
     id="namedview37"
     showgrid="false"
     fit-margin-top="0"
     fit-margin-left="0"
     fit-margin-right="0"
     fit-margin-bottom="0"
     inkscape:zoom="3.4528165"
     inkscape:cx="16.918511"
     inkscape:cy="19.567426"
     inkscape:window-x="0"
     inkscape:window-y="27"
     inkscape:window-maximized="0"
     inkscape:current-layer="svg35" />
  <g
     transform="translate(16.168511,33.646325)"
     id="g6">
    <use
       height="27.950001"
       transform="matrix(1.2143,0,0,1.2143,-16.1392,-33.9499)"
       width="26.6"
       xlink:href="#sprite0"
       id="use2"
       x="0"
       y="0" />
    <use
       height="12.85"
       transform="translate(-8.95,-16.6)"
       width="18"
       xlink:href="#shape1"
       id="use4"
       x="0"
       y="0" />
  </g>
  <defs
     id="defs33">
    <g
       id="sprite0"
       transform="translate(13.25,14)">
      <use
         height="27.950001"
         transform="translate(-13.25,-14)"
         width="26.6"
         xlink:href="#shape0"
         id="use8"
         x="0"
         y="0" />
    </g>
    <g
       id="shape0"
       transform="translate(13.25,14)">
      <path
         d="M 5.55,-8.85 Q 8.6,-6.9 4.9,-5.1 3.6,-4.5 4.4,-3.7 7.55,-1 11,1.45 12.65,2.65 13.15,4.3 13.9,7.1 11.9,9.6 9.5,12.7 4.15,13.6 -1,14.5 -5.95,13.1 -10.5,11.7 -12.4,8.9 -14.35,5.85 -11.95,3 q 2.3,-2.85 6.3,-5 1.75,-1 2.35,-2.35 -3.9,-1.6 -2.6,-3.95 0.35,-0.5 1.2,-0.7 l 9.7,0.05 0.55,0.1"
         id="path11"
         inkscape:connector-curvature="0"
         style="fill:#000000;fill-rule:evenodd;stroke:none" />
      <path
         d="m 3.4,-13.5 1,0.9 0.05,0.05 q 3.2,3.2 -2.35,5.45 L 2,-7.05 1.2,-6.75 0.55,-6.7 h -0.6 q -3.95,-0.8 -5,-2.45 -1.25,-1.55 0.5,-3.8 l 0.8,-0.5 6.45,-0.3 0.7,0.25"
         id="path13"
         inkscape:connector-curvature="0"
         style="fill:#000000;fill-rule:evenodd;stroke:none" />
      <path
         d="m 3.65,-12.05 q 2.7,2.7 -2,4.6 l -0.9,0.3 q -6.9,-1.4 -3.85,-5.4 l 5.85,-0.3 0.9,0.8 m -3.85,2.6 0.9,-0.65 q 1.7,-0.9 0.5,-1.95 -0.75,-0.7 -2,-0.75 -2.4,0.75 -2.4,2.4 l 0.1,0.4 q 0.5,0.95 2.2,0.75 l 0.7,-0.2"
         id="path15"
         inkscape:connector-curvature="0"
         style="fill:#b59364;fill-rule:evenodd;stroke:none" />
      <path
         d="m -0.2,-9.45 -0.7,0.2 q -1.7,0.2 -2.2,-0.75 l -0.1,-0.4 q 0,-1.65 2.4,-2.4 1.25,0.05 2,0.75 1.2,1.05 -0.5,1.95 l -0.9,0.65"
         id="path17"
         inkscape:connector-curvature="0"
         style="fill:#d1bc9e;fill-rule:evenodd;stroke:none" />
      <path
         d="m 0.45,-7.8 -0.15,0.4 -1.65,0.2 q -1,-0.2 -1.5,-0.75 l 0.35,-0.2 h 1.15 l 1.55,0.25 0.2,0.1 h 0.05 m -2.55,4.45 0.75,-0.6 0.6,1.35 q -0.7,0.8 -0.7,1.4 l -0.15,0.55 q -0.9,1.6 -2.65,3 l -0.65,0.55 2,-4.7 -2,0.7 1,-0.75 h 0.1 l 0.15,-0.2 q 0.1,-0.05 0.1,-0.05 l 0.05,-0.05 1.4,-1.2 M -6.2,7.6 Q -9.25,5.2 -4.4,3.6 -0.3,6.5 -5.3,7.9 -5.7,8 -6.2,7.6 M 5.8,0.85 5.25,0.75 2.85,-1.55 5.8,0.85 M 6.15,8.8 8.45,6.5 Q 9.75,8 7.6,9 L 6.95,9.25 6.15,8.8"
         id="path19"
         inkscape:connector-curvature="0"
         style="fill:#ffffff;fill-rule:evenodd;stroke:none" />
      <path
         d="m 1.35,-8.5 h 3.8 q 0.9,0.3 0.9,1 -0.05,0.7 -1,1.2 L 3.65,-5.55 3,-4.8 Q 2.75,-4.4 3,-4 l 0.75,0.95 2.65,1.9 Q 7.7,-0.3 9.2,0.6 l 1.2,0.9 v 0.1 l 1.1,1.1 0.15,0.4 h 0.1 q 0.75,1 0.75,2.5 V 5.85 L 12,8 11.5,8.8 11.25,9.15 10.6,9.8 10.35,10 9,11.05 8.85,11.1 8.7,11.2 7.15,11.95 6.55,12.2 H 6.45 L 5.8,12.35 4,12.8 3.5,12.85 1.95,13 -1,13.05 -4.65,12.45 -5.3,12.3 H -5.4 L -5.45,12.25 Q -7.2,11.8 -8.5,11 L -9.1,10.6 Q -10.8,9.55 -11.4,8.1 L -11.7,7.25 -11.8,7.2 Q -12.95,4.4 -9.9,1.5 -9.35,1 -8.6,0.6 l 0.9,-0.55 1.15,-0.7 0.85,-0.5 0.9,-0.6 0.25,-0.2 0.9,-0.65 0.25,-0.2 v -0.05 l 0.1,-0.05 h 0.05 l 0.5,-0.5 0.15,-0.15 0.45,-0.6 q 0.05,-0.55 -0.45,-1 L -3.75,-5.9 -4.9,-6.6 -5.4,-7.25 V -7.8 q 0.2,-0.45 0.85,-0.7 h 0.5 l 0.3,0.55 q 2,2 5.55,0.35 L 1.35,-8.5 m 0,3.6 0.45,1.8 Q 2.5,-0.6 5,1.45 l 1.4,1.3 Q 8.45,5.7 5.55,8.4 3.85,9.95 2.75,11.6 6.9,12.3 9.85,8.9 12.7,5.5 8.2,2.2 3.65,-1.15 1.35,-4.9 m -2.1,2.3 0.3,-1.4 q 0.35,-1.1 -0.8,-2.3 l -0.1,0.6 -0.75,2.35 -1.4,1.2 -0.05,0.05 q 0,0 -0.1,0.05 l -0.15,0.2 h -0.1 l -0.6,0.3 -2.55,1.6 Q -9.6,2 -10.65,4.45 l -0.4,1.1 0.25,0.1 h 0.5 q 0.7,-2 2.7,-3.7 l 1.25,-1 2.05,-1.7 L -8,3.4 q -1.5,2.1 -0.65,4.5 0.95,2.75 5.55,1.75 2.55,-0.6 3.25,-2.2 0.8,-2.15 -1.5,-3.8 l 0.6,-6.25 m 1.4,3.85 -0.1,0.2 Q 0.4,3.05 1.3,4.6 l 0.95,1.1 q 0.6,0.55 1.6,0.2 L 4.4,5.65 4.6,5.4 Q 4.75,4.05 4.1,2.8 L 3.4,1.65 Q 2.95,0.7 1.3,0.4 0.8,0.45 0.65,0.65 q -0.35,0.3 0,0.6"
         id="path21"
         inkscape:connector-curvature="0"
         style="fill:#0088ca;fill-rule:evenodd;stroke:none" />
      <path
         d="M 0.45,-7.8 H 0.4 L 0.2,-7.9 -1.35,-8.15 H -2.5 l -0.35,0.2 q 0.5,0.55 1.5,0.75 L 0.3,-7.4 0.45,-7.8 m 0.9,-0.7 0.45,0.9 q -3.55,1.65 -5.55,-0.35 l -0.3,-0.55 h 5.4 m 0,3.6 Q 3.65,-1.15 8.2,2.2 12.7,5.5 9.85,8.9 6.9,12.3 2.75,11.6 3.85,9.95 5.55,8.4 8.45,5.7 6.4,2.75 L 5,1.45 Q 2.5,-0.6 1.8,-3.1 L 1.35,-4.9 m -3.45,1.55 0.75,-2.35 0.1,-0.6 q 1.15,1.2 0.8,2.3 l -0.3,1.4 -0.6,-1.35 -0.75,0.6 m 1.35,0.75 -0.6,6.25 q 2.3,1.65 1.5,3.8 -0.7,1.6 -3.25,2.2 -4.6,1 -5.55,-1.75 Q -9.5,5.5 -8,3.4 l 3.7,-4.15 -2.05,1.7 -1.25,1 q -2,1.7 -2.7,3.7 h -0.5 l -0.25,-0.1 0.4,-1.1 Q -9.6,2 -7.05,0.05 l 2.55,-1.6 0.6,-0.3 -1,0.75 2,-0.7 -2,4.7 0.65,-0.55 q 1.75,-1.4 2.65,-3 l 0.15,-0.55 q 0,-0.6 0.7,-1.4 M -6.2,7.6 q 0.5,0.4 0.9,0.3 5,-1.4 0.9,-4.3 -4.85,1.6 -1.8,4 m 12,-6.75 -2.95,-2.4 2.4,2.3 0.55,0.1 M 6.15,8.8 6.95,9.25 7.6,9 Q 9.75,8 8.45,6.5 l -2.3,2.3"
         id="path23"
         inkscape:connector-curvature="0"
         style="fill:#82d7ff;fill-rule:evenodd;stroke:none" />
      <path
         d="M 0.65,1.25 Q 0.3,0.95 0.65,0.65 0.8,0.45 1.3,0.4 2.95,0.7 3.4,1.65 L 4.1,2.8 Q 4.75,4.05 4.6,5.4 L 4.4,5.65 3.85,5.9 q -1,0.35 -1.6,-0.2 L 1.3,4.6 Q 0.4,3.05 0.55,1.45 l 0.1,-0.2"
         id="path25"
         inkscape:connector-curvature="0"
         style="fill:#00a8d9;fill-rule:evenodd;stroke:none" />
    </g>
    <g
       id="shape1"
       transform="translate(8.95,16.6)">
      <path
         d="m -1.6,-15.75 0.05,0.15 0.15,0.5 v 0.2 0.15 q 3.55,-1.85 4.75,-1.85 0.85,0 1.15,0.65 l 0.1,0.15 0.05,0.5 v 0.25 l -0.3,1 q 1.8,-1.2 2.75,-1.5 l 0.1,-0.05 -0.1,0.05 0.55,-0.15 0.65,0.15 0.05,0.05 H 8.4 l 0.45,0.5 0.05,0.15 0.1,0.35 0.05,0.4 -0.25,0.35 -0.1,0.1 -0.95,1.55 0.05,0.85 v 0.15 q -0.25,1.15 -1.4,1.15 -0.7,0 -1.05,-0.5 L 5.3,-10.55 Q 5.15,-10.8 5.15,-11.2 l -1.55,0.8 q 0.6,0.05 0.9,0.65 l 0.1,0.15 0.05,0.5 v 0.2 l -0.3,1.05 q 1.8,-1.2 2.75,-1.5 L 7.2,-9.4 7.1,-9.35 7.65,-9.5 8.3,-9.35 8.35,-9.3 H 8.4 l 0.45,0.5 0.05,0.15 0.1,0.3 0.05,0.4 -0.25,0.4 -0.1,0.1 -0.95,1.55 0.05,0.85 v 0.15 q -0.25,1.15 -1.4,1.15 -0.7,0 -1.05,-0.5 L 5.3,-4.35 Q 5.15,-4.6 5.15,-5 3.05,-3.9 2.35,-3.9 H 2.3 q -0.85,0 -1.2,-0.3 L 0.95,-4.3 Q 0.55,-4.65 0.7,-5.25 V -5.3 l 0.35,-1.1 -1.6,0.7 q -2.25,1.1 -3.1,1.1 H -3.7 q -1.05,0 -1.35,-0.55 l -0.1,-0.15 q -0.2,-0.35 -0.05,-0.95 l -2,0.95 -0.35,0.05 Q -8.7,-5.3 -8.9,-6.05 l -0.05,-0.5 0.3,-0.4 q 4.9,-3.45 5.6,-3.4 1.05,0 1.45,0.75 l 0.05,0.2 0.15,0.5 v 0.15 0.2 l 3.25,-1.5 q -0.5,-0.1 -0.75,-0.3 l -0.15,-0.1 q -0.4,-0.4 -0.25,-1 l 0.35,-1.15 -1.6,0.75 q -2.25,1.1 -3.1,1.1 H -3.7 q -1.05,0 -1.35,-0.55 l -0.1,-0.15 q -0.2,-0.4 -0.05,-0.95 l -2,0.9 -0.35,0.05 q -1.15,0 -1.35,-0.8 l -0.05,-0.45 0.3,-0.4 q 4.9,-3.5 5.6,-3.45 1.05,0 1.45,0.8 m -0.65,1.5 v -0.05 0.05 M 8.35,-15.5 H 8.3 8.35 m 0,6.2 -0.05,-0.05 0.05,0.05"
         id="path28"
         inkscape:connector-curvature="0"
         style="fill:#000000;fill-rule:evenodd;stroke:none" />
      <path
         d="m -2.25,-15.4 0.1,0.45 q 0,0.25 -0.3,0.85 l -0.05,0.2 0.1,0.2 0.25,0.1 0.2,-0.05 q 4.05,-2.2 5.3,-2.25 0.35,0 0.5,0.3 l 0.05,0.35 -0.55,2.05 v 0.25 l 0.15,0.1 0.2,0.1 0.2,-0.1 q 2.35,-1.7 3.45,-2 l 0.05,-0.05 0.25,-0.05 0.3,0.05 v 0.05 l 0.25,0.2 0.1,0.35 -0.2,0.15 -0.05,0.15 -0.95,1.6 -0.1,0.2 0.05,1 q -0.1,0.5 -0.65,0.5 -0.3,0 -0.45,-0.2 l -0.1,-0.85 v -0.05 -0.05 l -0.05,-0.3 -0.2,-0.1 -0.3,0.05 q -2.25,1.35 -3,1.4 l -0.8,-0.15 -0.1,-0.4 v -0.1 L 2,-13 l 0.05,-0.25 -0.1,-0.15 -0.25,-0.15 -2.55,1 q -2.05,1 -2.85,1.05 l -0.75,-0.25 q -0.15,-0.4 0.1,-1.1 l 0.05,-0.2 -0.15,-0.2 -0.2,-0.1 q -0.5,-0.05 -2.9,1.2 -0.55,-0.05 -0.7,-0.35 4.6,-3.25 5.2,-3.3 0.55,0 0.8,0.4 M 8.3,-8.1 8.1,-7.95 8.05,-7.8 7.1,-6.25 7,-6 7.05,-5 q -0.1,0.5 -0.65,0.5 -0.3,0 -0.45,-0.2 L 5.85,-5.6 V -5.7 L 5.8,-5.95 5.6,-6.05 5.3,-6 q -2.25,1.35 -3,1.4 L 1.5,-4.75 1.4,-5.15 v -0.1 l 0.6,-1.6 0.05,-0.2 -0.1,-0.2 -0.25,-0.1 -2.55,1 q -2.05,1 -2.85,1.05 -0.6,0 -0.75,-0.3 -0.15,-0.35 0.1,-1.05 l 0.05,-0.2 -0.15,-0.25 -0.2,-0.05 q -0.5,-0.05 -2.9,1.15 -0.55,0 -0.7,-0.3 4.6,-3.3 5.2,-3.3 0.55,0 0.8,0.4 l 0.1,0.4 q 0,0.3 -0.3,0.85 l -0.05,0.25 0.1,0.15 0.25,0.15 0.2,-0.05 q 4.05,-2.2 5.3,-2.25 l 0.5,0.25 V -9.4 L 3.9,-9.05 3.35,-7 v 0.2 l 0.15,0.15 0.2,0.1 0.2,-0.1 q 2.35,-1.7 3.45,-2 l 0.05,-0.05 0.25,-0.1 0.3,0.1 v 0.05 l 0.25,0.2 0.1,0.35"
         id="path30"
         inkscape:connector-curvature="0"
         style="fill:#ffffff;fill-rule:evenodd;stroke:none" />
    </g>
  </defs>
</svg>
