<?xml version="1.0" encoding="UTF-8" standalone="no"?>
<svg xmlns:xlink="http://www.w3.org/1999/xlink" height="26.45px" width="55.75px" xmlns="http://www.w3.org/2000/svg">
  <g transform="matrix(1.0, 0.0, 0.0, 1.0, 26.1, 25.0)">
    <path d="M15.0 -24.95 L16.25 -24.8 17.15 -24.25 17.55 -21.95 20.8 -23.45 21.65 -23.1 23.85 -23.65 Q25.35 -23.35 26.45 -22.2 27.4 -21.1 27.35 -19.8 L21.7 -17.8 23.45 -17.25 25.65 -16.9 26.45 -15.8 24.95 -12.7 Q27.05 -11.7 28.5 -9.95 L29.65 -7.95 Q25.95 -6.7 24.3 -3.55 L25.15 -1.9 24.65 -0.85 Q22.3 0.1 19.5 0.3 L17.6 0.3 16.8 1.45 10.5 1.45 5.05 0.15 -25.7 -0.35 -26.1 -1.4 -25.9 -2.65 Q-25.3 -4.5 -24.6 -4.0 -25.05 -6.95 -24.85 -7.85 -24.3 -11.0 -21.55 -12.7 L-12.15 -12.3 Q-10.35 -13.3 -8.1 -13.95 L-5.6 -14.55 Q-5.45 -17.95 -2.0 -18.55 L4.05 -19.45 10.65 -20.4 10.7 -22.2 10.65 -24.15 Q12.15 -25.05 14.1 -25.0 L15.0 -24.95 M16.5 -21.3 L16.15 -23.7 15.9 -23.8 11.7 -23.7 11.95 -20.7 12.1 -19.25 12.1 -19.1 11.4 -18.8 10.95 -19.3 1.8 -18.2 -1.7 -17.45 Q-4.1 -17.1 -4.2 -16.45 L-4.4 -15.5 -4.4 -15.15 -4.3 -13.5 -7.65 -13.35 -9.8 -12.25 -9.9 -12.2 -11.7 -11.25 -21.1 -11.65 -24.05 -8.8 -24.2 -8.55 -24.25 -8.25 -24.05 -4.3 -24.1 -3.6 -24.5 -3.25 Q-25.2 -2.95 -24.8 -1.8 L-24.5 -0.95 1.05 -0.9 10.6 1.05 14.5 0.45 Q16.3 0.4 16.5 -0.6 16.7 -1.65 22.35 -1.4 24.6 -2.2 23.5 -2.9 21.3 -5.55 27.45 -8.65 29.3 -8.65 27.85 -10.15 22.25 -11.5 24.25 -14.55 L24.35 -14.65 24.5 -14.8 Q26.15 -16.6 23.65 -15.85 L23.65 -15.8 Q19.45 -17.15 20.4 -19.0 L26.4 -20.55 25.45 -21.6 25.4 -21.6 24.25 -22.65 21.35 -21.9 20.85 -22.4 19.65 -21.4 17.0 -20.7 16.55 -20.55 16.5 -21.3" fill="#000000" fill-rule="evenodd" stroke="none"/>
    <path d="M11.95 -20.7 L11.7 -23.7 15.9 -23.8 16.15 -23.7 16.5 -21.3 16.15 -21.15 11.95 -20.7 M17.0 -20.7 L19.65 -21.4 16.35 -19.1 12.3 -17.95 11.4 -18.8 12.1 -19.1 12.1 -19.25 Q14.3 -19.65 16.25 -20.3 L17.5 -20.8 17.0 -20.7 M21.35 -21.9 L24.25 -22.65 25.4 -21.6 22.1 -20.7 22.05 -20.7 22.3 -20.8 21.35 -21.9" fill="#fec27a" fill-rule="evenodd" stroke="none"/>
    <path d="M16.5 -21.3 L16.55 -20.55 17.0 -20.7 17.5 -20.8 16.25 -20.3 Q14.3 -19.65 12.1 -19.25 L11.95 -20.7 16.15 -21.15 16.5 -21.3 M25.4 -21.6 L25.45 -21.6 26.4 -20.55 20.4 -19.0 Q20.75 -19.8 22.05 -20.7 L22.1 -20.7 25.4 -21.6 M16.35 -19.1 L13.85 -17.9 13.25 -17.65 12.55 -17.6 12.3 -17.95 16.35 -19.1" fill="#fea436" fill-rule="evenodd" stroke="none"/>
    <path d="M19.65 -21.4 L20.85 -22.4 21.35 -21.9 22.3 -20.8 22.05 -20.7 Q20.75 -19.8 20.4 -19.0 19.45 -17.15 23.65 -15.8 L23.65 -15.85 Q26.15 -16.6 24.5 -14.8 L24.35 -14.65 14.1 -12.8 20.3 -20.8 16.0 -17.4 9.3 -13.1 10.2 -15.35 -3.8 -14.6 -4.4 -15.15 -4.4 -15.5 -4.2 -16.45 Q-4.1 -17.1 -1.7 -17.45 L1.8 -18.2 10.95 -19.3 11.4 -18.8 12.3 -17.95 12.55 -17.6 13.25 -17.65 13.85 -17.9 16.35 -19.1 19.65 -21.4 M24.25 -14.55 Q22.25 -11.5 27.85 -10.15 29.3 -8.65 27.45 -8.65 21.3 -5.55 23.5 -2.9 24.6 -2.2 22.35 -1.4 16.7 -1.65 16.5 -0.6 16.3 0.4 14.5 0.45 L10.6 1.05 7.75 -3.25 8.0 -4.15 7.25 -5.9 9.55 -6.2 12.85 -4.05 14.6 -0.45 13.85 -4.8 14.0 -5.4 14.1 -7.95 22.9 -3.2 14.4 -8.7 14.85 -9.4 26.55 -9.85 15.55 -10.3 15.4 -11.35 24.25 -14.55 M-24.8 -1.8 Q-25.2 -2.95 -24.5 -3.25 L-24.1 -3.6 -21.35 -3.45 -20.75 -2.6 -20.6 -2.45 -24.8 -1.8 M-24.25 -8.25 L-24.2 -8.55 -24.05 -8.8 -22.8 -9.25 -21.75 -10.1 -21.2 -10.8 -18.55 -10.5 -18.05 -9.45 -17.45 -9.25 -16.95 -9.5 -17.25 -10.3 -14.65 -10.15 -14.2 -9.4 -13.3 -9.3 -12.5 -7.4 -12.35 -6.1 -16.6 -5.55 -21.1 -5.25 Q-22.75 -5.2 -24.05 -6.15 L-24.25 -8.25 M-9.9 -12.2 L-9.8 -12.25 -9.85 -12.2 -9.9 -12.2 M7.85 -17.65 L7.85 -17.75 7.8 -17.8 Q7.55 -18.15 7.15 -17.95 L-0.85 -17.1 2.2 -17.15 1.25 -16.95 -2.4 -16.25 Q-2.45 -16.0 -2.65 -16.0 L-3.35 -15.75 -3.05 -15.8 -2.45 -16.0 -2.4 -15.95 -2.25 -15.85 -2.15 -15.85 7.8 -17.55 7.85 -17.65 M6.85 -10.8 L8.5 -10.25 Q9.25 -9.85 9.45 -8.9 L9.1 -7.9 3.95 -8.3 5.2 -6.7 6.45 -5.65 6.95 -4.1 Q6.4 -3.45 6.3 -4.1 L6.15 -4.25 5.65 -5.0 Q5.1 -5.85 3.9 -5.6 L1.1 -5.8 -2.15 -5.9 -3.35 -5.85 Q-4.1 -5.85 -4.9 -6.2 L-6.0 -7.4 -7.0 -8.15 -6.8 -6.65 -9.9 -6.0 -12.5 -7.4 -12.7 -9.9 -11.3 -11.0 -8.7 -10.1 -9.55 -11.45 Q-9.15 -11.5 -8.8 -11.7 -7.75 -12.35 -6.15 -12.3 L-4.55 -12.05 -3.1 -12.0 -1.35 -11.1 -1.7 -11.95 4.35 -11.05 6.85 -10.8 M-17.1 -4.3 L-22.9 -4.3 -22.5 -4.45 -17.1 -4.3 M-20.45 -9.6 L-21.25 -10.15 -23.85 -7.4 -20.6 -6.65 -20.45 -9.6 M-18.7 -2.1 L-17.65 -3.5 3.9 -3.55 -18.7 -2.1 M-6.5 -11.6 L-7.1 -11.95 Q-8.1 -11.75 -7.95 -10.85 L-7.6 -10.65 Q-6.8 -10.85 -6.45 -11.55 L-6.5 -11.6 M-19.5 -10.4 L-19.55 -10.3 Q-19.9 -9.9 -19.3 -9.85 L-19.3 -9.9 Q-19.05 -10.2 -19.5 -10.4 M-15.9 -9.45 L-15.55 -9.65 -15.5 -9.7 Q-15.4 -10.05 -15.7 -10.1 -16.15 -10.1 -16.35 -9.75 L-15.9 -9.45 M-11.6 -10.2 L-11.65 -9.95 Q-11.4 -9.55 -10.9 -9.7 L-10.7 -9.95 -10.75 -10.15 -10.8 -10.2 Q-11.05 -10.45 -11.35 -10.4 L-11.6 -10.2" fill="#669900" fill-rule="evenodd" stroke="none"/>
    <path d="M11.9 -12.8 L13.15 -14.0 10.9 -9.25 13.05 -6.15 9.85 -8.5 9.9 -10.1 9.2 -11.6 10.35 -11.75 11.9 -12.8 M9.8 -11.4 L9.8 -11.45 9.75 -11.4 9.8 -11.4" fill="#475801" fill-rule="evenodd" stroke="none"/>
    <path d="M24.35 -14.65 L24.25 -14.55 15.4 -11.35 15.55 -10.3 26.55 -9.85 14.85 -9.4 14.4 -8.7 22.9 -3.2 14.1 -7.95 14.0 -5.4 13.85 -4.8 14.6 -0.45 12.85 -4.05 9.55 -6.2 7.25 -5.9 8.0 -4.15 7.75 -3.25 10.6 1.05 1.05 -0.9 -24.5 -0.95 -24.8 -1.8 -20.6 -2.45 -19.2 -1.3 -18.7 -2.1 3.9 -3.55 4.15 -4.3 4.05 -4.25 -17.1 -4.3 -22.5 -4.45 -22.9 -4.3 -24.05 -4.3 -24.25 -8.25 -24.05 -6.15 Q-22.75 -5.2 -21.1 -5.25 L-16.6 -5.55 -12.35 -6.1 -12.5 -7.4 -13.3 -9.3 -14.2 -9.4 -14.65 -10.15 -17.25 -10.3 -16.95 -9.5 -17.45 -9.25 -18.05 -9.45 -18.55 -10.5 -21.2 -10.8 -21.75 -10.1 -22.8 -9.25 -24.05 -8.8 -21.1 -11.65 -11.7 -11.25 -9.9 -12.2 -9.85 -12.2 -9.8 -12.25 -7.65 -13.35 -4.3 -13.5 -4.4 -15.15 -3.8 -14.6 10.2 -15.35 9.3 -13.1 16.0 -17.4 20.3 -20.8 14.1 -12.8 24.35 -14.65 M11.9 -12.8 L10.35 -11.75 9.2 -11.6 9.9 -10.1 9.85 -8.5 13.05 -6.15 10.9 -9.25 13.15 -14.0 11.9 -12.8 M-3.1 -13.5 L-3.15 -12.9 7.1 -12.0 7.15 -12.9 7.4 -13.35 7.9 -14.0 -3.1 -14.0 -3.1 -13.5 M6.85 -10.8 L4.35 -11.05 -1.7 -11.95 -1.35 -11.1 -3.1 -12.0 -4.55 -12.05 -6.15 -12.3 Q-7.75 -12.35 -8.8 -11.7 -9.15 -11.5 -9.55 -11.45 L-8.7 -10.1 -11.3 -11.0 -12.7 -9.9 -12.5 -7.4 -9.9 -6.0 -6.8 -6.65 -7.0 -8.15 -6.0 -7.4 -4.9 -6.2 Q-4.1 -5.85 -3.35 -5.85 L-2.15 -5.9 1.1 -5.8 3.9 -5.6 Q5.1 -5.85 5.65 -5.0 L6.15 -4.25 6.3 -4.1 Q6.4 -3.45 6.95 -4.1 L6.45 -5.65 5.2 -6.7 3.95 -8.3 9.1 -7.9 9.45 -8.9 Q9.25 -9.85 8.5 -10.25 L6.85 -10.8 M9.8 -11.4 L9.75 -11.4 9.8 -11.45 9.8 -11.4" fill="#5c7e01" fill-rule="evenodd" stroke="none"/>
    <path d="M7.85 -17.65 L7.8 -17.55 -2.15 -15.85 -2.25 -15.85 -2.4 -15.95 -2.45 -16.0 -3.05 -15.8 -3.35 -15.75 -2.65 -16.0 Q-2.45 -16.0 -2.4 -16.25 L1.25 -16.95 2.2 -17.15 -0.85 -17.1 7.15 -17.95 Q7.55 -18.15 7.8 -17.8 L7.85 -17.75 7.85 -17.65 M-11.6 -10.2 L-11.35 -10.4 Q-11.05 -10.45 -10.8 -10.2 L-10.75 -10.15 -10.7 -9.95 -10.9 -9.7 Q-11.4 -9.55 -11.65 -9.95 L-11.6 -10.2 M-15.9 -9.45 L-16.35 -9.75 Q-16.15 -10.1 -15.7 -10.1 -15.4 -10.05 -15.5 -9.7 L-15.55 -9.65 -15.9 -9.45 M-19.5 -10.4 Q-19.05 -10.2 -19.3 -9.9 L-19.3 -9.85 Q-19.9 -9.9 -19.55 -10.3 L-19.5 -10.4 M-6.5 -11.6 L-6.45 -11.55 Q-6.8 -10.85 -7.6 -10.65 L-7.95 -10.85 Q-8.1 -11.75 -7.1 -11.95 L-6.5 -11.6" fill="#c6fe30" fill-rule="evenodd" stroke="none"/>
    <path d="M-3.1 -13.5 L-3.1 -14.0 7.9 -14.0 7.4 -13.35 -3.1 -13.5" fill="#842113" fill-rule="evenodd" stroke="none"/>
    <path d="M7.4 -13.35 L7.15 -12.9 7.1 -12.0 -3.15 -12.9 -3.1 -13.5 7.4 -13.35" fill="#e04029" fill-rule="evenodd" stroke="none"/>
    <path d="M-24.1 -3.6 L-24.05 -4.3 -22.9 -4.3 -17.1 -4.3 4.05 -4.25 4.15 -4.3 3.9 -3.55 -17.65 -3.5 -18.7 -2.1 -19.2 -1.3 -20.6 -2.45 -20.75 -2.6 -21.35 -3.45 -24.1 -3.6" fill="#ffffff" fill-rule="evenodd" stroke="none"/>
    <path d="M-20.45 -9.6 L-20.6 -6.65 -23.85 -7.4 -21.25 -10.15 -20.45 -9.6" fill="#4a6501" fill-rule="evenodd" stroke="none"/>
  </g>
</svg>
