<?xml version="1.0" encoding="UTF-8" standalone="no"?>
<svg
   xmlns:dc="http://purl.org/dc/elements/1.1/"
   xmlns:cc="http://creativecommons.org/ns#"
   xmlns:rdf="http://www.w3.org/1999/02/22-rdf-syntax-ns#"
   xmlns:svg="http://www.w3.org/2000/svg"
   xmlns="http://www.w3.org/2000/svg"
   xmlns:sodipodi="http://sodipodi.sourceforge.net/DTD/sodipodi-0.dtd"
   xmlns:inkscape="http://www.inkscape.org/namespaces/inkscape"
   height="41.15px"
   width="40.15px"
   version="1.1"
   id="svg6"
   sodipodi:docname="2526.svg"
   inkscape:version="0.92.1 r15371">
  <metadata
     id="metadata12">
    <rdf:RDF>
      <cc:Work
         rdf:about="">
        <dc:format>image/svg+xml</dc:format>
        <dc:type
           rdf:resource="http://purl.org/dc/dcmitype/StillImage" />
        <dc:title></dc:title>
      </cc:Work>
    </rdf:RDF>
  </metadata>
  <defs
     id="defs10">
    <radialGradient
       cx="0"
       cy="0"
       gradientTransform="matrix(0.0029,0,0,0.0029,0.3,0.25)"
       gradientUnits="userSpaceOnUse"
       id="gradient0"
       r="819.20001"
       spreadMethod="pad">
      <stop
         offset="0.0"
         stop-color="#ff0000"
         stop-opacity="0.4"
         id="stop40" />
      <stop
         offset="1.0"
         stop-color="#ff0000"
         stop-opacity="0.0"
         id="stop42" />
    </radialGradient>
    <radialGradient
       cx="0"
       cy="0"
       gradientTransform="matrix(0.0022,0,0,0.0022,-6.75,-0.45)"
       gradientUnits="userSpaceOnUse"
       id="gradient1"
       r="819.20001"
       spreadMethod="pad">
      <stop
         offset="0.0"
         stop-color="#ff0000"
         stop-opacity="0.4"
         id="stop45" />
      <stop
         offset="1.0"
         stop-color="#ff0000"
         stop-opacity="0.0"
         id="stop47" />
    </radialGradient>
  </defs>
  <sodipodi:namedview
     pagecolor="#ffffff"
     bordercolor="#666666"
     borderopacity="1"
     objecttolerance="10"
     gridtolerance="10"
     guidetolerance="10"
     inkscape:pageopacity="0"
     inkscape:pageshadow="2"
     inkscape:window-width="1920"
     inkscape:window-height="1016"
     id="namedview8"
     showgrid="false"
     inkscape:object-nodes="false"
     inkscape:zoom="16.221355"
     inkscape:cx="33.9186"
     inkscape:cy="17.593083"
     inkscape:window-x="0"
     inkscape:window-y="27"
     inkscape:window-maximized="1"
     inkscape:current-layer="svg6" />
  <g
     transform="matrix(1.0, 0.0, 0.0, 1.0, 18.45, 37.65)"
     id="g4">
    <path
       d="M8.8 -34.0 L9.75 -32.1 11.25 -27.95 Q11.95 -25.2 14.4 -23.8 L14.4 -23.85 14.6 -23.8 14.75 -23.75 Q16.65 -23.2 18.5 -22.15 L18.55 -22.15 Q20.15 -21.15 21.0 -19.5 21.7 -18.15 21.7 -16.75 21.65 -14.5 19.8 -12.7 L19.8 -12.75 19.15 -12.15 19.1 -12.15 Q16.65 -10.95 14.3 -12.2 L14.35 -12.2 Q12.45 -13.15 10.95 -14.6 8.0 -17.55 5.95 -21.05 6.2 -17.55 7.45 -14.3 8.15 -12.45 8.3 -10.55 L8.3 -10.5 8.05 -6.7 Q7.25 -2.1 5.3 2.4 4.8 3.5 3.6 3.5 L3.25 3.35 Q2.95 3.05 2.95 2.75 2.7 -0.5 0.2 -2.2 -1.3 -1.95 -1.65 -0.25 -2.05 1.55 -3.2 2.7 L-3.4 2.85 -3.7 2.85 -3.9 2.7 Q-5.45 0.9 -6.55 -1.45 -8.45 -5.6 -8.7 -10.05 -9.4 -8.25 -10.6 -6.5 L-10.55 -6.5 Q-11.35 -5.4 -12.35 -4.65 L-12.4 -4.65 -15.15 -4.55 Q-17.8 -6.05 -18.3 -9.0 -19.0 -13.35 -16.3 -16.75 L-15.35 -18.25 Q-12.7 -24.25 -11.3 -30.65 -10.2 -35.85 -5.55 -37.6 L-5.2 -37.6 Q-1.95 -36.35 -1.35 -32.85 -1.2 -32.0 -0.75 -31.65 L3.15 -36.65 3.3 -36.75 3.8 -36.95 3.9 -37.0 Q7.15 -37.05 8.8 -34.05 L8.8 -34.0"
       fill="#000000"
       fill-rule="evenodd"
       stroke="none"
       id="path2" />
  </g>
  <g
     transform="translate(19.937526,23.460234)"
     id="g38">
    <path
       d="m 2.4,-22.3 q 2.95,-0.05 4.45,2.7 l 0.95,1.9 1.45,4.05 q 0.8,2.95 3.4,4.45 l 0.45,0.1 3.65,1.55 q 1.5,0.95 2.3,2.45 0.65,1.25 0.65,2.55 -0.05,2.05 -1.75,3.65 l -0.6,0.5 Q 15.15,2.7 13.05,1.55 11.25,0.65 9.8,-0.75 6.15,-4.4 3.85,-9 q 0,4.8 1.6,9.05 0.7,1.8 0.85,3.65 0.1,1.85 -0.25,3.7 -0.8,4.55 -2.7,9 Q 3,17.2 2.1,17.2 L 1.95,16.9 q -0.3,-3.6 -3.15,-5.45 -2,0.25 -2.45,2.4 -0.35,1.65 -1.4,2.7 -1.5,-1.7 -2.55,-4 -2.95,-6.5 -1.9,-13.65 l -0.8,3.8 q -0.6,2.4 -2.2,4.7 -0.7,1.05 -1.65,1.7 l -2.25,0.1 q -2.45,-1.35 -2.9,-4.1 -0.65,-4.1 1.9,-7.35 l 1,-1.6 q 2.7,-6.05 4.1,-12.5 1.05,-4.9 5.4,-6.6 3,1.15 3.55,4.4 0.25,1.4 1.25,1.7 l 4.15,-5.3 0.35,-0.15"
       id="path14"
       inkscape:connector-curvature="0"
       style="fill:#000000;fill-rule:evenodd;stroke:none" />
    <path
       d="m -16.15,-3.05 0.3,-0.5 q 2.15,-5 3.45,-10.4 l 1.45,-4.55 q 1.2,-3.1 3.9,-3.95 2.5,0.8 3.3,3.95 0.4,1.75 1.6,2.55 l 0.1,-0.2 0.35,-0.4 q 1.5,-3.15 4.05,-5.2 L 2.4,-21.8 q 2.55,-0.2 4,2.45 2,3.65 3.25,7.85 1.1,1.8 2.75,2.75 l 0.4,0.25 1.3,0.4 0.15,0.05 -0.3,0.15 q -2.4,1.5 -2.8,4.4 l -1.35,-1 v -0.05 l -1,-2.15 q -1.4,-4.25 -4.9,-6.95 l -0.05,-0.1 q -1.3,-1.2 -0.25,-2.55 l -0.05,-0.05 -0.4,-0.2 q -0.8,0.15 -1.2,0.85 l -0.15,0.05 -0.15,0.1 -0.05,0.1 -0.6,0.75 0.05,0.35 q 0.45,2.4 0.5,4.9 l 0.2,1.85 -0.1,0.55 q -0.05,2.7 0.7,5.25 L 2.7,1.05 Q 2.6,6.3 1.9,11.5 H 1.8 l -0.65,0.15 q -0.5,0 -0.75,0.3 L -0.2,11.5 -0.35,10.9 Q -0.75,9.15 -1.9,8.15 L -2,8.2 -2.35,8.4 -2.45,8.8 -2.95,11.65 -3.1,11.5 h -0.35 l -1.1,0.1 Q -6.1,11.4 -7,12.4 l 0.3,0.6 -0.35,-0.7 -1,-2.5 -0.5,-1.45 V 8.3 8.2 8.05 L -8.6,8 -8.65,7.9 -8.7,7.85 q -0.65,-2.55 -0.7,-5 0.85,-4.7 2.25,-9.2 l 0.1,-0.3 q 0.35,-1.9 0.25,-3.85 l 0.1,-0.25 0.2,-1.6 0.05,-0.2 q 0.3,-1.05 0,-2.05 l -0.05,-0.1 -0.55,-0.25 -0.8,0.7 v 0.1 0.05 0.1 l -0.05,0.05 -0.15,0.15 v 0.15 l -0.4,0.7 q -1.9,3.3 -2.75,6.95 l -1,2.55 -0.9,2.55 -0.4,1.25 -0.55,-0.6 -2.1,-2.8 m 3.25,3.95 0.65,0.45 0.1,-0.1 -0.05,0.15 -0.3,-0.2 -0.4,-0.3"
       id="path16"
       inkscape:connector-curvature="0"
       style="fill:#ffcc00;fill-rule:evenodd;stroke:none" />
    <path
       d="M 10.95,-0.4 10.25,-1 10.15,-1.1 9.55,-1.65 9.4,-1.8 8.9,-2.35 Q 7.65,-3.7 6.75,-5.3 L 3.95,-9.7 3.4,-10.3 Q 2.95,-4.8 4.95,0.25 L 5.35,1.3 Q 6.8,6.2 4.9,10.85 l -0.5,1.3 -1.3,-0.5 -0.4,-0.1 H 2.6 2.5 L 1.9,11.5 Q 2.6,6.3 2.7,1.05 L 2.35,-1.8 Q 1.6,-4.35 1.65,-7.05 l 0.1,-0.55 -0.2,-1.85 q -0.05,-2.5 -0.5,-4.9 L 1,-14.7 l 0.6,-0.75 0.05,-0.1 0.15,-0.1 0.15,-0.05 q 0.4,-0.7 1.2,-0.85 l 0.4,0.2 0.05,0.05 q -1.05,1.35 0.25,2.55 l 0.05,0.1 q 3.5,2.7 4.9,6.95 l 1,2.15 v 0.05 l 1.35,1 0.15,0.05 q -0.7,1.5 -0.35,3.05 M -0.2,11.5 -1.15,10.95 q -1.05,0.15 -1.8,0.7 L -2.45,8.8 -2.35,8.4 -2,8.2 -1.9,8.15 q 1.15,1 1.55,2.75 l 0.15,0.6 m -9.2,-8.65 0.45,-4.65 0.2,-0.8 q 0.55,-2.15 0.7,-4.25 l 0.05,-0.8 0.1,-0.4 v -0.6 -0.2 q -1.55,1.95 -1.8,5.1 -0.25,3 -1,5.8 l -1.5,-0.65 0.05,-0.15 -0.1,0.1 -0.65,-0.45 -0.6,-0.55 0.4,-1.25 0.9,-2.55 1,-2.55 q 0.85,-3.65 2.75,-6.95 l 0.4,-0.7 v -0.15 l 0.15,-0.15 0.05,-0.05 v -0.1 -0.05 -0.1 l 0.8,-0.7 0.55,0.25 0.05,0.1 q 0.3,1 0,2.05 l -0.05,0.2 -0.2,1.6 -0.1,0.25 q 0.1,1.95 -0.25,3.85 l -0.1,0.3 q -1.4,4.5 -2.25,9.2"
       id="path18"
       inkscape:connector-curvature="0"
       style="fill:#e49f01;fill-rule:evenodd;stroke:none" />
    <path
       d="M 14.25,-8.05 14.4,-8 h 0.2 l 1.3,0.4 q 1.25,0.55 2.1,1.85 L 18.9,-4 q -2.3,-1.5 -4.25,0.9 l -2.4,-0.05 -0.2,-0.05 -0.3,-0.1 -0.45,-0.15 -0.15,-0.05 q 0.4,-2.9 2.8,-4.4 l 0.3,-0.15 M 2.25,16.3 1.7,13.95 q -0.35,-1.1 -1.3,-2 0.25,-0.3 0.75,-0.3 L 1.8,11.5 h 0.1 l 0.6,0.05 H 2.35 Q 2.7,13.9 2.25,16.3 m -5.2,-4.65 -0.5,0.45 Q -4.3,13.5 -4.75,15 L -5,16.05 -6,14.4 -6.7,13 -7,12.4 q 0.9,-1 2.45,-0.8 l 1.1,-0.1 h 0.35 l 0.15,0.15 m -16,-6.7 -0.05,-0.3 q -0.45,-2.8 1.2,-5.2 l 0.9,-1.35 0.75,-1.15 2.1,2.8 0.55,0.6 -0.2,0.3 -0.05,0.25 q 0,0.55 -0.3,1.05 L -14.1,2.1 q -0.25,1.6 -1.2,2.95 -1.35,0.85 -2.9,0.55 l -0.75,-0.65"
       id="path20"
       inkscape:connector-curvature="0"
       style="fill:#33ccff;fill-rule:evenodd;stroke:none" />
    <path
       d="m 18.9,-4 q 0.45,1.4 0,2.75 l -1.3,2 Q 16.55,1.85 15.1,1.6 14.2,1.45 13.4,1.1 L 12.55,0.7 12.15,0.45 11.7,0.15 11.65,0.1 11.55,0.05 10.95,-0.4 Q 10.6,-1.95 11.3,-3.45 l 0.45,0.15 0.3,0.1 0.2,0.05 2.4,0.05 Q 16.6,-5.5 18.9,-4 M 4.4,12.15 3.2,15.25 q -0.85,2 -0.95,1.25 V 16.3 Q 2.7,13.9 2.35,11.55 H 2.5 2.6 2.7 l 0.4,0.1 1.3,0.5 M -10.7,2.05 -10.85,2.5 -11.2,3.65 -11.65,4.9 q -0.65,1.65 -1.75,2.95 -1.8,2.15 -3.9,0.1 L -18.05,7 h -0.05 l -0.5,-0.95 -0.35,-1.1 0.75,0.65 q 1.55,0.3 2.9,-0.55 0.95,-1.35 1.2,-2.95 l 0.05,-0.15 q 0.3,-0.5 0.3,-1.05 l 0.05,-0.25 0.2,-0.3 0.6,0.55 0.4,0.3 0.3,0.2 1.5,0.65"
       id="path22"
       inkscape:connector-curvature="0"
       style="fill:#01aad3;fill-rule:evenodd;stroke:none" />
    <path
       d="m 1.5,-4.6 q -0.9,-0.05 -2,-0.45 -1,-0.4 -1.3,-0.9 l 3.25,1.3 0.05,0.05 m -9.1,0.1 0.1,-0.05 0.05,-0.05 V -4.7 -4.75 Q -6.4,-5.6 -5.15,-5.9 L -5,-5.7 v 0.05 l -2.4,1.2 -0.2,-0.05 M -2.5,2.05 -2.75,1.6 V 1.55 l 0.1,-0.1 0.05,-0.1 0.25,0.2 0.2,0.5 V 2.2 l -0.15,0.3 -0.05,0.05 -0.9,0.1 -0.1,-0.1 -0.4,0.15 -0.1,0.1 v 0.05 l -1,-0.2 Q -5,2.5 -5.2,2.5 L -5.95,2.25 q -0.15,-0.6 0.4,-0.9 0.05,0.25 -0.2,0.7 V 2.1 l 0.4,0.15 0.4,-0.2 q 0.2,0 0.15,0.15 v 0.05 l 0.7,0.3 0.45,-0.2 0.3,-0.3 L -3,2.45 -2.65,2.4 -2.5,2.1 V 2.05 M -3.85,4.9 -4.9,5.1 -5.55,4.8 -5.7,4.95 h -0.05 q 0.05,0.45 0.5,0.5 l 2.2,-0.05 -0.8,-0.5 m 0.35,1.05 h -2.2 v 0.2 0.05 q 1,0.5 1.85,-0.2 L -3.5,5.95 M -3.7,4.6 q 0.8,0.6 1.8,0.8 L -1.65,5.6 -1.9,5.85 H -2.05 L -2.1,5.95 -2.15,6.1 -3.55,6.4 Q -4.9,7.35 -6.1,6.4 L -6.05,5.75 V 5.6 L -5.95,5.45 -5.85,5.4 -6,5.15 v -0.1 l 0.05,-0.2 V 4.7 Q -5.7,4.5 -5.4,4.55 L -4.75,4.7 -3.7,4.6"
       id="path24"
       inkscape:connector-curvature="0"
       style="fill:#000000;fill-rule:evenodd;stroke:none" />
    <path
       d="m 1.6,-3.3 0.05,0.2 q 0,0.5 -0.9,0.6 L -1.1,-2.6 -2.05,-2.8 -2.3,-3.2 -2.45,-3.35 -2.5,-3.45 -2.45,-3.5 -2.5,-3.6 v -0.15 q 0.3,-0.55 1,-0.4 l 1.75,0.45 1.35,0.4 m -2.15,-0.3 -1.6,-0.3 0.5,0.9 1.25,0.3 1.6,-0.35 -1.75,-0.55"
       id="path26"
       inkscape:connector-curvature="0"
       style="fill:#000000;fill-rule:evenodd;stroke:none" />
    <path
       d="m -0.55,-3.6 1.75,0.55 -1.6,0.35 -1.25,-0.3 -0.5,-0.9 1.6,0.3"
       id="path28"
       inkscape:connector-curvature="0"
       style="fill:#ffffff;fill-rule:evenodd;stroke:none" />
    <path
       d="M -7.7,-3.55 -7.45,-3.65 -7,-3.9 q 1.05,-0.5 2.15,-0.4 h 0.2 0.15 l 0.15,0.1 0.2,0.15 q -1.05,1.4 -2.75,1.5 -0.65,0.05 -0.95,-0.3 l -0.05,-0.1 0.05,-0.15 0.2,-0.4 -0.05,-0.05 m 0.25,0.5 q 1.3,0.7 2.45,-0.55 L -4.7,-4 q -1.5,-0.1 -2.75,0.55 0.05,0.2 -0.05,0.35 l 0.05,0.05"
       id="path30"
       inkscape:connector-curvature="0"
       style="fill:#000000;fill-rule:evenodd;stroke:none" />
    <path
       d="M -7.45,-3.05 -7.5,-3.1 Q -7.4,-3.25 -7.45,-3.45 -6.2,-4.1 -4.7,-4 L -5,-3.6 q -1.15,1.25 -2.45,0.55"
       id="path32"
       inkscape:connector-curvature="0"
       style="fill:#ffffff;fill-rule:evenodd;stroke:none" />
    <path
       d="M 2,-1.5 Q 2.7,-0.8 2.7,0.2 2.7,1.2 2,1.9 1.3,2.6 0.3,2.65 -0.75,2.6 -1.45,1.9 q -0.7,-0.7 -0.7,-1.7 0,-1 0.7,-1.7 0.7,-0.75 1.75,-0.7 1,-0.05 1.7,0.7"
       id="path34"
       inkscape:connector-curvature="0"
       style="fill:url(#gradient0);fill-rule:evenodd;stroke:none" />
    <path
       d="m -5.5,-1.75 q 0.55,0.55 0.55,1.3 0,0.75 -0.55,1.3 Q -6.05,1.4 -6.8,1.4 L -8.1,0.85 q -0.55,-0.55 -0.5,-1.3 -0.05,-0.8 0.5,-1.3 0.55,-0.55 1.3,-0.55 0.75,0 1.3,0.55"
       id="path36"
       inkscape:connector-curvature="0"
       style="fill:url(#gradient1);fill-rule:evenodd;stroke:none" />
  </g>
</svg>
