<?xml version="1.0" encoding="UTF-8" standalone="no"?>
<svg xmlns:xlink="http://www.w3.org/1999/xlink" height="34.35px" width="23.8px" xmlns="http://www.w3.org/2000/svg">
  <g transform="matrix(1.0, 0.0, 0.0, 1.0, 12.2, 30.9)">
    <path d="M11.55 -11.35 Q11.7 -9.2 11.45 -7.05 L10.85 -4.4 9.95 -2.25 9.3 -1.25 8.25 -0.2 6.15 1.45 Q4.65 2.4 2.75 2.85 L-5.85 3.1 Q-11.7 -3.35 -12.2 -9.4 -9.1 -25.25 -5.9 -28.25 -2.7 -31.3 -2.0 -30.85 1.7 -30.4 4.85 -27.95 L9.95 -19.1 11.6 -17.45 11.0 -15.7 11.55 -11.35" fill="#000000" fill-rule="evenodd" stroke="none"/>
    <path d="M1.15 -24.75 Q0.65 -20.55 -1.95 -17.3 L-2.55 -16.65 Q-8.15 -18.55 -4.35 -24.35 -3.2 -26.2 -1.25 -26.6 0.45 -26.55 1.05 -25.0 L1.15 -24.75" fill="#ffffff" fill-rule="evenodd" stroke="none"/>
    <path d="M10.15 -14.8 L9.2 -12.55 Q4.3 -2.0 -7.4 -5.5 -9.45 -6.1 -10.55 -7.4 L-10.55 -7.45 -10.6 -8.2 -10.65 -9.0 -10.65 -9.2 Q-10.65 -14.6 -7.1 -22.65 -3.55 -30.75 1.0 -29.55 5.5 -28.4 8.35 -20.5 L10.15 -14.8 M1.15 -24.75 L1.05 -25.0 Q0.45 -26.55 -1.25 -26.6 -3.2 -26.2 -4.35 -24.35 -8.15 -18.55 -2.55 -16.65 L-1.95 -17.3 Q0.65 -20.55 1.15 -24.75" fill="#e4d8af" fill-rule="evenodd" stroke="none"/>
    <path d="M10.15 -14.8 Q11.1 -10.85 10.95 -8.2 10.65 -3.8 7.5 -1.05 4.4 1.75 0.0 1.75 -4.4 1.75 -7.55 -1.05 -10.1 -3.35 -10.55 -7.4 -9.45 -6.1 -7.4 -5.5 4.3 -2.0 9.2 -12.55 L10.15 -14.8" fill="#d7c27d" fill-rule="evenodd" stroke="none"/>
    <path d="M10.2 -17.6 L10.45 -16.65 10.45 -16.2 10.45 -15.65 Q9.65 -15.65 9.05 -16.3 L8.55 -16.95 Q4.25 -16.3 1.75 -12.75 0.15 -10.55 -2.4 -9.7 L-2.85 -9.55 -0.3 -8.9 Q1.5 -8.25 3.0 -7.15 L1.95 -7.5 1.8 -7.6 1.25 -8.1 1.15 -8.15 -0.8 -8.7 -2.5 -9.15 -3.35 -9.4 -3.45 -9.35 -3.15 -8.9 0.35 -7.45 2.4 -6.4 3.8 -5.6 4.5 -4.8 5.2 -4.05 Q5.85 -3.15 6.65 -2.7 L6.95 -2.05 Q7.65 -0.5 6.3 0.5 4.5 1.9 2.75 1.65 L3.0 1.55 4.0 0.9 Q5.45 -0.3 5.1 -1.15 L5.3 -1.4 Q4.3 -4.7 1.15 -6.4 L0.6 -6.7 -1.5 -7.8 Q-4.15 -8.1 -5.95 -9.65 -6.9 -10.15 -7.6 -11.2 -8.2 -12.1 -8.35 -13.15 L-8.4 -15.75 Q-8.25 -17.0 -8.8 -18.0 L-9.45 -16.05 -9.75 -16.95 -9.9 -17.55 -9.8 -17.15 -9.05 -17.85 -8.9 -17.95 -8.8 -18.0 -8.2 -18.4 -8.4 -18.25 Q-8.3 -14.75 -7.2 -11.4 -6.9 -10.45 -6.05 -10.85 L-6.0 -10.85 -5.7 -10.75 -3.55 -10.65 -2.45 -10.95 Q-1.15 -11.45 0.0 -12.2 L1.3 -13.25 1.45 -13.35 Q2.45 -14.3 2.95 -15.45 3.9 -17.55 3.5 -19.5 L4.05 -21.4 Q4.9 -19.7 4.85 -17.55 L5.55 -17.9 6.2 -18.1 5.45 -17.45 5.25 -17.25 5.35 -17.25 8.1 -17.75 10.0 -18.05 10.2 -17.6 M3.0 -19.8 Q2.7 -21.25 1.65 -22.5 L0.35 -23.75 -2.35 -25.55 -3.5 -26.35 -3.5 -26.3 -3.55 -26.35 -4.2 -27.45 -4.25 -27.85 -4.2 -27.9 -4.1 -27.85 -4.0 -27.8 -3.4 -26.7 -3.35 -26.75 Q-2.65 -26.5 -2.05 -26.0 L-1.6 -25.65 Q-0.45 -24.9 0.4 -23.9 L0.5 -24.05 0.8 -23.9 0.85 -23.85 0.85 -23.8 0.9 -23.75 0.9 -23.7 2.45 -22.05 2.55 -21.8 3.0 -19.8 M-3.15 -30.2 L-2.85 -30.3 -1.85 -30.15 -1.7 -30.1 -1.55 -29.95 -1.4 -29.6 -1.4 -29.55 Q-3.0 -29.85 -3.2 -28.45 L-3.65 -28.3 -3.75 -28.25 -3.25 -29.5 -2.95 -29.55 -2.9 -29.6 -2.85 -29.65 -2.75 -29.85 -2.75 -29.9 -2.8 -29.95 Q-2.9 -30.15 -3.15 -30.2 M-2.05 2.45 L-4.95 2.4 Q-5.8 2.05 -6.25 1.15 -7.05 -0.45 -6.7 -2.3 -6.25 -4.4 -8.1 -5.55 -10.15 -5.55 -11.35 -7.1 -11.85 -8.45 -11.6 -9.85 L-11.55 -10.0 -11.35 -10.3 -11.35 -10.45 -10.9 -10.7 -11.0 -10.65 Q-11.8 -9.85 -11.4 -8.55 -10.9 -7.0 -9.55 -6.1 L-8.7 -5.75 Q-7.0 -5.45 -6.55 -4.0 L-6.45 -3.7 -6.2 -2.75 -6.05 -1.6 -5.95 -1.05 Q-5.9 0.25 -4.95 0.65 L-4.95 0.55 -5.15 -0.4 -5.25 -1.55 -5.35 -1.6 -5.4 -1.7 -5.4 -1.9 Q-5.4 -3.3 -5.75 -4.6 L-6.0 -5.2 Q-6.65 -6.35 -8.2 -6.35 L-9.55 -7.25 Q-6.8 -7.15 -5.8 -5.2 -5.4 -4.45 -5.3 -3.45 L-4.9 -1.25 -4.1 1.0 -3.75 0.85 Q-2.65 1.65 -1.3 1.75 L-2.05 2.45 M-10.55 -10.6 L-10.45 -10.25 -10.7 -9.4 -10.65 -9.7 -10.55 -10.6" fill="#50b6b0" fill-rule="evenodd" stroke="none"/>
    <path d="M3.0 -7.15 L5.3 -4.85 5.4 -4.7 5.6 -4.45 5.7 -4.3 5.8 -4.15 5.95 -3.9 6.65 -2.7 Q5.85 -3.15 5.2 -4.05 L4.5 -4.8 3.8 -5.6 2.4 -6.4 0.35 -7.45 -3.15 -8.9 -3.45 -9.35 -3.35 -9.4 -2.5 -9.15 -0.8 -8.7 1.15 -8.15 1.25 -8.1 1.8 -7.6 1.95 -7.5 3.0 -7.15 M-4.6 -11.1 Q-1.15 -11.1 1.0 -14.2 L2.1 -15.55 Q2.2 -16.15 2.7 -16.45 3.3 -18.25 3.0 -19.8 L2.55 -21.8 2.45 -22.05 0.9 -23.7 0.9 -23.75 0.85 -23.8 0.85 -23.85 0.8 -23.9 0.5 -24.05 0.7 -25.0 1.85 -24.1 3.6 -22.2 4.0 -21.5 4.05 -21.4 3.5 -19.5 Q3.9 -17.55 2.95 -15.45 2.45 -14.3 1.45 -13.35 L1.3 -13.25 0.0 -12.2 Q-1.15 -11.45 -2.45 -10.95 L-3.55 -10.65 -5.7 -10.75 -6.0 -10.85 -6.65 -11.4 -6.7 -12.2 -6.55 -12.3 -6.1 -11.75 -5.65 -11.3 -5.5 -11.15 -4.6 -11.1 M-4.25 -27.85 Q-4.3 -28.7 -3.6 -29.75 L-3.55 -29.8 -3.5 -29.9 -3.15 -30.2 Q-2.9 -30.15 -2.8 -29.95 L-2.75 -29.9 -2.75 -29.85 -2.85 -29.65 -2.9 -29.6 -2.95 -29.55 -3.25 -29.5 -3.75 -28.25 -3.65 -28.3 -3.2 -28.45 -3.25 -28.25 -3.15 -27.65 -2.75 -27.4 -3.4 -26.7 -4.0 -27.8 -4.1 -27.85 -4.2 -27.9 -4.25 -27.85 M6.2 -18.1 L6.2 -18.15 7.05 -18.35 7.9 -18.55 8.0 -18.6 Q9.1 -18.8 9.9 -18.2 L10.0 -18.05 8.1 -17.75 5.35 -17.25 5.25 -17.25 5.45 -17.45 6.2 -18.1 M-10.9 -10.7 L-10.7 -10.75 -10.65 -10.8 -10.55 -10.6 -10.65 -9.7 -10.7 -9.4 -10.55 -8.45 -10.55 -8.4 -10.65 -8.3 -10.65 -8.2 -10.35 -7.85 -10.35 -7.65 -10.35 -7.6 -9.9 -7.25 -9.55 -7.25 -8.2 -6.35 Q-6.65 -6.35 -6.0 -5.2 L-5.75 -4.6 Q-5.4 -3.3 -5.4 -1.9 L-5.4 -1.7 -5.35 -1.6 -5.25 -1.55 -5.15 -0.4 -4.95 0.55 -4.95 0.65 Q-5.9 0.25 -5.95 -1.05 L-6.05 -1.6 -6.2 -2.75 -6.45 -3.7 -6.55 -4.0 Q-7.0 -5.45 -8.7 -5.75 L-9.55 -6.1 Q-10.9 -7.0 -11.4 -8.55 -11.8 -9.85 -11.0 -10.65 L-10.9 -10.7" fill="#a1d1ce" fill-rule="evenodd" stroke="none"/>
    <path d="M10.2 -17.6 Q10.8 -17.4 10.45 -16.65 L10.2 -17.6 M-1.4 -29.6 Q-1.15 -29.15 -2.05 -28.6 L-2.15 -28.55 -2.15 -28.35 -2.15 -28.3 -2.25 -28.3 -2.25 -27.6 -2.2 -27.05 -2.75 -27.4 -3.15 -27.65 -3.25 -28.25 -3.2 -28.45 Q-3.0 -29.85 -1.4 -29.55 L-1.4 -29.6" fill="#3c918c" fill-rule="evenodd" stroke="none"/>
    <path d="M-9.9 -17.55 L-9.95 -17.85 -9.35 -18.1 -9.0 -18.05 -8.9 -17.95 -9.05 -17.85 -9.8 -17.15 -9.9 -17.55 M-9.2 -18.95 L-8.9 -19.25 -8.8 -19.25 -8.75 -19.2 -9.2 -18.95 M-7.9 -18.4 L-7.2 -17.15 Q-6.85 -16.15 -7.0 -14.8 L-7.05 -14.65 Q-7.2 -13.35 -6.55 -12.3 L-6.7 -12.2 -6.65 -11.4 -6.0 -10.85 -6.05 -10.85 Q-6.9 -10.45 -7.2 -11.4 -8.3 -14.75 -8.4 -18.25 L-8.2 -18.4 -8.1 -18.2 -8.05 -18.1 -7.9 -18.4" fill="#a7dad7" fill-rule="evenodd" stroke="none"/>
    <path d="M-9.95 -17.85 L-9.95 -18.0 -9.95 -18.1 -9.9 -18.25 -9.85 -18.45 -9.5 -18.65 -9.55 -18.7 -9.5 -18.75 -9.4 -18.8 -9.2 -18.95 -8.75 -19.2 -8.6 -19.1 -8.05 -18.55 -7.9 -18.4 -8.05 -18.1 -8.1 -18.2 -8.2 -18.4 -8.8 -18.0 -8.9 -17.95 -9.0 -18.05 -9.35 -18.1 -9.95 -17.85" fill="#dff2f0" fill-rule="evenodd" stroke="none"/>
    <path d="M9.05 -16.3 Q5.1 -15.5 2.35 -12.45 L1.55 -11.75 0.3 -10.8 0.25 -10.45 -0.2 -9.95 Q-0.05 -9.2 -0.3 -8.9 L-2.85 -9.55 -2.4 -9.7 Q0.15 -10.55 1.75 -12.75 4.25 -16.3 8.55 -16.95 L9.05 -16.3 M-7.0 -14.8 Q-6.8 -13.75 -6.05 -12.8 L-4.65 -11.15 -4.6 -11.1 -5.5 -11.15 -5.65 -11.3 -6.1 -11.75 -6.55 -12.3 Q-7.2 -13.35 -7.05 -14.65 L-7.0 -14.8" fill="#9b824d" fill-rule="evenodd" stroke="none"/>
    <path d="M3.0 1.55 Q2.65 1.45 2.4 0.95 2.3 0.8 2.5 0.7 L2.7 0.55 3.2 -1.35 3.25 -2.55 Q2.7 -4.75 1.05 -6.3 L0.6 -6.7 1.15 -6.4 Q4.3 -4.7 5.3 -1.4 L5.1 -1.15 Q5.45 -0.3 4.0 0.9 L3.0 1.55 M-5.8 -5.2 Q-5.1 -4.6 -4.65 -3.55 L-3.95 -1.95 Q-2.95 0.3 -0.8 1.5 -0.5 1.65 -0.7 1.95 -0.95 2.4 -1.5 2.35 L-2.05 2.45 -1.3 1.75 Q-2.65 1.65 -3.75 0.85 L-4.1 1.0 -4.9 -1.25 -5.3 -3.45 Q-5.4 -4.45 -5.8 -5.2" fill="#725f38" fill-rule="evenodd" stroke="none"/>
    <path d="M-2.2 -27.05 L0.7 -25.0 0.5 -24.05 0.4 -23.9 Q-0.45 -24.9 -1.6 -25.65 L-2.05 -26.0 Q-2.65 -26.5 -3.35 -26.75 L-3.4 -26.7 -2.75 -27.4 -2.2 -27.05" fill="#d0e8e6" fill-rule="evenodd" stroke="none"/>
  </g>
</svg>
